#VRML V2.0 utf8

# '156-1-004 Body'
Shape {
    appearance Appearance {
        material Material {
            ambientIntensity 0.293
            diffuseColor 0.148 0.145 0.145
            specularColor 0.180 0.168 0.160
            emissiveColor 0.0 0.0 0.0
            shininess 0.35
            transparency 0.0
        }
    }
    geometry IndexedFaceSet {
        coord Coordinate {
            point [ -1.377953 -0.196850 1.692913 -0.984252 -0.196850 1.692913
            -0.984252 0.196850 1.692913 -1.377953 0.196850 1.692913 -1.299212
            0.118110 1.614173 -1.062992 0.118110 1.614173 -1.299212 -0.118110
            1.614173 -1.062992 -0.118110 1.614173 -0.787401 -0.492126 1.692913
            -1.574803 0.374016 0.118110 -1.574803 -0.374016 0.118110 -1.574803
            -0.492126 1.692913 -1.574803 -0.492126 0.118110 -1.574803 -0.374016
            0.000000 -1.574803 0.374016 0.000000 -0.787401 0.374016 0.118110
            -0.787401 -0.374016 0.000000 -0.787401 0.374016 0.000000 -1.574803
            0.492126 0.118110 -1.574803 0.492126 1.692913 -1.299212 0.118110
            0.118110 -1.062992 0.118110 0.118110 -1.299212 -0.118110 0.118110
            -0.787401 -0.374016 0.118110 -1.062992 -0.118110 0.118110 -0.590551
            -0.196850 1.692913 -0.196850 -0.196850 1.692913 -0.196850 0.196850
            1.692913 -0.590551 0.196850 1.692913 -0.787401 0.492126 1.692913
            -0.511811 0.118110 1.614173 -0.275590 0.118110 1.614173 -0.511811
            -0.118110 1.614173 -0.275590 -0.118110 1.614173 -0.787401 -0.492126
            0.118110 -0.787401 0.492126 0.118110 -0.511811 0.118110 0.118110
            -0.275590 0.118110 0.118110 -0.511811 -0.118110 0.118110 -0.275590
            -0.118110 0.118110 0.196850 -0.196850 1.692913 0.590551 -0.196850
            1.692913 0.590551 0.196850 1.692913 0.196850 0.196850 1.692913
            0.275591 0.118110 1.614173 0.511811 0.118110 1.614173 0.275591
            -0.118110 1.614173 0.511811 -0.118110 1.614173 0.787402 -0.492126
            1.692913 0.787402 -0.492126 0.118110 0.000000 0.374016 0.118110
            0.000000 -0.492126 1.692913 0.000000 -0.492126 0.118110 0.000000
            0.374016 0.000000 0.000000 0.492126 0.118110 0.000000 0.492126
            1.692913 0.787402 0.492126 1.692913 0.787402 0.492126 0.118110
            0.275591 0.118110 0.118110 0.511811 0.118110 0.118110 0.275591
            -0.118110 0.118110 0.511811 -0.118110 0.118110 0.000000 -0.374016
            0.118110 0.787402 0.374016 0.000000 0.000000 -0.374016 0.000000
            0.984252 -0.196850 1.692913 1.574803 -0.492126 1.692913 1.377953
            -0.196850 1.692913 1.377953 0.196850 1.692913 0.984252 0.196850
            1.692913 1.062992 0.118110 1.614173 1.299213 0.118110 1.614173
            1.062992 -0.118110 1.614173 1.299213 -0.118110 1.614173 0.787402
            -0.374016 0.118110 1.574803 0.374016 0.118110 1.574803 0.492126
            0.118110 1.574803 -0.374016 0.118110 1.574803 -0.492126 0.118110
            1.574803 0.492126 1.692913 1.299213 0.118110 0.118110 0.787402
            0.374016 0.118110 1.574803 0.374016 0.000000 0.787402 -0.374016
            0.000000 1.574803 -0.374016 0.000000 1.062992 -0.118110 0.118110
            1.299213 -0.118110 0.118110 1.062992 0.118110 0.118110 ]
        }
        coordIndex [ 3 29 19 -1 3 11 0 -1 6 1 7 -1 8 2 1 -1 2 4 5 -1 3 6 4 -1 1
        5 7 -1 24 5 21 -1 9 19 18 -1 12 11 10 -1 15 18 35 -1 1 11 8 -1 34 10 23
        -1 16 14 17 -1 12 8 11 -1 20 24 21 -1 23 13 16 -1 10 14 13 -1 35 19 29
        -1 19 10 11 -1 22 7 24 -1 17 9 15 -1 6 20 4 -1 21 4 20 -1 28 55 29 -1 28
        8 25 -1 32 26 33 -1 51 27 26 -1 27 30 31 -1 28 32 30 -1 26 31 33 -1 39
        31 37 -1 50 35 54 -1 26 8 51 -1 52 23 62 -1 64 17 53 -1 34 51 8 -1 36 39
        37 -1 62 16 64 -1 54 29 55 -1 38 33 39 -1 53 15 50 -1 32 36 30 -1 37 30
        36 -1 43 56 55 -1 43 51 40 -1 46 41 47 -1 48 42 41 -1 42 44 45 -1 43 46
        44 -1 41 45 47 -1 61 45 59 -1 81 54 57 -1 41 51 48 -1 49 62 74 -1 83 53
        63 -1 52 48 51 -1 58 61 59 -1 74 64 83 -1 57 55 56 -1 60 47 61 -1 63 50
        81 -1 46 58 44 -1 59 44 58 -1 69 79 56 -1 69 48 65 -1 72 67 73 -1 66 68
        67 -1 68 70 71 -1 69 72 70 -1 67 71 73 -1 86 71 80 -1 75 66 77 -1 75 57
        76 -1 79 75 76 -1 67 48 66 -1 66 78 77 -1 78 74 77 -1 84 63 82 -1 49 66
        48 -1 84 75 77 -1 87 86 80 -1 77 83 84 -1 76 56 79 -1 85 73 86 -1 82 81
        75 -1 72 87 70 -1 80 70 87 -1 3 2 29 -1 3 19 11 -1 6 0 1 -1 8 29 2 -1 2
        3 4 -1 3 0 6 -1 1 2 5 -1 24 7 5 -1 15 9 18 -1 1 0 11 -1 34 12 10 -1 16
        13 14 -1 12 34 8 -1 20 22 24 -1 23 10 13 -1 10 9 14 -1 35 18 19 -1 19 9
        10 -1 22 6 7 -1 17 14 9 -1 6 22 20 -1 21 5 4 -1 28 27 55 -1 28 29 8 -1
        32 25 26 -1 51 55 27 -1 27 28 30 -1 28 25 32 -1 26 27 31 -1 39 33 31 -1
        50 15 35 -1 26 25 8 -1 52 34 23 -1 64 16 17 -1 34 52 51 -1 36 38 39 -1
        62 23 16 -1 54 35 29 -1 38 32 33 -1 53 17 15 -1 32 38 36 -1 37 31 30 -1
        43 42 56 -1 43 55 51 -1 46 40 41 -1 48 56 42 -1 42 43 44 -1 43 40 46 -1
        41 42 45 -1 61 47 45 -1 81 50 54 -1 41 40 51 -1 49 52 62 -1 83 64 53 -1
        52 49 48 -1 58 60 61 -1 74 62 64 -1 57 54 55 -1 60 46 47 -1 63 53 50 -1
        46 60 58 -1 59 45 44 -1 69 68 79 -1 69 56 48 -1 72 65 67 -1 66 79 68 -1
        68 69 70 -1 69 65 72 -1 67 68 71 -1 86 73 71 -1 75 79 66 -1 75 81 57 -1
        67 65 48 -1 78 49 74 -1 84 83 63 -1 49 78 66 -1 84 82 75 -1 87 85 86 -1
        77 74 83 -1 76 57 56 -1 85 72 73 -1 82 63 81 -1 72 85 87 -1 80 71 70 -1
        ]
    }
}

# '156-1-004 Contacts'
Shape {
    appearance Appearance {
        material Material {
            ambientIntensity 0.379
            diffuseColor 0.859 0.738 0.496
            specularColor 0.137 0.145 0.184
            emissiveColor 0.0 0.0 0.0
            shininess 0.40
            transparency 0.0
        }
    }
    geometry IndexedFaceSet {
        coord Coordinate {
            point [ -1.279527 -0.039370 0.000000 -1.082677 -0.039370 0.000000
            -1.082677 0.039370 0.000000 -1.279527 0.039370 0.000000 -1.279527
            -0.039370 -0.944882 -1.279527 0.039370 -0.944882 -1.240157 -0.039370
            -1.062992 -1.240157 0.039370 -1.062992 -1.122047 -0.039370 -1.062992
            -1.122047 0.039370 -1.062992 -1.082677 -0.039370 -0.944882 -1.082677
            0.039370 -0.944882 -1.279527 -0.039370 -0.944882 -1.082677 -0.039370
            0.000000 -1.279527 -0.039370 0.000000 -1.082677 -0.039370 -0.944882
            -1.240157 -0.039370 -1.062992 -1.122047 -0.039370 -1.062992
            -1.082677 0.039370 0.000000 -1.279527 0.039370 -0.944882 -1.279527
            0.039370 0.000000 -1.082677 0.039370 -0.944882 -1.122047 0.039370
            -1.062992 -1.240157 0.039370 -1.062992 -0.492126 -0.039370 0.000000
            -0.295276 -0.039370 0.000000 -0.295276 0.039370 0.000000 -0.492126
            0.039370 0.000000 -0.492126 -0.039370 -0.944882 -0.492126 0.039370
            -0.944882 -0.452756 -0.039370 -1.062992 -0.452756 0.039370 -1.062992
            -0.334646 -0.039370 -1.062992 -0.334646 0.039370 -1.062992 -0.295276
            -0.039370 -0.944882 -0.295276 0.039370 -0.944882 -0.492126 -0.039370
            -0.944882 -0.295276 -0.039370 0.000000 -0.492126 -0.039370 0.000000
            -0.295276 -0.039370 -0.944882 -0.452756 -0.039370 -1.062992
            -0.334646 -0.039370 -1.062992 -0.295276 0.039370 0.000000 -0.492126
            0.039370 -0.944882 -0.492126 0.039370 0.000000 -0.295276 0.039370
            -0.944882 -0.334646 0.039370 -1.062992 -0.452756 0.039370 -1.062992
            0.295276 -0.039370 0.000000 0.492126 -0.039370 0.000000 0.492126
            0.039370 0.000000 0.295276 0.039370 0.000000 0.295276 -0.039370
            -0.944882 0.295276 0.039370 -0.944882 0.334646 -0.039370 -1.062992
            0.334646 0.039370 -1.062992 0.452756 -0.039370 -1.062992 0.452756
            0.039370 -1.062992 0.492126 -0.039370 -0.944882 0.492126 0.039370
            -0.944882 0.295276 -0.039370 -0.944882 0.492126 -0.039370 0.000000
            0.295276 -0.039370 0.000000 0.492126 -0.039370 -0.944882 0.334646
            -0.039370 -1.062992 0.452756 -0.039370 -1.062992 0.492126 0.039370
            0.000000 0.295276 0.039370 -0.944882 0.295276 0.039370 0.000000
            0.492126 0.039370 -0.944882 0.452756 0.039370 -1.062992 0.334646
            0.039370 -1.062992 1.082677 -0.039370 0.000000 1.279528 -0.039370
            0.000000 1.279528 0.039370 0.000000 1.082677 0.039370 0.000000
            1.082677 -0.039370 -0.944882 1.082677 0.039370 -0.944882 1.122047
            -0.039370 -1.062992 1.122047 0.039370 -1.062992 1.240158 -0.039370
            -1.062992 1.240158 0.039370 -1.062992 1.279528 -0.039370 -0.944882
            1.279528 0.039370 -0.944882 1.082677 -0.039370 -0.944882 1.279528
            -0.039370 0.000000 1.082677 -0.039370 0.000000 1.279528 -0.039370
            -0.944882 1.122047 -0.039370 -1.062992 1.240158 -0.039370 -1.062992
            1.279528 0.039370 0.000000 1.082677 0.039370 -0.944882 1.082677
            0.039370 0.000000 1.279528 0.039370 -0.944882 1.240158 0.039370
            -1.062992 1.122047 0.039370 -1.062992 ]
        }
        coordIndex [ 9 6 7 -1 19 18 21 -1 11 8 9 -1 7 4 5 -1 19 22 23 -1 5 0 3
        -1 15 14 12 -1 12 17 15 -1 2 10 11 -1 33 30 31 -1 43 42 45 -1 35 32 33
        -1 31 28 29 -1 47 45 46 -1 29 24 27 -1 39 38 36 -1 39 40 41 -1 26 34 35
        -1 57 54 55 -1 67 66 69 -1 59 56 57 -1 55 52 53 -1 67 70 71 -1 53 48 51
        -1 63 62 60 -1 60 65 63 -1 50 58 59 -1 81 78 79 -1 91 90 93 -1 83 80 81
        -1 79 76 77 -1 91 94 95 -1 77 72 75 -1 87 86 84 -1 84 89 87 -1 74 82 83
        -1 9 8 6 -1 19 20 18 -1 11 10 8 -1 7 6 4 -1 19 21 22 -1 5 4 0 -1 15 13
        14 -1 12 16 17 -1 2 1 10 -1 33 32 30 -1 43 44 42 -1 35 34 32 -1 31 30 28
        -1 47 43 45 -1 29 28 24 -1 39 37 38 -1 39 36 40 -1 26 25 34 -1 57 56 54
        -1 67 68 66 -1 59 58 56 -1 55 54 52 -1 67 69 70 -1 53 52 48 -1 63 61 62
        -1 60 64 65 -1 50 49 58 -1 81 80 78 -1 91 92 90 -1 83 82 80 -1 79 78 76
        -1 91 93 94 -1 77 76 72 -1 87 85 86 -1 84 88 89 -1 74 73 82 -1 ]
    }
}
