(footprint "430450400" (version 20211014) (generator pcbnew)
  (layer "F.Cu")
  (tedit 61DDEC6F)
  (solder_mask_margin 0.05)
  (solder_paste_margin -0.05)
  (clearance 0.1)
  (attr through_hole)
  (fp_text reference "REF**" (at 0 -8.8) (layer "F.SilkS")
    (effects (font (size 0.6 0.6) (thickness 0.15)))
    (tstamp 59ec3156-036e-4049-89db-91a9dd07095f)
  )
  (fp_text value "430450400" (at 0 -9.7) (layer "F.Fab")
    (effects (font (size 0.6 0.6) (thickness 0.15)))
    (tstamp d39d813e-3e64-490c-ba5c-a64bb5ad6bd0)
  )
  (fp_line (start 4.9 3) (end 3.45 4.7) (layer "F.SilkS") (width 0.15) (tstamp 009a4fb4-fcc0-4623-ae5d-c1bae3219583))
  (fp_line (start -4.9 3) (end -3.45 4.7) (layer "F.SilkS") (width 0.15) (tstamp 2dc54bac-8640-4dd7-b8ed-3c7acb01a8ea))
  (fp_line (start 5.15 1.5) (end 4.9 1.5) (layer "F.SilkS") (width 0.15) (tstamp 37f31dec-63fc-4634-a141-5dc5d2b60fe4))
  (fp_line (start -5.15 -5.4) (end -5.15 1.5) (layer "F.SilkS") (width 0.15) (tstamp 70fb572d-d5ec-41e7-9482-63d4578b4f47))
  (fp_line (start -5.15 1.5) (end -4.9 1.5) (layer "F.SilkS") (width 0.15) (tstamp 7afa54c4-2181-41d3-81f7-39efc497ecae))
  (fp_line (start 5.15 -5.4) (end 5.15 1.5) (layer "F.SilkS") (width 0.15) (tstamp 88668202-3f0b-4d07-84d4-dcd790f57272))
  (fp_line (start 4.9 1.5) (end 4.9 3) (layer "F.SilkS") (width 0.15) (tstamp 91c1eb0a-67ae-4ef0-95ce-d060a03a7313))
  (fp_line (start -5.15 -5.4) (end 5.15 -5.4) (layer "F.SilkS") (width 0.15) (tstamp c24d6ac8-802d-4df3-a210-9cb1f693e865))
  (fp_line (start 3.45 4.7) (end -3.45 4.7) (layer "F.SilkS") (width 0.15) (tstamp cf386a39-fc62-49dd-8ec5-e044f6bd67ce))
  (fp_line (start -4.9 1.5) (end -4.9 3) (layer "F.SilkS") (width 0.15) (tstamp eae0ab9f-65b2-44d3-aba7-873c3227fba7))
  (fp_circle (center 0 0) (end 2.5 0) (layer "B.CrtYd") (width 0.05) (fill none) (tstamp c106154f-d948-43e5-abfa-e1b96055d91b))
  (fp_line (start 2.45 -8.3) (end -2.45 -8.3) (layer "F.CrtYd") (width 0.05) (tstamp 065b9982-55f2-4822-977e-07e8a06e7b35))
  (fp_line (start 5.25 4.8) (end 5.25 -5.5) (layer "F.CrtYd") (width 0.05) (tstamp 25e5aa8e-2696-44a3-8d3c-c2c53f2923cf))
  (fp_line (start -2.45 -8.3) (end -2.45 -5.5) (layer "F.CrtYd") (width 0.05) (tstamp 609b9e1b-4e3b-42b7-ac76-a62ec4d0e7c7))
  (fp_line (start -5.25 4.8) (end 5.25 4.8) (layer "F.CrtYd") (width 0.05) (tstamp 6bf05d19-ba3e-4ba6-8a6f-4e0bc45ea3b2))
  (fp_line (start 5.25 -5.5) (end 2.45 -5.5) (layer "F.CrtYd") (width 0.05) (tstamp a24ddb4f-c217-42ca-b6cb-d12da84fb2b9))
  (fp_line (start 2.45 -5.5) (end 2.45 -8.3) (layer "F.CrtYd") (width 0.05) (tstamp a6ccc556-da88-4006-ae1a-cc35733efef3))
  (fp_line (start -5.25 -5.5) (end -5.25 4.8) (layer "F.CrtYd") (width 0.05) (tstamp b7867831-ef82-4f33-a926-59e5c1c09b91))
  (fp_line (start -2.45 -5.5) (end -5.25 -5.5) (layer "F.CrtYd") (width 0.05) (tstamp e54e5e19-1deb-49a9-8629-617db8e434c0))
  (fp_line (start 4.825 2.95) (end 4.825 1.43) (layer "F.Fab") (width 0.15) (tstamp 071522c0-d0ed-49b9-906e-6295f67fb0dc))
  (fp_line (start 4.825 1.43) (end 5.075 1.43) (layer "F.Fab") (width 0.15) (tstamp 2846428d-39de-4eae-8ce2-64955d56c493))
  (fp_line (start 4.825 2.95) (end 3.4405 4.6) (layer "F.Fab") (width 0.15) (tstamp 4e315e69-0417-463a-8b7f-469a08d1496e))
  (fp_line (start 5.075 1.43) (end 5.075 -5.31) (layer "F.Fab") (width 0.15) (tstamp 4fa10683-33cd-4dcd-8acc-2415cd63c62a))
  (fp_line (start -3.4405 4.6) (end 3.4405 4.6) (layer "F.Fab") (width 0.15) (tstamp 6a2b20ae-096c-4d9f-92f8-2087c865914f))
  (fp_line (start -5.075 1.43) (end -5.075 -5.31) (layer "F.Fab") (width 0.15) (tstamp 8bc2c25a-a1f1-4ce8-b96a-a4f8f4c35079))
  (fp_line (start -5.075 -5.31) (end 5.075 -5.31) (layer "F.Fab") (width 0.15) (tstamp 9cbf35b8-f4d3-42a3-bb16-04ffd03fd8fd))
  (fp_line (start -4.825 2.95) (end -4.825 1.43) (layer "F.Fab") (width 0.15) (tstamp b1ddb058-f7b2-429c-9489-f4e2242ad7e5))
  (fp_line (start -4.825 1.43) (end -5.075 1.43) (layer "F.Fab") (width 0.15) (tstamp eee16674-2d21-45b6-ab5e-d669125df26c))
  (fp_line (start -4.825 2.95) (end -3.4405 4.6) (layer "F.Fab") (width 0.15) (tstamp f449bd37-cc90-4487-aee6-2a20b8d2843a))
  (pad "" np_thru_hole circle (at 0 0) (size 3.1 3.1) (drill 3) (layers *.Mask) (tstamp 18b7e157-ae67-48ad-bd7c-9fef6fe45b22))
  (pad "1" thru_hole circle (at 1.5 -4.32) (size 1.7 1.7) (drill 1.02) (layers *.Cu *.Mask) (tstamp dc2801a1-d539-4721-b31f-fe196b9f13df))
  (pad "2" thru_hole circle (at -1.5 -4.32) (size 1.7 1.7) (drill 1.02) (layers *.Cu *.Mask) (tstamp 970e0f64-111f-41e3-9f5a-fb0d0f6fa101))
  (pad "3" thru_hole circle (at 1.5 -7.32) (size 1.7 1.7) (drill 1.02) (layers *.Cu *.Mask) (tstamp 6d1d60ff-408a-47a7-892f-c5cf9ef6ca75))
  (pad "4" thru_hole circle (at -1.5 -7.32) (size 1.7 1.7) (drill 1.02) (layers *.Cu *.Mask) (tstamp b6135480-ace6-42b2-9c47-856ef57cded1))
)
