(footprint "171-02" (version 20211014) (generator pcbnew)
  (layer "F.Cu")
  (tedit 61F2F2FB)
  (attr through_hole)
  (fp_text reference "REF**" (at 0 -5.2 unlocked) (layer "F.SilkS")
    (effects (font (size 0.6 0.6) (thickness 0.15)))
    (tstamp 0143521d-d3d5-4139-ad0a-dab254094b43)
  )
  (fp_text value "171-02" (at 0 5.3 unlocked) (layer "F.Fab")
    (effects (font (size 0.6 0.6) (thickness 0.15)))
    (tstamp 312b439e-440a-4dfd-8416-fd908d3936c3)
  )
  (fp_rect (start -7.55 -4.55) (end 7.55 4.55) (layer "F.SilkS") (width 0.15) (fill none) (tstamp f9872587-aa5b-4dfb-b262-d88d8127b0ec))
  (fp_rect (start -7.8 -4.8) (end 7.8 4.8) (layer "F.CrtYd") (width 0.05) (fill none) (tstamp 8c410e95-dd5f-4800-b82b-d5d455e60bf6))
  (fp_rect (start -7.5 -4.5) (end 7.5 4.5) (layer "F.Fab") (width 0.1) (fill none) (tstamp e7db604b-edc7-421e-96c2-a55c03c964d2))
  (pad "1" thru_hole circle (at -3.75 0) (size 2.6 2.6) (drill 1.3) (layers *.Cu *.Mask) (tstamp ec6b4502-eb14-496a-a7d7-06542cb55d58))
  (pad "2" thru_hole circle (at 3.75 0) (size 2.6 2.6) (drill 1.3) (layers *.Cu *.Mask) (tstamp 0cc21b32-e9a5-43b9-999f-497abf5ac714))
)
