(module R-PDSO-G8-DDA (layer F.Cu) (tedit 5BB9DF94)
  (solder_mask_margin 0.05)
  (solder_paste_margin -0.05)
  (clearance 0.1)
  (attr smd)
  (fp_text reference REF** (at 0 -4.1) (layer F.SilkS)
    (effects (font (size 0.6 0.6) (thickness 0.15)))
  )
  (fp_text value R-PDSO-G8-DDA (at 0 4.2) (layer F.Fab)
    (effects (font (size 0.6 0.6) (thickness 0.15)))
  )
  (fp_line (start -2.8 3.65) (end 2.8 3.65) (layer F.CrtYd) (width 0.05))
  (fp_line (start -2.8 -3.65) (end 2.8 -3.65) (layer F.CrtYd) (width 0.05))
  (fp_line (start 2.8 3.65) (end 2.8 -3.65) (layer F.CrtYd) (width 0.05))
  (fp_line (start -2.8 3.65) (end -2.8 -3.65) (layer F.CrtYd) (width 0.05))
  (fp_circle (center -2.6 2.5) (end -2.5 2.5) (layer F.SilkS) (width 0.2))
  (fp_line (start 2.5 2) (end 2.33 2) (layer F.SilkS) (width 0.15))
  (fp_line (start 2.5 -2) (end 2.5 2) (layer F.SilkS) (width 0.15))
  (fp_line (start 2.33 -2) (end 2.5 -2) (layer F.SilkS) (width 0.15))
  (fp_line (start -0.21 2) (end 0.21 2) (layer F.SilkS) (width 0.15))
  (fp_line (start -1.48 2) (end -1.06 2) (layer F.SilkS) (width 0.15))
  (fp_line (start 1.06 2) (end 1.48 2) (layer F.SilkS) (width 0.15))
  (fp_line (start 1.06 -2) (end 1.48 -2) (layer F.SilkS) (width 0.15))
  (fp_line (start -0.21 -2) (end 0.21 -2) (layer F.SilkS) (width 0.15))
  (fp_line (start -1.48 -2) (end -1.06 -2) (layer F.SilkS) (width 0.15))
  (fp_line (start -2.5 -2) (end -2.33 -2) (layer F.SilkS) (width 0.15))
  (fp_line (start -2.5 2) (end -2.5 -2) (layer F.SilkS) (width 0.15))
  (fp_line (start -2.33 2) (end -2.5 2) (layer F.SilkS) (width 0.15))
  (fp_poly (pts (xy 1.5 1.15) (xy 1.5 0.95) (xy 1.3 0.95) (xy 1.207 0.935)
    (xy 1.125 0.893) (xy 1.061 0.831) (xy 1.017 0.75) (xy 0.282 0.75)
    (xy 0.253 0.811) (xy 0.211 0.863) (xy 0.159 0.904) (xy 0.1 0.933)
    (xy 0.1 1.15)) (layer F.Paste) (width 0))
  (fp_poly (pts (xy 1.5 -1.15) (xy 1.5 -0.95) (xy 1.3 -0.95) (xy 1.207 -0.935)
    (xy 1.125 -0.894) (xy 1.061 -0.831) (xy 1.017 -0.75) (xy 0.282 -0.75)
    (xy 0.253 -0.811) (xy 0.211 -0.864) (xy 0.159 -0.904) (xy 0.1 -0.933)
    (xy 0.1 -1.15)) (layer F.Paste) (width 0))
  (fp_poly (pts (xy -1.5 1.15) (xy -1.5 0.95) (xy -1.3 0.95) (xy -1.207 0.935)
    (xy -1.125 0.894) (xy -1.061 0.831) (xy -1.017 0.75) (xy -0.282 0.75)
    (xy -0.253 0.811) (xy -0.211 0.864) (xy -0.159 0.904) (xy -0.1 0.933)
    (xy -0.1 1.15)) (layer F.Paste) (width 0))
  (fp_poly (pts (xy 0.282 -0.55) (xy 0.214 -0.44) (xy 0.162 -0.398) (xy 0.1 -0.367)
    (xy 0.1 0.367) (xy 0.161 0.397) (xy 0.213 0.439) (xy 0.254 0.49)
    (xy 0.282 0.55) (xy 1.017 0.55) (xy 1.055 0.477) (xy 1.11 0.418)
    (xy 1.198 0.368) (xy 1.3 0.35) (xy 1.5 0.35) (xy 1.5 -0.35)
    (xy 1.3 -0.35) (xy 1.2 -0.367) (xy 1.113 -0.416) (xy 1.056 -0.476)
    (xy 1.018 -0.55)) (layer F.Paste) (width 0))
  (fp_poly (pts (xy -1.018 -0.55) (xy -1.06 -0.471) (xy -1.122 -0.409) (xy -1.205 -0.365)
    (xy -1.3 -0.35) (xy -1.5 -0.35) (xy -1.5 0.35) (xy -1.3 0.35)
    (xy -1.207 0.365) (xy -1.126 0.406) (xy -1.061 0.469) (xy -1.017 0.55)
    (xy -0.282 0.55) (xy -0.254 0.49) (xy -0.213 0.439) (xy -0.161 0.397)
    (xy -0.1 0.367) (xy -0.1 -0.367) (xy -0.161 -0.397) (xy -0.212 -0.439)
    (xy -0.253 -0.49) (xy -0.282 -0.55)) (layer F.Paste) (width 0))
  (fp_poly (pts (xy -1.5 -1.15) (xy -1.5 -0.95) (xy -1.3 -0.95) (xy -1.207 -0.935)
    (xy -1.125 -0.893) (xy -1.061 -0.831) (xy -1.017 -0.75) (xy -0.282 -0.75)
    (xy -0.253 -0.811) (xy -0.211 -0.864) (xy -0.159 -0.904) (xy -0.1 -0.933)
    (xy -0.1 -1.15)) (layer F.Paste) (width 0))
  (fp_line (start -1.45 -1) (end 1.45 -1) (layer F.Fab) (width 0.1))
  (fp_line (start -1.45 1) (end -1.45 -1) (layer F.Fab) (width 0.1))
  (fp_line (start 1.45 1) (end -1.45 1) (layer F.Fab) (width 0.1))
  (fp_line (start 1.45 -1) (end 1.45 1) (layer F.Fab) (width 0.1))
  (fp_line (start -2.45 -1.95) (end 2.45 -1.95) (layer F.Fab) (width 0.1))
  (fp_line (start -2.45 1.95) (end -2.45 -1.95) (layer F.Fab) (width 0.1))
  (fp_line (start 2.45 1.95) (end -2.45 1.95) (layer F.Fab) (width 0.1))
  (fp_line (start 2.45 -1.95) (end 2.45 1.95) (layer F.Fab) (width 0.1))
  (fp_poly (pts (xy -1.55 -1.2) (xy 1.55 -1.2) (xy 1.55 1.2) (xy -1.55 1.2)) (layer F.Mask) (width 0))
  (fp_circle (center -1.75 1.25) (end -1.55 1.25) (layer F.Fab) (width 0.1))
  (fp_poly (pts (xy -2.0955 -1.9685) (xy -2.0955 -2.9845) (xy -1.7145 -2.9845) (xy -1.7145 -1.9685)) (layer F.Fab) (width 0))
  (fp_poly (pts (xy -0.8255 -1.9685) (xy -0.8255 -2.9845) (xy -0.4445 -2.9845) (xy -0.4445 -1.9685)) (layer F.Fab) (width 0))
  (fp_poly (pts (xy 1.7145 2.9845) (xy 1.7145 1.9685) (xy 2.0955 1.9685) (xy 2.0955 2.9845)) (layer F.Fab) (width 0))
  (fp_poly (pts (xy -0.8255 2.9845) (xy -0.8255 1.9685) (xy -0.4445 1.9685) (xy -0.4445 2.9845)) (layer F.Fab) (width 0))
  (fp_poly (pts (xy 0.4445 2.9845) (xy 0.4445 1.9685) (xy 0.8255 1.9685) (xy 0.8255 2.9845)) (layer F.Fab) (width 0))
  (fp_poly (pts (xy 1.7145 -1.9685) (xy 1.7145 -2.9845) (xy 2.0955 -2.9845) (xy 2.0955 -1.9685)) (layer F.Fab) (width 0))
  (fp_poly (pts (xy 0.4445 -1.9685) (xy 0.4445 -2.9845) (xy 0.8255 -2.9845) (xy 0.8255 -1.9685)) (layer F.Fab) (width 0))
  (fp_poly (pts (xy -2.0955 2.9845) (xy -2.0955 1.9685) (xy -1.7145 1.9685) (xy -1.7145 2.9845)) (layer F.Fab) (width 0))
  (pad 6 smd rect (at 0.635 -2.75) (size 0.5 1.6) (layers F.Cu F.Paste F.Mask))
  (pad 5 smd rect (at 1.905 -2.75) (size 0.5 1.6) (layers F.Cu F.Paste F.Mask))
  (pad 8 smd rect (at -1.905 -2.75) (size 0.5 1.6) (layers F.Cu F.Paste F.Mask))
  (pad 7 smd rect (at -0.635 -2.75) (size 0.5 1.6) (layers F.Cu F.Paste F.Mask))
  (pad 3 smd rect (at 0.635 2.75) (size 0.5 1.6) (layers F.Cu F.Paste F.Mask))
  (pad 2 smd rect (at -0.635 2.75) (size 0.5 1.6) (layers F.Cu F.Paste F.Mask))
  (pad 1 smd rect (at -1.905 2.75) (size 0.5 1.6) (layers F.Cu F.Paste F.Mask))
  (pad 4 smd rect (at 1.905 2.75) (size 0.5 1.6) (layers F.Cu F.Paste F.Mask))
  (pad P thru_hole circle (at 1.3 0.65) (size 0.3 0.3) (drill 0.3) (layers *.Cu B.Mask))
  (pad P thru_hole circle (at 0 0.65) (size 0.3 0.3) (drill 0.3) (layers *.Cu B.Mask))
  (pad P thru_hole circle (at -1.3 0.65) (size 0.3 0.3) (drill 0.3) (layers *.Cu B.Mask))
  (pad P thru_hole circle (at -1.3 -0.65) (size 0.3 0.3) (drill 0.3) (layers *.Cu B.Mask))
  (pad P thru_hole circle (at 1.3 -0.65) (size 0.3 0.3) (drill 0.3) (layers *.Cu B.Mask))
  (pad P thru_hole circle (at 0 -0.65) (size 0.3 0.3) (drill 0.3) (layers *.Cu B.Mask))
  (pad P smd rect (at 0 0) (size 4.9 2.9) (layers F.Cu))
  (pad P smd rect (at 0 0) (size 4.9 2.9) (layers B.Cu))
)
