#VRML V2.0 utf8

# 'C-0402 Contacts'
Shape {
    appearance Appearance {
        material Material {
            ambientIntensity 0.271
            diffuseColor 0.824 0.820 0.781
            specularColor 0.328 0.258 0.172
            emissiveColor 0.0 0.0 0.0
            shininess 0.70
            transparency 0.0
        }
    }
    geometry IndexedFaceSet {
        coord Coordinate {
            point [ -0.110236 0.086614 0.196850 -0.185039 0.086614 0.196850
            -0.105111 0.086614 0.195681 -0.098425 -0.086614 0.185039 -0.185039
            0.093978 0.194274 -0.185039 0.098129 0.187668 -0.185039 -0.091739
            0.195681 -0.110236 -0.091739 0.195681 -0.185039 -0.093978 0.194274
            -0.110236 -0.093978 0.194274 -0.185039 -0.098129 0.187668 -0.110236
            -0.098129 0.187668 -0.190164 0.086614 0.195681 -0.192404 -0.086614
            0.194274 -0.196554 -0.086614 0.187668 -0.105111 0.097256 0.185039
            -0.099595 -0.091739 0.185039 -0.098721 -0.089243 0.185039 -0.098425
            0.086614 0.011811 -0.185039 0.098425 0.011811 -0.192404 0.095848
            0.185039 -0.196554 0.089243 0.185039 -0.190164 0.097256 0.185039
            -0.110236 -0.098425 0.011811 -0.185039 -0.098425 0.011811 -0.192404
            -0.095848 0.185039 -0.195681 -0.091739 0.185039 -0.196554 -0.089243
            0.185039 -0.102872 0.095848 0.011811 -0.105111 0.097256 0.011811
            -0.107608 0.098129 0.011811 -0.098721 -0.089243 0.011811 -0.099595
            -0.091739 0.011811 -0.101002 -0.093978 0.011811 -0.102872 -0.095848
            0.011811 -0.105111 -0.097256 0.011811 -0.107608 -0.098129 0.011811
            -0.107608 0.086614 0.000296 -0.101002 0.086614 0.004447 -0.099595
            -0.086614 0.006686 -0.099595 0.086614 0.006686 -0.196554 0.089243
            0.011811 -0.195681 0.091739 0.011811 -0.192404 0.095848 0.011811
            -0.190164 0.097256 0.011811 -0.187668 0.098129 0.011811 -0.110236
            0.089243 0.000296 -0.185039 0.086614 0.000000 -0.185039 0.089243
            0.000296 -0.110236 0.093978 0.002577 -0.185039 0.093978 0.002577
            -0.110236 0.097256 0.006686 -0.185039 0.097256 0.006686 -0.110236
            0.098129 0.009183 -0.196554 -0.089243 0.011811 -0.195681 -0.091739
            0.011811 -0.194274 -0.093978 0.011811 -0.192404 -0.095848 0.011811
            -0.190164 -0.097256 0.011811 -0.187668 -0.098129 0.011811 -0.110236
            -0.089243 0.000296 -0.185039 -0.089243 0.000296 -0.185039 -0.091739
            0.001170 -0.185039 -0.093978 0.002577 -0.110236 -0.095848 0.004447
            -0.185039 -0.095848 0.004447 -0.110236 -0.097256 0.006686 -0.185039
            -0.097256 0.006686 -0.185039 -0.098129 0.009183 -0.196554 -0.086614
            0.009183 -0.196554 0.086614 0.009183 -0.195681 -0.086614 0.006686
            -0.195681 0.086614 0.006686 -0.192404 -0.086614 0.002577 -0.192404
            0.086614 0.002577 -0.187668 0.086614 0.000296 -0.185039 0.098129
            0.009183 -0.196850 0.086614 0.011811 -0.194274 0.086614 0.004447
            -0.190164 0.086614 0.001170 -0.196266 0.089176 0.009183 -0.195414
            0.088982 0.006686 -0.194042 0.088669 0.004447 -0.192219 0.088253
            0.002577 -0.190035 0.087755 0.001170 -0.187602 0.087199 0.000296
            -0.195414 0.091610 0.009183 -0.194627 0.091231 0.006686 -0.193359
            0.090621 0.004447 -0.191674 0.089809 0.002577 -0.189656 0.088838
            0.001170 -0.187407 0.087755 0.000296 -0.194274 0.093978 0.011811
            -0.194042 0.093794 0.009183 -0.193359 0.093249 0.006686 -0.192259
            0.092372 0.004447 -0.190797 0.091206 0.002577 -0.189046 0.089809
            0.001170 -0.187094 0.088253 0.000296 -0.192219 0.095617 0.009183
            -0.191674 0.094934 0.006686 -0.190797 0.093834 0.004447 -0.189631
            0.092372 0.002577 -0.188235 0.090621 0.001170 -0.186678 0.088669
            0.000296 -0.190035 0.096989 0.009183 -0.189656 0.096202 0.006686
            -0.189046 0.094934 0.004447 -0.188234 0.093249 0.002577 -0.187263
            0.091231 0.001170 -0.186180 0.088982 0.000296 -0.187602 0.097840
            0.009183 -0.187407 0.096989 0.006686 -0.187094 0.095617 0.004447
            -0.186678 0.093794 0.002577 -0.186180 0.091610 0.001170 -0.185624
            0.089176 0.000296 -0.185039 0.095848 0.004447 -0.185039 0.091739
            0.001170 -0.107674 0.097840 0.009183 -0.107868 0.096989 0.006686
            -0.108181 0.095617 0.004447 -0.108598 0.093794 0.002577 -0.109096
            0.091610 0.001170 -0.109651 0.089176 0.000296 -0.105240 0.096989
            0.009183 -0.105619 0.096202 0.006686 -0.106230 0.094934 0.004447
            -0.107041 0.093249 0.002577 -0.108013 0.091231 0.001170 -0.109096
            0.088982 0.000296 -0.103057 0.095617 0.009183 -0.103601 0.094934
            0.006686 -0.104479 0.093834 0.004447 -0.105645 0.092372 0.002577
            -0.107041 0.090621 0.001170 -0.108598 0.088669 0.000296 -0.101002
            0.093978 0.011811 -0.101234 0.093794 0.009183 -0.101916 0.093249
            0.006686 -0.103017 0.092372 0.004447 -0.104479 0.091206 0.002577
            -0.106230 0.089809 0.001170 -0.108181 0.088253 0.000296 -0.099595
            0.091739 0.011811 -0.099862 0.091610 0.009183 -0.100649 0.091231
            0.006686 -0.101916 0.090621 0.004447 -0.103601 0.089809 0.002577
            -0.105619 0.088838 0.001170 -0.107868 0.087755 0.000296 -0.098721
            0.089242 0.011811 -0.099010 0.089176 0.009183 -0.099862 0.088982
            0.006686 -0.101234 0.088669 0.004447 -0.103057 0.088253 0.002577
            -0.105240 0.087755 0.001170 -0.107674 0.087199 0.000296 -0.098721
            0.086614 0.009183 -0.102872 0.086614 0.002577 -0.105112 0.086614
            0.001170 -0.110236 0.086614 0.000000 -0.110236 0.098425 0.011811
            -0.110236 0.095848 0.004447 -0.110236 0.091739 0.001170 -0.110236
            0.091739 0.195681 -0.110236 0.098129 0.187668 -0.109651 0.089176
            0.196554 -0.109096 0.091610 0.195681 -0.108598 0.093794 0.194274
            -0.108181 0.095617 0.192403 -0.107868 0.096989 0.190164 -0.107674
            0.097840 0.187668 -0.107608 0.098129 0.185039 -0.109096 0.088982
            0.196554 -0.108013 0.091231 0.195681 -0.107041 0.093249 0.194274
            -0.106230 0.094934 0.192403 -0.105619 0.096202 0.190164 -0.105240
            0.096989 0.187668 -0.108598 0.088669 0.196554 -0.107041 0.090621
            0.195681 -0.105645 0.092372 0.194274 -0.104479 0.093834 0.192403
            -0.103601 0.094934 0.190164 -0.103057 0.095617 0.187668 -0.102872
            0.095848 0.185039 -0.108181 0.088253 0.196554 -0.106230 0.089809
            0.195681 -0.104479 0.091206 0.194274 -0.103017 0.092372 0.192403
            -0.101916 0.093249 0.190164 -0.101234 0.093794 0.187668 -0.101002
            0.093978 0.185039 -0.107868 0.087755 0.196554 -0.105619 0.088838
            0.195681 -0.103601 0.089809 0.194274 -0.101916 0.090621 0.192403
            -0.100649 0.091231 0.190164 -0.099862 0.091610 0.187668 -0.099595
            0.091739 0.185039 -0.107674 0.087199 0.196554 -0.105240 0.087755
            0.195681 -0.103057 0.088253 0.194274 -0.101234 0.088669 0.192403
            -0.099862 0.088982 0.190164 -0.099010 0.089176 0.187668 -0.098721
            0.089242 0.185039 -0.107608 0.086614 0.196554 -0.102872 0.086614
            0.194274 -0.101002 0.086614 0.192403 -0.099595 0.086614 0.190164
            -0.098721 0.086614 0.187668 -0.098425 0.086614 0.185039 -0.110236
            0.089242 0.196554 -0.110236 0.093978 0.194274 -0.110236 0.095848
            0.192403 -0.110236 0.097256 0.190164 -0.110236 0.098425 0.185039
            -0.185039 0.091739 0.195681 -0.187668 0.086614 0.196554 -0.192403
            0.086614 0.194274 -0.194274 0.086614 0.192403 -0.195681 0.086614
            0.190164 -0.196554 0.086614 0.187668 -0.196850 0.086614 0.185039
            -0.187602 0.087199 0.196554 -0.190035 0.087755 0.195681 -0.192219
            0.088253 0.194274 -0.194042 0.088669 0.192403 -0.195414 0.088982
            0.190164 -0.196266 0.089176 0.187668 -0.187407 0.087755 0.196554
            -0.189656 0.088838 0.195681 -0.191674 0.089809 0.194274 -0.193359
            0.090621 0.192403 -0.194627 0.091231 0.190164 -0.195414 0.091610
            0.187668 -0.195681 0.091739 0.185039 -0.187094 0.088253 0.196554
            -0.189046 0.089809 0.195681 -0.190797 0.091206 0.194274 -0.192259
            0.092372 0.192403 -0.193359 0.093249 0.190164 -0.194042 0.093794
            0.187668 -0.194274 0.093978 0.185039 -0.186678 0.088669 0.196554
            -0.188235 0.090621 0.195681 -0.189631 0.092372 0.194274 -0.190797
            0.093834 0.192403 -0.191674 0.094934 0.190164 -0.192219 0.095617
            0.187668 -0.186180 0.088982 0.196554 -0.187263 0.091231 0.195681
            -0.188234 0.093249 0.194274 -0.189046 0.094934 0.192403 -0.189656
            0.096202 0.190164 -0.190035 0.096989 0.187668 -0.185624 0.089176
            0.196554 -0.186180 0.091610 0.195681 -0.186678 0.093794 0.194274
            -0.187094 0.095617 0.192403 -0.187407 0.096989 0.190164 -0.187602
            0.097840 0.187668 -0.187668 0.098129 0.185039 -0.185039 0.089242
            0.196554 -0.185039 0.095848 0.192403 -0.185039 0.097256 0.190164
            -0.185039 0.098425 0.185039 -0.098425 -0.086614 0.011811 -0.098721
            -0.086614 0.009183 -0.101002 -0.086614 0.004447 -0.102872 -0.086614
            0.002577 -0.105112 -0.086614 0.001170 -0.107608 -0.086614 0.000296
            -0.099010 -0.089176 0.009183 -0.099862 -0.088982 0.006686 -0.101234
            -0.088669 0.004447 -0.103057 -0.088253 0.002577 -0.105240 -0.087755
            0.001170 -0.107674 -0.087199 0.000296 -0.099862 -0.091610 0.009183
            -0.100649 -0.091231 0.006686 -0.101916 -0.090621 0.004447 -0.103601
            -0.089809 0.002577 -0.105619 -0.088838 0.001170 -0.107868 -0.087755
            0.000296 -0.101234 -0.093794 0.009183 -0.101916 -0.093249 0.006686
            -0.103017 -0.092372 0.004447 -0.104479 -0.091206 0.002577 -0.106230
            -0.089809 0.001170 -0.108181 -0.088253 0.000296 -0.103057 -0.095617
            0.009183 -0.103601 -0.094934 0.006686 -0.104479 -0.093834 0.004447
            -0.105645 -0.092372 0.002577 -0.107041 -0.090621 0.001170 -0.108598
            -0.088669 0.000296 -0.105240 -0.096989 0.009183 -0.105619 -0.096202
            0.006686 -0.106230 -0.094934 0.004447 -0.107041 -0.093249 0.002577
            -0.108013 -0.091231 0.001170 -0.109096 -0.088982 0.000296 -0.107674
            -0.097840 0.009183 -0.107868 -0.096989 0.006686 -0.108181 -0.095617
            0.004447 -0.108598 -0.093794 0.002577 -0.109096 -0.091610 0.001170
            -0.109651 -0.089176 0.000296 -0.110236 -0.098129 0.009183 -0.110236
            -0.093978 0.002577 -0.110236 -0.091739 0.001170 -0.110236 -0.086614
            0.000000 -0.187602 -0.097840 0.009183 -0.187407 -0.096989 0.006686
            -0.187094 -0.095617 0.004447 -0.186678 -0.093794 0.002577 -0.186180
            -0.091610 0.001170 -0.185624 -0.089176 0.000296 -0.190035 -0.096989
            0.009183 -0.189656 -0.096202 0.006686 -0.189046 -0.094934 0.004447
            -0.188234 -0.093249 0.002577 -0.187263 -0.091231 0.001170 -0.186180
            -0.088982 0.000296 -0.192219 -0.095617 0.009183 -0.191674 -0.094934
            0.006686 -0.190797 -0.093834 0.004447 -0.189631 -0.092372 0.002577
            -0.188234 -0.090621 0.001170 -0.186678 -0.088669 0.000296 -0.194042
            -0.093794 0.009183 -0.193359 -0.093249 0.006686 -0.192259 -0.092372
            0.004447 -0.190797 -0.091206 0.002577 -0.189046 -0.089809 0.001170
            -0.187094 -0.088253 0.000296 -0.195414 -0.091610 0.009183 -0.194627
            -0.091231 0.006686 -0.193359 -0.090621 0.004447 -0.191674 -0.089809
            0.002577 -0.189656 -0.088838 0.001170 -0.187407 -0.087755 0.000296
            -0.185039 -0.086614 0.000000 -0.196266 -0.089176 0.009183 -0.195414
            -0.088982 0.006686 -0.194042 -0.088669 0.004447 -0.192219 -0.088253
            0.002577 -0.190035 -0.087755 0.001170 -0.187602 -0.087199 0.000296
            -0.196850 -0.086614 0.011811 -0.194274 -0.086614 0.004447 -0.190164
            -0.086614 0.001170 -0.187668 -0.086614 0.000296 -0.107608 -0.086614
            0.196554 -0.105112 -0.086614 0.195681 -0.102872 -0.086614 0.194274
            -0.101002 -0.086614 0.192403 -0.099595 -0.086614 0.190164 -0.098721
            -0.086614 0.187668 -0.107674 -0.087199 0.196554 -0.105240 -0.087755
            0.195681 -0.103057 -0.088253 0.194274 -0.101234 -0.088669 0.192403
            -0.099862 -0.088982 0.190164 -0.099010 -0.089176 0.187668 -0.107868
            -0.087755 0.196554 -0.105619 -0.088838 0.195681 -0.103601 -0.089809
            0.194274 -0.101916 -0.090621 0.192403 -0.100649 -0.091231 0.190164
            -0.099862 -0.091610 0.187668 -0.108181 -0.088253 0.196554 -0.106230
            -0.089809 0.195681 -0.104479 -0.091206 0.194274 -0.103017 -0.092372
            0.192403 -0.101916 -0.093249 0.190164 -0.101234 -0.093794 0.187668
            -0.101002 -0.093978 0.185039 -0.108598 -0.088669 0.196554 -0.107041
            -0.090621 0.195681 -0.105645 -0.092372 0.194274 -0.104479 -0.093834
            0.192403 -0.103601 -0.094934 0.190164 -0.103057 -0.095617 0.187668
            -0.102872 -0.095848 0.185039 -0.109096 -0.088982 0.196554 -0.108013
            -0.091231 0.195681 -0.107041 -0.093249 0.194274 -0.106230 -0.094934
            0.192403 -0.105619 -0.096202 0.190164 -0.105240 -0.096989 0.187668
            -0.105112 -0.097256 0.185039 -0.109651 -0.089176 0.196554 -0.109096
            -0.091610 0.195681 -0.108598 -0.093794 0.194274 -0.108181 -0.095617
            0.192403 -0.107868 -0.096989 0.190164 -0.107674 -0.097840 0.187668
            -0.107608 -0.098129 0.185039 -0.110236 -0.089242 0.196554 -0.110236
            -0.095848 0.192403 -0.110236 -0.097256 0.190164 -0.110236 -0.098425
            0.185039 -0.110236 -0.086614 0.196850 -0.185039 -0.089242 0.196554
            -0.185039 -0.095848 0.192403 -0.185039 -0.097256 0.190164 -0.185039
            -0.098425 0.185039 -0.185624 -0.089176 0.196554 -0.186180 -0.091610
            0.195681 -0.186678 -0.093794 0.194274 -0.187094 -0.095617 0.192403
            -0.187407 -0.096989 0.190164 -0.187602 -0.097840 0.187668 -0.187668
            -0.098129 0.185039 -0.186180 -0.088982 0.196554 -0.187263 -0.091231
            0.195681 -0.188235 -0.093249 0.194274 -0.189046 -0.094934 0.192403
            -0.189656 -0.096202 0.190164 -0.190035 -0.096989 0.187668 -0.190164
            -0.097256 0.185039 -0.186678 -0.088669 0.196554 -0.188235 -0.090621
            0.195681 -0.189631 -0.092372 0.194274 -0.190797 -0.093834 0.192403
            -0.191674 -0.094934 0.190164 -0.192219 -0.095617 0.187668 -0.187094
            -0.088253 0.196554 -0.189046 -0.089809 0.195681 -0.190797 -0.091206
            0.194274 -0.192259 -0.092372 0.192403 -0.193359 -0.093249 0.190164
            -0.194042 -0.093794 0.187668 -0.194274 -0.093978 0.185039 -0.187407
            -0.087755 0.196554 -0.189656 -0.088838 0.195681 -0.191674 -0.089809
            0.194274 -0.193359 -0.090621 0.192403 -0.194627 -0.091231 0.190164
            -0.195414 -0.091610 0.187668 -0.185039 -0.086614 0.196850 -0.187602
            -0.087199 0.196554 -0.190035 -0.087755 0.195681 -0.192219 -0.088253
            0.194274 -0.194042 -0.088669 0.192403 -0.195414 -0.088982 0.190164
            -0.196266 -0.089176 0.187668 -0.187668 -0.086614 0.196554 -0.190164
            -0.086614 0.195681 -0.194274 -0.086614 0.192403 -0.195681 -0.086614
            0.190164 -0.196850 -0.086614 0.185039 0.110236 -0.086614 0.196850
            0.185039 -0.086614 0.196850 0.105111 -0.086614 0.195681 0.098425
            0.086614 0.185039 0.185039 -0.093978 0.194274 0.185039 -0.098129
            0.187668 0.185039 0.091739 0.195681 0.110236 0.091739 0.195681
            0.185039 0.093978 0.194274 0.110236 0.093978 0.194274 0.185039
            0.098129 0.187668 0.110236 0.098129 0.187668 0.190164 -0.086614
            0.195681 0.192404 0.086614 0.194274 0.196554 0.086614 0.187668
            0.105111 -0.097255 0.185039 0.099595 0.091739 0.185039 0.098721
            0.089243 0.185039 0.098425 -0.086614 0.011811 0.185039 -0.098425
            0.011811 0.192404 -0.095848 0.185039 0.196554 -0.089242 0.185039
            0.190164 -0.097255 0.185039 0.110236 0.098425 0.011811 0.185039
            0.098425 0.011811 0.192404 0.095848 0.185039 0.195681 0.091739
            0.185039 0.196554 0.089243 0.185039 0.102872 -0.095848 0.011811
            0.105111 -0.097255 0.011811 0.107608 -0.098129 0.011811 0.098721
            0.089243 0.011811 0.099595 0.091739 0.011811 0.101002 0.093978
            0.011811 0.102872 0.095848 0.011811 0.105111 0.097256 0.011811
            0.107608 0.098129 0.011811 0.107608 -0.086614 0.000296 0.101002
            -0.086614 0.004447 0.099595 0.086614 0.006686 0.099595 -0.086614
            0.006686 0.196554 -0.089242 0.011811 0.195681 -0.091739 0.011811
            0.192404 -0.095848 0.011811 0.190164 -0.097255 0.011811 0.187668
            -0.098129 0.011811 0.110236 -0.089242 0.000296 0.185039 -0.086614
            0.000000 0.185039 -0.089242 0.000296 0.110236 -0.093978 0.002577
            0.185039 -0.093978 0.002577 0.110236 -0.097255 0.006686 0.185039
            -0.097255 0.006686 0.110236 -0.098129 0.009183 0.196554 0.089243
            0.011811 0.195681 0.091739 0.011811 0.194274 0.093978 0.011811
            0.192404 0.095848 0.011811 0.190164 0.097256 0.011811 0.187668
            0.098129 0.011811 0.110236 0.089243 0.000296 0.185039 0.089243
            0.000296 0.185039 0.091739 0.001170 0.185039 0.093978 0.002577
            0.110236 0.095848 0.004447 0.185039 0.095848 0.004447 0.110236
            0.097256 0.006686 0.185039 0.097256 0.006686 0.185039 0.098129
            0.009183 0.196554 0.086614 0.009183 0.196554 -0.086614 0.009183
            0.195681 0.086614 0.006686 0.195681 -0.086614 0.006686 0.192404
            0.086614 0.002577 0.192404 -0.086614 0.002577 0.187668 -0.086614
            0.000296 0.185039 -0.098129 0.009183 0.196850 -0.086614 0.011811
            0.194274 -0.086614 0.004447 0.190164 -0.086614 0.001170 0.196266
            -0.089176 0.009183 0.195414 -0.088982 0.006686 0.194042 -0.088669
            0.004447 0.192219 -0.088253 0.002577 0.190036 -0.087754 0.001170
            0.187602 -0.087199 0.000296 0.195414 -0.091610 0.009183 0.194627
            -0.091231 0.006686 0.193359 -0.090621 0.004447 0.191674 -0.089809
            0.002577 0.189657 -0.088838 0.001170 0.187407 -0.087754 0.000296
            0.194274 -0.093978 0.011811 0.194042 -0.093794 0.009183 0.193359
            -0.093249 0.006686 0.192259 -0.092372 0.004447 0.190797 -0.091206
            0.002577 0.189046 -0.089809 0.001170 0.187094 -0.088253 0.000296
            0.192219 -0.095617 0.009183 0.191674 -0.094934 0.006686 0.190797
            -0.093834 0.004447 0.189631 -0.092372 0.002577 0.188235 -0.090621
            0.001170 0.186678 -0.088669 0.000296 0.190036 -0.096989 0.009183
            0.189657 -0.096202 0.006686 0.189046 -0.094934 0.004447 0.188235
            -0.093249 0.002577 0.187263 -0.091231 0.001170 0.186180 -0.088982
            0.000296 0.187602 -0.097840 0.009183 0.187407 -0.096989 0.006686
            0.187094 -0.095617 0.004447 0.186678 -0.093794 0.002577 0.186180
            -0.091610 0.001170 0.185624 -0.089176 0.000296 0.185039 -0.095848
            0.004447 0.185039 -0.091739 0.001170 0.107674 -0.097840 0.009183
            0.107868 -0.096989 0.006686 0.108181 -0.095617 0.004447 0.108598
            -0.093794 0.002577 0.109096 -0.091610 0.001170 0.109651 -0.089176
            0.000296 0.105240 -0.096989 0.009183 0.105619 -0.096202 0.006686
            0.106230 -0.094934 0.004447 0.107041 -0.093249 0.002577 0.108013
            -0.091231 0.001170 0.109096 -0.088982 0.000296 0.103057 -0.095617
            0.009183 0.103601 -0.094934 0.006686 0.104479 -0.093834 0.004447
            0.105645 -0.092372 0.002577 0.107041 -0.090621 0.001170 0.108598
            -0.088669 0.000296 0.101002 -0.093978 0.011811 0.101234 -0.093794
            0.009183 0.101916 -0.093249 0.006686 0.103017 -0.092372 0.004447
            0.104479 -0.091206 0.002577 0.106230 -0.089809 0.001170 0.108181
            -0.088253 0.000296 0.099595 -0.091739 0.011811 0.099862 -0.091610
            0.009183 0.100649 -0.091231 0.006686 0.101916 -0.090621 0.004447
            0.103601 -0.089809 0.002577 0.105619 -0.088838 0.001170 0.107868
            -0.087754 0.000296 0.098721 -0.089242 0.011811 0.099010 -0.089176
            0.009183 0.099862 -0.088982 0.006686 0.101234 -0.088669 0.004447
            0.103057 -0.088253 0.002577 0.105240 -0.087754 0.001170 0.107674
            -0.087199 0.000296 0.098721 -0.086614 0.009183 0.102872 -0.086614
            0.002577 0.105112 -0.086614 0.001170 0.110236 -0.086614 0.000000
            0.110236 -0.098425 0.011811 0.110236 -0.095848 0.004447 0.110236
            -0.091739 0.001170 0.110236 -0.091739 0.195681 0.110236 -0.098129
            0.187668 0.109651 -0.089176 0.196554 0.109096 -0.091610 0.195681
            0.108598 -0.093794 0.194274 0.108181 -0.095617 0.192403 0.107868
            -0.096989 0.190164 0.107674 -0.097840 0.187668 0.107608 -0.098129
            0.185039 0.109096 -0.088982 0.196554 0.108013 -0.091231 0.195681
            0.107041 -0.093249 0.194274 0.106230 -0.094934 0.192403 0.105619
            -0.096202 0.190164 0.105240 -0.096989 0.187668 0.108598 -0.088669
            0.196554 0.107041 -0.090621 0.195681 0.105645 -0.092372 0.194274
            0.104479 -0.093834 0.192403 0.103601 -0.094934 0.190164 0.103057
            -0.095617 0.187668 0.102872 -0.095848 0.185039 0.108181 -0.088253
            0.196554 0.106230 -0.089809 0.195681 0.104479 -0.091206 0.194274
            0.103017 -0.092372 0.192403 0.101916 -0.093249 0.190164 0.101234
            -0.093794 0.187668 0.101002 -0.093978 0.185039 0.107868 -0.087754
            0.196554 0.105619 -0.088838 0.195681 0.103601 -0.089809 0.194274
            0.101916 -0.090621 0.192403 0.100649 -0.091231 0.190164 0.099862
            -0.091610 0.187668 0.099595 -0.091739 0.185039 0.107674 -0.087199
            0.196554 0.105240 -0.087754 0.195681 0.103057 -0.088253 0.194274
            0.101234 -0.088669 0.192403 0.099862 -0.088982 0.190164 0.099010
            -0.089176 0.187668 0.098721 -0.089242 0.185039 0.107608 -0.086614
            0.196554 0.102872 -0.086614 0.194274 0.101002 -0.086614 0.192403
            0.099595 -0.086614 0.190164 0.098721 -0.086614 0.187668 0.098425
            -0.086614 0.185039 0.110236 -0.089242 0.196554 0.110236 -0.093978
            0.194274 0.110236 -0.095848 0.192403 0.110236 -0.097255 0.190164
            0.110236 -0.098425 0.185039 0.185039 -0.091739 0.195681 0.187668
            -0.086614 0.196554 0.192403 -0.086614 0.194274 0.194274 -0.086614
            0.192403 0.195681 -0.086614 0.190164 0.196554 -0.086614 0.187668
            0.196850 -0.086614 0.185039 0.187602 -0.087199 0.196554 0.190036
            -0.087754 0.195681 0.192219 -0.088253 0.194274 0.194042 -0.088669
            0.192403 0.195414 -0.088982 0.190164 0.196266 -0.089176 0.187668
            0.187407 -0.087754 0.196554 0.189657 -0.088838 0.195681 0.191674
            -0.089809 0.194274 0.193359 -0.090621 0.192403 0.194627 -0.091231
            0.190164 0.195414 -0.091610 0.187668 0.195681 -0.091739 0.185039
            0.187094 -0.088253 0.196554 0.189046 -0.089809 0.195681 0.190797
            -0.091206 0.194274 0.192259 -0.092372 0.192403 0.193359 -0.093249
            0.190164 0.194042 -0.093794 0.187668 0.194274 -0.093978 0.185039
            0.186678 -0.088669 0.196554 0.188235 -0.090621 0.195681 0.189631
            -0.092372 0.194274 0.190797 -0.093834 0.192403 0.191674 -0.094934
            0.190164 0.192219 -0.095617 0.187668 0.186180 -0.088982 0.196554
            0.187263 -0.091231 0.195681 0.188235 -0.093249 0.194274 0.189046
            -0.094934 0.192403 0.189657 -0.096202 0.190164 0.190036 -0.096989
            0.187668 0.185624 -0.089176 0.196554 0.186180 -0.091610 0.195681
            0.186678 -0.093794 0.194274 0.187094 -0.095617 0.192403 0.187407
            -0.096989 0.190164 0.187602 -0.097840 0.187668 0.187668 -0.098129
            0.185039 0.185039 -0.089242 0.196554 0.185039 -0.095848 0.192403
            0.185039 -0.097255 0.190164 0.185039 -0.098425 0.185039 0.098425
            0.086614 0.011811 0.098721 0.086614 0.009183 0.101002 0.086614
            0.004447 0.102872 0.086614 0.002577 0.105112 0.086614 0.001170
            0.107608 0.086614 0.000296 0.099010 0.089177 0.009183 0.099862
            0.088982 0.006686 0.101233 0.088669 0.004447 0.103057 0.088253
            0.002577 0.105240 0.087755 0.001170 0.107674 0.087199 0.000296
            0.099862 0.091610 0.009183 0.100649 0.091231 0.006686 0.101916
            0.090621 0.004447 0.103601 0.089809 0.002577 0.105619 0.088838
            0.001170 0.107868 0.087755 0.000296 0.101233 0.093794 0.009183
            0.101916 0.093249 0.006686 0.103017 0.092372 0.004447 0.104479
            0.091206 0.002577 0.106230 0.089809 0.001170 0.108181 0.088253
            0.000296 0.103057 0.095617 0.009183 0.103601 0.094934 0.006686
            0.104479 0.093834 0.004447 0.105645 0.092372 0.002577 0.107041
            0.090621 0.001170 0.108598 0.088669 0.000296 0.105240 0.096989
            0.009183 0.105619 0.096202 0.006686 0.106230 0.094934 0.004447
            0.107041 0.093249 0.002577 0.108013 0.091231 0.001170 0.109096
            0.088982 0.000296 0.107674 0.097840 0.009183 0.107868 0.096989
            0.006686 0.108181 0.095617 0.004447 0.108598 0.093794 0.002577
            0.109096 0.091610 0.001170 0.109651 0.089177 0.000296 0.110236
            0.098129 0.009183 0.110236 0.093978 0.002577 0.110236 0.091739
            0.001170 0.110236 0.086614 0.000000 0.187602 0.097840 0.009183
            0.187407 0.096989 0.006686 0.187094 0.095617 0.004447 0.186678
            0.093794 0.002577 0.186180 0.091610 0.001170 0.185624 0.089177
            0.000296 0.190035 0.096989 0.009183 0.189656 0.096202 0.006686
            0.189046 0.094934 0.004447 0.188234 0.093249 0.002577 0.187263
            0.091231 0.001170 0.186180 0.088982 0.000296 0.192219 0.095617
            0.009183 0.191674 0.094934 0.006686 0.190797 0.093834 0.004447
            0.189631 0.092372 0.002577 0.188234 0.090621 0.001170 0.186678
            0.088669 0.000296 0.194042 0.093794 0.009183 0.193359 0.093249
            0.006686 0.192259 0.092372 0.004447 0.190797 0.091206 0.002577
            0.189046 0.089809 0.001170 0.187094 0.088253 0.000296 0.195414
            0.091610 0.009183 0.194627 0.091231 0.006686 0.193359 0.090621
            0.004447 0.191674 0.089809 0.002577 0.189656 0.088838 0.001170
            0.187407 0.087755 0.000296 0.185039 0.086614 0.000000 0.196266
            0.089177 0.009183 0.195414 0.088982 0.006686 0.194042 0.088669
            0.004447 0.192219 0.088253 0.002577 0.190035 0.087755 0.001170
            0.187602 0.087199 0.000296 0.196850 0.086614 0.011811 0.194274
            0.086614 0.004447 0.190164 0.086614 0.001170 0.187668 0.086614
            0.000296 0.107608 0.086614 0.196554 0.105112 0.086614 0.195681
            0.102872 0.086614 0.194274 0.101002 0.086614 0.192403 0.099595
            0.086614 0.190164 0.098721 0.086614 0.187668 0.107674 0.087199
            0.196554 0.105240 0.087755 0.195681 0.103057 0.088253 0.194274
            0.101233 0.088669 0.192403 0.099862 0.088982 0.190164 0.099010
            0.089177 0.187668 0.107868 0.087755 0.196554 0.105619 0.088838
            0.195681 0.103601 0.089809 0.194274 0.101916 0.090621 0.192403
            0.100649 0.091231 0.190164 0.099862 0.091610 0.187668 0.108181
            0.088253 0.196554 0.106230 0.089809 0.195681 0.104479 0.091206
            0.194274 0.103017 0.092372 0.192403 0.101916 0.093249 0.190164
            0.101233 0.093794 0.187668 0.101002 0.093978 0.185039 0.108598
            0.088669 0.196554 0.107041 0.090621 0.195681 0.105645 0.092372
            0.194274 0.104479 0.093834 0.192403 0.103601 0.094934 0.190164
            0.103057 0.095617 0.187668 0.102872 0.095848 0.185039 0.109096
            0.088982 0.196554 0.108013 0.091231 0.195681 0.107041 0.093249
            0.194274 0.106230 0.094934 0.192403 0.105619 0.096202 0.190164
            0.105240 0.096989 0.187668 0.105112 0.097256 0.185039 0.109651
            0.089177 0.196554 0.109096 0.091610 0.195681 0.108598 0.093794
            0.194274 0.108181 0.095617 0.192403 0.107868 0.096989 0.190164
            0.107674 0.097840 0.187668 0.107608 0.098129 0.185039 0.110236
            0.089242 0.196554 0.110236 0.095848 0.192403 0.110236 0.097256
            0.190164 0.110236 0.098425 0.185039 0.110236 0.086614 0.196850
            0.185039 0.089242 0.196554 0.185039 0.095848 0.192403 0.185039
            0.097256 0.190164 0.185039 0.098425 0.185039 0.185624 0.089177
            0.196554 0.186180 0.091610 0.195681 0.186678 0.093794 0.194274
            0.187094 0.095617 0.192403 0.187407 0.096989 0.190164 0.187602
            0.097840 0.187668 0.187668 0.098129 0.185039 0.186180 0.088982
            0.196554 0.187263 0.091231 0.195681 0.188234 0.093249 0.194274
            0.189046 0.094934 0.192403 0.189656 0.096202 0.190164 0.190035
            0.096989 0.187668 0.190164 0.097256 0.185039 0.186678 0.088669
            0.196554 0.188234 0.090621 0.195681 0.189631 0.092372 0.194274
            0.190797 0.093834 0.192403 0.191674 0.094934 0.190164 0.192219
            0.095617 0.187668 0.187094 0.088253 0.196554 0.189046 0.089809
            0.195681 0.190797 0.091206 0.194274 0.192259 0.092372 0.192403
            0.193359 0.093249 0.190164 0.194042 0.093794 0.187668 0.194274
            0.093978 0.185039 0.187407 0.087755 0.196554 0.189656 0.088838
            0.195681 0.191674 0.089809 0.194274 0.193359 0.090621 0.192403
            0.194627 0.091231 0.190164 0.195414 0.091610 0.187668 0.185039
            0.086614 0.196850 0.187602 0.087199 0.196554 0.190035 0.087755
            0.195681 0.192219 0.088253 0.194274 0.194042 0.088669 0.192403
            0.195414 0.088982 0.190164 0.196266 0.089177 0.187668 0.187668
            0.086614 0.196554 0.190164 0.086614 0.195681 0.194274 0.086614
            0.192403 0.195681 0.086614 0.190164 0.196850 0.086614 0.185039 ]
        }
        coordIndex [ 55 437 26 -1 444 0 1 -1 60 345 314 -1 409 11 404 -1 401 35
        394 -1 213 151 207 -1 23 68 311 -1 43 245 20 -1 41 238 42 -1 352 225 77
        -1 70 352 77 -1 66 65 64 -1 69 72 71 -1 345 75 47 -1 44 264 45 -1 14 225
        455 -1 452 221 13 -1 13 222 453 -1 453 223 454 -1 14 223 224 -1 272 38
        271 -1 271 40 39 -1 408 9 8 -1 71 78 353 -1 51 117 52 -1 73 79 354 -1
        401 23 36 -1 43 22 44 -1 49 117 163 -1 55 27 54 -1 5 218 268 -1 24 417
        59 -1 220 444 1 -1 394 34 387 -1 357 208 356 -1 54 455 352 -1 358 2 357
        -1 73 78 74 -1 270 18 269 -1 49 118 50 -1 39 158 270 -1 312 62 313 -1
        409 403 408 -1 46 118 164 -1 161 48 46 -1 219 215 4 -1 161 345 47 -1 387
        33 380 -1 173 162 218 -1 41 225 21 -1 173 29 30 -1 407 406 444 -1 193 28
        186 -1 59 424 58 -1 265 0 214 -1 37 314 161 -1 266 217 267 -1 361 211
        360 -1 355 79 75 -1 410 11 10 -1 267 166 5 -1 66 68 67 -1 4 216 266 -1
        64 63 312 -1 268 162 19 -1 24 405 410 -1 58 25 57 -1 265 165 219 -1 8 7
        6 -1 359 209 358 -1 207 144 200 -1 3 212 361 -1 313 61 60 -1 45 268 19
        -1 16 31 17 -1 208 406 356 -1 380 32 16 -1 186 29 15 -1 200 137 193 -1
        273 159 272 -1 17 269 3 -1 57 437 56 -1 42 245 92 -1 162 76 19 -1 51 76
        53 -1 274 160 273 -1 360 210 359 -1 407 7 402 -1 452 220 12 -1 75 84 85
        -1 47 75 85 -1 77 80 70 -1 70 81 72 -1 72 82 78 -1 74 82 83 -1 79 83 84
        -1 47 85 91 -1 41 86 80 -1 80 87 81 -1 81 88 82 -1 82 89 83 -1 83 90 84
        -1 85 90 91 -1 47 91 98 -1 42 93 86 -1 86 94 87 -1 87 95 88 -1 88 96 89
        -1 90 96 97 -1 91 97 98 -1 93 43 99 -1 94 99 100 -1 94 101 95 -1 96 101
        102 -1 96 103 97 -1 98 103 104 -1 47 98 104 -1 99 44 105 -1 99 106 100
        -1 101 106 107 -1 101 108 102 -1 103 108 109 -1 103 110 104 -1 47 104
        110 -1 106 111 112 -1 107 112 113 -1 107 114 108 -1 108 115 109 -1 110
        115 116 -1 47 110 116 -1 105 45 111 -1 112 76 52 -1 113 52 117 -1 113 50
        114 -1 114 118 115 -1 115 48 116 -1 47 116 48 -1 111 19 76 -1 162 119 53
        -1 53 120 51 -1 51 121 163 -1 49 121 122 -1 164 122 123 -1 46 123 124 -1
        161 46 124 -1 30 125 119 -1 119 126 120 -1 121 126 127 -1 121 128 122 -1
        122 129 123 -1 124 129 130 -1 161 124 130 -1 125 132 126 -1 126 133 127
        -1 128 133 134 -1 128 135 129 -1 130 135 136 -1 161 130 136 -1 29 131
        125 -1 132 140 133 -1 133 141 134 -1 135 141 142 -1 136 142 143 -1 161
        136 143 -1 28 138 131 -1 131 139 132 -1 140 146 147 -1 140 148 141 -1
        141 149 142 -1 143 149 150 -1 161 143 150 -1 137 145 138 -1 138 146 139
        -1 147 155 148 -1 148 156 149 -1 150 156 157 -1 161 150 157 -1 144 152
        145 -1 146 152 153 -1 146 154 147 -1 155 38 159 -1 156 159 160 -1 156 37
        157 -1 161 157 37 -1 151 158 152 -1 153 158 40 -1 154 40 38 -1 214 0 167
        -1 214 168 165 -1 165 169 215 -1 216 169 170 -1 217 170 171 -1 166 171
        172 -1 166 173 218 -1 167 0 174 -1 167 175 168 -1 168 176 169 -1 169 177
        170 -1 170 178 171 -1 172 178 179 -1 173 179 15 -1 174 181 175 -1 175
        182 176 -1 176 183 177 -1 177 184 178 -1 178 185 179 -1 15 185 186 -1
        174 0 180 -1 180 188 181 -1 182 188 189 -1 183 189 190 -1 183 191 184 -1
        184 192 185 -1 185 193 186 -1 180 0 187 -1 188 196 189 -1 189 197 190 -1
        190 198 191 -1 191 199 192 -1 192 200 193 -1 187 0 194 -1 187 195 188 -1
        195 203 196 -1 196 204 197 -1 198 204 205 -1 199 205 206 -1 200 206 207
        -1 194 0 201 -1 194 202 195 -1 204 209 210 -1 205 210 211 -1 205 212 206
        -1 206 213 207 -1 201 0 208 -1 202 208 2 -1 203 2 209 -1 223 231 224 -1
        225 231 21 -1 220 1 226 -1 220 227 12 -1 12 228 221 -1 221 229 222 -1
        222 230 223 -1 230 237 231 -1 21 237 238 -1 226 1 232 -1 227 232 233 -1
        228 233 234 -1 229 234 235 -1 230 235 236 -1 237 245 238 -1 232 1 239 -1
        232 240 233 -1 233 241 234 -1 235 241 242 -1 236 242 243 -1 237 243 244
        -1 244 20 245 -1 239 1 246 -1 240 246 247 -1 241 247 248 -1 241 249 242
        -1 243 249 250 -1 244 250 251 -1 246 1 252 -1 246 253 247 -1 247 254 248
        -1 248 255 249 -1 249 256 250 -1 251 256 257 -1 251 22 20 -1 252 1 258
        -1 252 259 253 -1 254 259 260 -1 254 261 255 -1 255 262 256 -1 256 263
        257 -1 257 264 22 -1 258 219 259 -1 260 219 4 -1 261 4 266 -1 261 267
        262 -1 262 5 263 -1 263 268 264 -1 258 1 265 -1 272 279 273 -1 274 279
        280 -1 314 274 280 -1 269 275 270 -1 270 276 39 -1 39 277 271 -1 271 278
        272 -1 280 285 286 -1 314 280 286 -1 31 281 275 -1 276 281 282 -1 276
        283 277 -1 278 283 284 -1 278 285 279 -1 285 292 286 -1 314 286 292 -1
        32 287 281 -1 281 288 282 -1 282 289 283 -1 284 289 290 -1 284 291 285
        -1 314 292 298 -1 33 293 287 -1 288 293 294 -1 289 294 295 -1 290 295
        296 -1 290 297 291 -1 292 297 298 -1 314 298 304 -1 293 35 299 -1 294
        299 300 -1 294 301 295 -1 295 302 296 -1 297 302 303 -1 297 304 298 -1
        299 36 305 -1 300 305 306 -1 300 307 301 -1 301 308 302 -1 302 309 303
        -1 304 309 310 -1 314 304 310 -1 305 23 311 -1 306 311 66 -1 307 66 64
        -1 308 64 312 -1 309 312 313 -1 309 60 310 -1 314 310 60 -1 68 316 67 -1
        67 317 65 -1 63 317 318 -1 62 318 319 -1 61 319 320 -1 345 61 320 -1 24
        315 68 -1 315 322 316 -1 316 323 317 -1 318 323 324 -1 319 324 325 -1
        319 326 320 -1 345 320 326 -1 59 321 315 -1 322 329 323 -1 323 330 324
        -1 324 331 325 -1 326 331 332 -1 345 326 332 -1 58 327 321 -1 322 327
        328 -1 329 336 330 -1 330 337 331 -1 331 338 332 -1 345 332 338 -1 57
        333 327 -1 327 334 328 -1 329 334 335 -1 335 342 336 -1 336 343 337 -1
        338 343 344 -1 345 338 344 -1 333 55 339 -1 334 339 340 -1 334 341 335
        -1 343 349 350 -1 343 351 344 -1 345 344 351 -1 339 54 346 -1 340 346
        347 -1 341 347 348 -1 342 348 349 -1 349 354 350 -1 350 355 351 -1 345
        351 355 -1 346 352 69 -1 347 69 71 -1 348 71 353 -1 348 73 349 -1 359
        366 360 -1 360 367 361 -1 3 367 17 -1 356 406 362 -1 356 363 357 -1 357
        364 358 -1 358 365 359 -1 365 372 366 -1 367 372 373 -1 17 373 16 -1 362
        406 368 -1 363 368 369 -1 363 370 364 -1 364 371 365 -1 373 378 379 -1
        16 379 380 -1 368 406 374 -1 368 375 369 -1 369 376 370 -1 370 377 371
        -1 372 377 378 -1 379 385 386 -1 379 387 380 -1 374 406 381 -1 375 381
        382 -1 376 382 383 -1 376 384 377 -1 377 385 378 -1 386 394 387 -1 381
        406 388 -1 381 389 382 -1 383 389 390 -1 384 390 391 -1 385 391 392 -1
        386 392 393 -1 388 406 395 -1 389 395 396 -1 389 397 390 -1 391 397 398
        -1 391 399 392 -1 392 400 393 -1 393 401 394 -1 395 406 402 -1 396 402 7
        -1 397 7 9 -1 398 9 403 -1 399 403 404 -1 399 11 400 -1 400 405 401 -1
        407 444 411 -1 407 412 6 -1 6 413 8 -1 8 414 408 -1 408 415 409 -1 10
        415 416 -1 410 416 417 -1 411 419 412 -1 413 419 420 -1 413 421 414 -1
        415 421 422 -1 416 422 423 -1 416 424 417 -1 411 444 418 -1 419 427 420
        -1 420 428 421 -1 422 428 429 -1 422 430 423 -1 424 430 25 -1 418 444
        425 -1 418 426 419 -1 426 433 427 -1 428 433 434 -1 428 435 429 -1 430
        435 436 -1 25 436 437 -1 425 444 431 -1 425 432 426 -1 434 440 441 -1
        434 442 435 -1 435 443 436 -1 436 26 437 -1 431 444 438 -1 432 438 439
        -1 433 439 440 -1 441 447 448 -1 442 448 449 -1 443 449 450 -1 443 27 26
        -1 438 444 445 -1 439 445 446 -1 439 447 440 -1 448 454 449 -1 449 14
        450 -1 450 455 27 -1 445 444 451 -1 446 451 452 -1 447 452 13 -1 448 13
        453 -1 511 893 482 -1 900 456 457 -1 516 801 770 -1 865 467 860 -1 857
        491 850 -1 669 607 663 -1 479 524 767 -1 499 701 476 -1 497 694 498 -1
        808 681 533 -1 526 808 533 -1 522 521 520 -1 525 528 527 -1 801 531 503
        -1 500 720 501 -1 470 681 911 -1 908 677 469 -1 469 678 909 -1 909 679
        910 -1 910 680 470 -1 728 494 727 -1 727 496 495 -1 864 465 464 -1 527
        534 809 -1 507 573 508 -1 529 535 810 -1 861 492 857 -1 499 478 500 -1
        505 573 619 -1 511 483 510 -1 724 622 674 -1 480 873 515 -1 676 900 457
        -1 850 490 843 -1 813 664 812 -1 510 911 808 -1 814 458 813 -1 529 534
        530 -1 726 474 725 -1 620 506 505 -1 495 614 726 -1 768 518 769 -1 864
        860 859 -1 620 504 574 -1 617 504 502 -1 675 671 460 -1 770 503 617 -1
        843 489 836 -1 629 618 674 -1 497 681 477 -1 629 485 486 -1 863 862 900
        -1 649 484 642 -1 515 880 514 -1 721 456 670 -1 493 770 617 -1 722 673
        723 -1 817 667 816 -1 811 535 531 -1 866 467 466 -1 723 622 461 -1 767
        523 522 -1 460 672 722 -1 520 519 768 -1 724 618 475 -1 480 861 866 -1
        514 481 513 -1 721 621 675 -1 462 465 463 -1 815 665 814 -1 663 600 656
        -1 459 668 817 -1 516 518 517 -1 501 724 475 -1 472 487 473 -1 664 862
        812 -1 836 488 472 -1 642 485 471 -1 656 593 649 -1 729 615 728 -1 473
        725 459 -1 513 893 512 -1 498 701 548 -1 618 532 475 -1 507 532 509 -1
        730 616 729 -1 816 666 815 -1 462 858 863 -1 907 468 908 -1 531 540 541
        -1 503 531 541 -1 533 536 526 -1 526 537 528 -1 528 538 534 -1 530 538
        539 -1 535 539 540 -1 503 541 547 -1 497 542 536 -1 536 543 537 -1 537
        544 538 -1 539 544 545 -1 539 546 540 -1 541 546 547 -1 503 547 554 -1
        498 549 542 -1 543 549 550 -1 543 551 544 -1 545 551 552 -1 546 552 553
        -1 547 553 554 -1 549 499 555 -1 549 556 550 -1 551 556 557 -1 552 557
        558 -1 552 559 553 -1 553 560 554 -1 503 554 560 -1 555 500 561 -1 555
        562 556 -1 557 562 563 -1 557 564 558 -1 558 565 559 -1 560 565 566 -1
        503 560 566 -1 561 568 562 -1 563 568 569 -1 563 570 564 -1 564 571 565
        -1 566 571 572 -1 503 566 572 -1 561 501 567 -1 568 532 508 -1 569 508
        573 -1 569 506 570 -1 570 574 571 -1 571 504 572 -1 503 572 504 -1 567
        475 532 -1 618 575 509 -1 509 576 507 -1 507 577 619 -1 505 577 578 -1
        620 578 579 -1 502 579 580 -1 617 502 580 -1 486 581 575 -1 575 582 576
        -1 576 583 577 -1 577 584 578 -1 579 584 585 -1 580 585 586 -1 617 580
        586 -1 582 587 588 -1 583 588 589 -1 584 589 590 -1 585 590 591 -1 586
        591 592 -1 617 586 592 -1 485 587 581 -1 588 596 589 -1 589 597 590 -1
        591 597 598 -1 592 598 599 -1 617 592 599 -1 484 594 587 -1 587 595 588
        -1 596 602 603 -1 597 603 604 -1 597 605 598 -1 599 605 606 -1 617 599
        606 -1 593 601 594 -1 594 602 595 -1 604 610 611 -1 605 611 612 -1 605
        613 606 -1 617 606 613 -1 600 608 601 -1 601 609 602 -1 602 610 603 -1
        611 494 615 -1 611 616 612 -1 612 493 613 -1 617 613 493 -1 607 614 608
        -1 609 614 496 -1 610 496 494 -1 670 456 623 -1 621 623 624 -1 671 624
        625 -1 671 626 672 -1 672 627 673 -1 673 628 622 -1 622 629 674 -1 623
        456 630 -1 623 631 624 -1 624 632 625 -1 625 633 626 -1 627 633 634 -1
        627 635 628 -1 629 635 471 -1 630 637 631 -1 632 637 638 -1 632 639 633
        -1 633 640 634 -1 635 640 641 -1 471 641 642 -1 630 456 636 -1 637 643
        644 -1 638 644 645 -1 639 645 646 -1 639 647 640 -1 640 648 641 -1 641
        649 642 -1 636 456 643 -1 644 652 645 -1 646 652 653 -1 646 654 647 -1
        648 654 655 -1 649 655 656 -1 643 456 650 -1 644 650 651 -1 651 659 652
        -1 653 659 660 -1 654 660 661 -1 655 661 662 -1 656 662 663 -1 650 456
        657 -1 650 658 651 -1 660 665 666 -1 660 667 661 -1 661 668 662 -1 662
        669 663 -1 657 456 664 -1 658 664 458 -1 659 458 665 -1 679 687 680 -1
        681 687 477 -1 676 457 682 -1 676 683 468 -1 468 684 677 -1 678 684 685
        -1 679 685 686 -1 687 692 693 -1 477 693 694 -1 682 457 688 -1 683 688
        689 -1 684 689 690 -1 684 691 685 -1 686 691 692 -1 693 701 694 -1 688
        457 695 -1 688 696 689 -1 689 697 690 -1 691 697 698 -1 692 698 699 -1
        692 700 693 -1 700 476 701 -1 695 457 702 -1 696 702 703 -1 696 704 697
        -1 697 705 698 -1 699 705 706 -1 699 707 700 -1 702 457 708 -1 702 709
        703 -1 703 710 704 -1 704 711 705 -1 705 712 706 -1 706 713 707 -1 707
        478 476 -1 708 457 714 -1 708 715 709 -1 710 715 716 -1 710 717 711 -1
        711 718 712 -1 713 718 719 -1 713 720 478 -1 714 675 715 -1 716 675 460
        -1 717 460 722 -1 718 722 723 -1 718 461 719 -1 719 724 720 -1 714 457
        721 -1 729 734 735 -1 729 736 730 -1 770 730 736 -1 725 731 726 -1 726
        732 495 -1 495 733 727 -1 728 733 734 -1 736 741 742 -1 770 736 742 -1
        487 737 731 -1 732 737 738 -1 732 739 733 -1 733 740 734 -1 734 741 735
        -1 741 748 742 -1 770 742 748 -1 488 743 737 -1 738 743 744 -1 739 744
        745 -1 739 746 740 -1 741 746 747 -1 770 748 754 -1 489 749 743 -1 744
        749 750 -1 745 750 751 -1 746 751 752 -1 746 753 747 -1 747 754 748 -1
        770 754 760 -1 749 491 755 -1 750 755 756 -1 750 757 751 -1 751 758 752
        -1 753 758 759 -1 754 759 760 -1 755 492 761 -1 755 762 756 -1 756 763
        757 -1 757 764 758 -1 758 765 759 -1 760 765 766 -1 770 760 766 -1 761
        479 767 -1 762 767 522 -1 763 522 520 -1 764 520 768 -1 765 768 769 -1
        765 516 766 -1 770 766 516 -1 524 772 523 -1 523 773 521 -1 519 773 774
        -1 518 774 775 -1 517 775 776 -1 801 517 776 -1 480 771 524 -1 771 778
        772 -1 772 779 773 -1 773 780 774 -1 775 780 781 -1 776 781 782 -1 801
        776 782 -1 515 777 771 -1 778 785 779 -1 780 785 786 -1 780 787 781 -1
        782 787 788 -1 801 782 788 -1 514 783 777 -1 778 783 784 -1 785 792 786
        -1 786 793 787 -1 787 794 788 -1 801 788 794 -1 513 789 783 -1 783 790
        784 -1 785 790 791 -1 792 797 798 -1 792 799 793 -1 793 800 794 -1 801
        794 800 -1 789 511 795 -1 789 796 790 -1 791 796 797 -1 798 806 799 -1
        799 807 800 -1 801 800 807 -1 795 510 802 -1 796 802 803 -1 796 804 797
        -1 797 805 798 -1 805 810 806 -1 807 810 811 -1 801 807 811 -1 802 808
        525 -1 803 525 527 -1 804 527 809 -1 804 529 805 -1 816 821 822 -1 816
        823 817 -1 459 823 473 -1 812 862 818 -1 812 819 813 -1 813 820 814 -1
        814 821 815 -1 822 827 828 -1 822 829 823 -1 473 829 472 -1 818 862 824
        -1 819 824 825 -1 819 826 820 -1 821 826 827 -1 828 835 829 -1 472 835
        836 -1 824 862 830 -1 824 831 825 -1 825 832 826 -1 826 833 827 -1 827
        834 828 -1 834 842 835 -1 835 843 836 -1 830 862 837 -1 830 838 831 -1
        832 838 839 -1 832 840 833 -1 833 841 834 -1 843 849 850 -1 837 862 844
        -1 837 845 838 -1 838 846 839 -1 839 847 840 -1 840 848 841 -1 841 849
        842 -1 844 862 851 -1 844 852 845 -1 846 852 853 -1 847 853 854 -1 848
        854 855 -1 848 856 849 -1 849 857 850 -1 851 862 858 -1 852 858 463 -1
        853 463 465 -1 854 465 859 -1 854 860 855 -1 855 467 856 -1 856 861 857
        -1 863 900 867 -1 863 868 462 -1 462 869 464 -1 464 870 864 -1 865 870
        871 -1 466 871 872 -1 866 872 873 -1 867 875 868 -1 868 876 869 -1 869
        877 870 -1 871 877 878 -1 872 878 879 -1 872 880 873 -1 867 900 874 -1
        876 882 883 -1 877 883 884 -1 878 884 885 -1 879 885 886 -1 880 886 481
        -1 874 900 881 -1 875 881 882 -1 882 889 883 -1 884 889 890 -1 884 891
        885 -1 886 891 892 -1 481 892 893 -1 881 900 887 -1 881 888 882 -1 890
        896 897 -1 890 898 891 -1 892 898 899 -1 892 482 893 -1 887 900 894 -1
        888 894 895 -1 889 895 896 -1 896 904 897 -1 898 904 905 -1 899 905 906
        -1 899 483 482 -1 894 900 901 -1 894 902 895 -1 896 902 903 -1 904 910
        905 -1 905 470 906 -1 906 911 483 -1 901 900 907 -1 901 908 902 -1 903
        908 469 -1 904 469 909 -1 55 56 437 -1 444 406 0 -1 60 61 345 -1 409 10
        11 -1 401 36 35 -1 213 18 151 -1 23 24 68 -1 43 92 245 -1 41 21 238 -1
        352 455 225 -1 70 69 352 -1 66 67 65 -1 69 70 72 -1 345 355 75 -1 44 22
        264 -1 14 224 225 -1 452 12 221 -1 13 221 222 -1 453 222 223 -1 14 454
        223 -1 272 159 38 -1 271 38 40 -1 408 403 9 -1 71 72 78 -1 51 163 117 -1
        73 74 79 -1 401 405 23 -1 43 20 22 -1 49 50 117 -1 55 26 27 -1 5 166 218
        -1 24 410 417 -1 220 451 444 -1 394 35 34 -1 357 2 208 -1 54 27 455 -1
        358 209 2 -1 73 353 78 -1 270 158 18 -1 49 164 118 -1 39 40 158 -1 312
        63 62 -1 409 404 403 -1 46 48 118 -1 161 47 48 -1 219 165 215 -1 161 314
        345 -1 387 34 33 -1 173 30 162 -1 41 77 225 -1 173 15 29 -1 407 402 406
        -1 193 137 28 -1 59 417 424 -1 265 1 0 -1 37 274 314 -1 266 216 217 -1
        361 212 211 -1 355 354 79 -1 410 405 11 -1 267 217 166 -1 66 311 68 -1 4
        215 216 -1 64 65 63 -1 268 218 162 -1 24 23 405 -1 58 424 25 -1 265 214
        165 -1 8 9 7 -1 359 210 209 -1 207 151 144 -1 3 213 212 -1 313 62 61 -1
        45 264 268 -1 16 32 31 -1 208 0 406 -1 380 33 32 -1 186 28 29 -1 200 144
        137 -1 273 160 159 -1 17 31 269 -1 57 25 437 -1 42 238 245 -1 162 53 76
        -1 51 52 76 -1 274 37 160 -1 360 211 210 -1 407 6 7 -1 452 451 220 -1 75
        79 84 -1 77 41 80 -1 70 80 81 -1 72 81 82 -1 74 78 82 -1 79 74 83 -1 41
        42 86 -1 80 86 87 -1 81 87 88 -1 82 88 89 -1 83 89 90 -1 85 84 90 -1 42
        92 93 -1 86 93 94 -1 87 94 95 -1 88 95 96 -1 90 89 96 -1 91 90 97 -1 93
        92 43 -1 94 93 99 -1 94 100 101 -1 96 95 101 -1 96 102 103 -1 98 97 103
        -1 99 43 44 -1 99 105 106 -1 101 100 106 -1 101 107 108 -1 103 102 108
        -1 103 109 110 -1 106 105 111 -1 107 106 112 -1 107 113 114 -1 108 114
        115 -1 110 109 115 -1 105 44 45 -1 112 111 76 -1 113 112 52 -1 113 117
        50 -1 114 50 118 -1 115 118 48 -1 111 45 19 -1 162 30 119 -1 53 119 120
        -1 51 120 121 -1 49 163 121 -1 164 49 122 -1 46 164 123 -1 30 29 125 -1
        119 125 126 -1 121 120 126 -1 121 127 128 -1 122 128 129 -1 124 123 129
        -1 125 131 132 -1 126 132 133 -1 128 127 133 -1 128 134 135 -1 130 129
        135 -1 29 28 131 -1 132 139 140 -1 133 140 141 -1 135 134 141 -1 136 135
        142 -1 28 137 138 -1 131 138 139 -1 140 139 146 -1 140 147 148 -1 141
        148 149 -1 143 142 149 -1 137 144 145 -1 138 145 146 -1 147 154 155 -1
        148 155 156 -1 150 149 156 -1 144 151 152 -1 146 145 152 -1 146 153 154
        -1 155 154 38 -1 156 155 159 -1 156 160 37 -1 151 18 158 -1 153 152 158
        -1 154 153 40 -1 214 167 168 -1 165 168 169 -1 216 215 169 -1 217 216
        170 -1 166 217 171 -1 166 172 173 -1 167 174 175 -1 168 175 176 -1 169
        176 177 -1 170 177 178 -1 172 171 178 -1 173 172 179 -1 174 180 181 -1
        175 181 182 -1 176 182 183 -1 177 183 184 -1 178 184 185 -1 15 179 185
        -1 180 187 188 -1 182 181 188 -1 183 182 189 -1 183 190 191 -1 184 191
        192 -1 185 192 193 -1 188 195 196 -1 189 196 197 -1 190 197 198 -1 191
        198 199 -1 192 199 200 -1 187 194 195 -1 195 202 203 -1 196 203 204 -1
        198 197 204 -1 199 198 205 -1 200 199 206 -1 194 201 202 -1 204 203 209
        -1 205 204 210 -1 205 211 212 -1 206 212 213 -1 202 201 208 -1 203 202 2
        -1 223 230 231 -1 225 224 231 -1 220 226 227 -1 12 227 228 -1 221 228
        229 -1 222 229 230 -1 230 236 237 -1 21 231 237 -1 227 226 232 -1 228
        227 233 -1 229 228 234 -1 230 229 235 -1 237 244 245 -1 232 239 240 -1
        233 240 241 -1 235 234 241 -1 236 235 242 -1 237 236 243 -1 244 251 20
        -1 240 239 246 -1 241 240 247 -1 241 248 249 -1 243 242 249 -1 244 243
        250 -1 246 252 253 -1 247 253 254 -1 248 254 255 -1 249 255 256 -1 251
        250 256 -1 251 257 22 -1 252 258 259 -1 254 253 259 -1 254 260 261 -1
        255 261 262 -1 256 262 263 -1 257 263 264 -1 258 265 219 -1 260 259 219
        -1 261 260 4 -1 261 266 267 -1 262 267 5 -1 263 5 268 -1 272 278 279 -1
        274 273 279 -1 269 31 275 -1 270 275 276 -1 39 276 277 -1 271 277 278 -1
        280 279 285 -1 31 32 281 -1 276 275 281 -1 276 282 283 -1 278 277 283 -1
        278 284 285 -1 285 291 292 -1 32 33 287 -1 281 287 288 -1 282 288 289 -1
        284 283 289 -1 284 290 291 -1 33 34 293 -1 288 287 293 -1 289 288 294 -1
        290 289 295 -1 290 296 297 -1 292 291 297 -1 293 34 35 -1 294 293 299 -1
        294 300 301 -1 295 301 302 -1 297 296 302 -1 297 303 304 -1 299 35 36 -1
        300 299 305 -1 300 306 307 -1 301 307 308 -1 302 308 309 -1 304 303 309
        -1 305 36 23 -1 306 305 311 -1 307 306 66 -1 308 307 64 -1 309 308 312
        -1 309 313 60 -1 68 315 316 -1 67 316 317 -1 63 65 317 -1 62 63 318 -1
        61 62 319 -1 24 59 315 -1 315 321 322 -1 316 322 323 -1 318 317 323 -1
        319 318 324 -1 319 325 326 -1 59 58 321 -1 322 328 329 -1 323 329 330 -1
        324 330 331 -1 326 325 331 -1 58 57 327 -1 322 321 327 -1 329 335 336 -1
        330 336 337 -1 331 337 338 -1 57 56 333 -1 327 333 334 -1 329 328 334 -1
        335 341 342 -1 336 342 343 -1 338 337 343 -1 333 56 55 -1 334 333 339 -1
        334 340 341 -1 343 342 349 -1 343 350 351 -1 339 55 54 -1 340 339 346 -1
        341 340 347 -1 342 341 348 -1 349 73 354 -1 350 354 355 -1 346 54 352 -1
        347 346 69 -1 348 347 71 -1 348 353 73 -1 359 365 366 -1 360 366 367 -1
        3 361 367 -1 356 362 363 -1 357 363 364 -1 358 364 365 -1 365 371 372 -1
        367 366 372 -1 17 367 373 -1 363 362 368 -1 363 369 370 -1 364 370 371
        -1 373 372 378 -1 16 373 379 -1 368 374 375 -1 369 375 376 -1 370 376
        377 -1 372 371 377 -1 379 378 385 -1 379 386 387 -1 375 374 381 -1 376
        375 382 -1 376 383 384 -1 377 384 385 -1 386 393 394 -1 381 388 389 -1
        383 382 389 -1 384 383 390 -1 385 384 391 -1 386 385 392 -1 389 388 395
        -1 389 396 397 -1 391 390 397 -1 391 398 399 -1 392 399 400 -1 393 400
        401 -1 396 395 402 -1 397 396 7 -1 398 397 9 -1 399 398 403 -1 399 404
        11 -1 400 11 405 -1 407 411 412 -1 6 412 413 -1 8 413 414 -1 408 414 415
        -1 10 409 415 -1 410 10 416 -1 411 418 419 -1 413 412 419 -1 413 420 421
        -1 415 414 421 -1 416 415 422 -1 416 423 424 -1 419 426 427 -1 420 427
        428 -1 422 421 428 -1 422 429 430 -1 424 423 430 -1 418 425 426 -1 426
        432 433 -1 428 427 433 -1 428 434 435 -1 430 429 435 -1 25 430 436 -1
        425 431 432 -1 434 433 440 -1 434 441 442 -1 435 442 443 -1 436 443 26
        -1 432 431 438 -1 433 432 439 -1 441 440 447 -1 442 441 448 -1 443 442
        449 -1 443 450 27 -1 439 438 445 -1 439 446 447 -1 448 453 454 -1 449
        454 14 -1 450 14 455 -1 446 445 451 -1 447 446 452 -1 448 447 13 -1 511
        512 893 -1 900 862 456 -1 516 517 801 -1 865 466 467 -1 857 492 491 -1
        669 474 607 -1 479 480 524 -1 499 548 701 -1 497 477 694 -1 808 911 681
        -1 526 525 808 -1 522 523 521 -1 525 526 528 -1 801 811 531 -1 500 478
        720 -1 470 680 681 -1 908 468 677 -1 469 677 678 -1 909 678 679 -1 910
        679 680 -1 728 615 494 -1 727 494 496 -1 864 859 465 -1 527 528 534 -1
        507 619 573 -1 529 530 535 -1 861 479 492 -1 499 476 478 -1 505 506 573
        -1 511 482 483 -1 724 461 622 -1 480 866 873 -1 676 907 900 -1 850 491
        490 -1 813 458 664 -1 510 483 911 -1 814 665 458 -1 529 809 534 -1 726
        614 474 -1 620 574 506 -1 495 496 614 -1 768 519 518 -1 864 865 860 -1
        620 502 504 -1 617 503 504 -1 675 621 671 -1 770 801 503 -1 843 490 489
        -1 629 486 618 -1 497 533 681 -1 629 471 485 -1 863 858 862 -1 649 593
        484 -1 515 873 880 -1 721 457 456 -1 493 730 770 -1 722 672 673 -1 817
        668 667 -1 811 810 535 -1 866 861 467 -1 723 673 622 -1 767 524 523 -1
        460 671 672 -1 520 521 519 -1 724 674 618 -1 480 479 861 -1 514 880 481
        -1 721 670 621 -1 462 464 465 -1 815 666 665 -1 663 607 600 -1 459 669
        668 -1 516 769 518 -1 501 720 724 -1 472 488 487 -1 664 456 862 -1 836
        489 488 -1 642 484 485 -1 656 600 593 -1 729 616 615 -1 473 487 725 -1
        513 481 893 -1 498 694 701 -1 618 509 532 -1 507 508 532 -1 730 493 616
        -1 816 667 666 -1 462 463 858 -1 907 676 468 -1 531 535 540 -1 533 497
        536 -1 526 536 537 -1 528 537 538 -1 530 534 538 -1 535 530 539 -1 497
        498 542 -1 536 542 543 -1 537 543 544 -1 539 538 544 -1 539 545 546 -1
        541 540 546 -1 498 548 549 -1 543 542 549 -1 543 550 551 -1 545 544 551
        -1 546 545 552 -1 547 546 553 -1 549 548 499 -1 549 555 556 -1 551 550
        556 -1 552 551 557 -1 552 558 559 -1 553 559 560 -1 555 499 500 -1 555
        561 562 -1 557 556 562 -1 557 563 564 -1 558 564 565 -1 560 559 565 -1
        561 567 568 -1 563 562 568 -1 563 569 570 -1 564 570 571 -1 566 565 571
        -1 561 500 501 -1 568 567 532 -1 569 568 508 -1 569 573 506 -1 570 506
        574 -1 571 574 504 -1 567 501 475 -1 618 486 575 -1 509 575 576 -1 507
        576 577 -1 505 619 577 -1 620 505 578 -1 502 620 579 -1 486 485 581 -1
        575 581 582 -1 576 582 583 -1 577 583 584 -1 579 578 584 -1 580 579 585
        -1 582 581 587 -1 583 582 588 -1 584 583 589 -1 585 584 590 -1 586 585
        591 -1 485 484 587 -1 588 595 596 -1 589 596 597 -1 591 590 597 -1 592
        591 598 -1 484 593 594 -1 587 594 595 -1 596 595 602 -1 597 596 603 -1
        597 604 605 -1 599 598 605 -1 593 600 601 -1 594 601 602 -1 604 603 610
        -1 605 604 611 -1 605 612 613 -1 600 607 608 -1 601 608 609 -1 602 609
        610 -1 611 610 494 -1 611 615 616 -1 612 616 493 -1 607 474 614 -1 609
        608 614 -1 610 609 496 -1 621 670 623 -1 671 621 624 -1 671 625 626 -1
        672 626 627 -1 673 627 628 -1 622 628 629 -1 623 630 631 -1 624 631 632
        -1 625 632 633 -1 627 626 633 -1 627 634 635 -1 629 628 635 -1 630 636
        637 -1 632 631 637 -1 632 638 639 -1 633 639 640 -1 635 634 640 -1 471
        635 641 -1 637 636 643 -1 638 637 644 -1 639 638 645 -1 639 646 647 -1
        640 647 648 -1 641 648 649 -1 644 651 652 -1 646 645 652 -1 646 653 654
        -1 648 647 654 -1 649 648 655 -1 644 643 650 -1 651 658 659 -1 653 652
        659 -1 654 653 660 -1 655 654 661 -1 656 655 662 -1 650 657 658 -1 660
        659 665 -1 660 666 667 -1 661 667 668 -1 662 668 669 -1 658 657 664 -1
        659 658 458 -1 679 686 687 -1 681 680 687 -1 676 682 683 -1 468 683 684
        -1 678 677 684 -1 679 678 685 -1 687 686 692 -1 477 687 693 -1 683 682
        688 -1 684 683 689 -1 684 690 691 -1 686 685 691 -1 693 700 701 -1 688
        695 696 -1 689 696 697 -1 691 690 697 -1 692 691 698 -1 692 699 700 -1
        700 707 476 -1 696 695 702 -1 696 703 704 -1 697 704 705 -1 699 698 705
        -1 699 706 707 -1 702 708 709 -1 703 709 710 -1 704 710 711 -1 705 711
        712 -1 706 712 713 -1 707 713 478 -1 708 714 715 -1 710 709 715 -1 710
        716 717 -1 711 717 718 -1 713 712 718 -1 713 719 720 -1 714 721 675 -1
        716 715 675 -1 717 716 460 -1 718 717 722 -1 718 723 461 -1 719 461 724
        -1 729 728 734 -1 729 735 736 -1 725 487 731 -1 726 731 732 -1 495 732
        733 -1 728 727 733 -1 736 735 741 -1 487 488 737 -1 732 731 737 -1 732
        738 739 -1 733 739 740 -1 734 740 741 -1 741 747 748 -1 488 489 743 -1
        738 737 743 -1 739 738 744 -1 739 745 746 -1 741 740 746 -1 489 490 749
        -1 744 743 749 -1 745 744 750 -1 746 745 751 -1 746 752 753 -1 747 753
        754 -1 749 490 491 -1 750 749 755 -1 750 756 757 -1 751 757 758 -1 753
        752 758 -1 754 753 759 -1 755 491 492 -1 755 761 762 -1 756 762 763 -1
        757 763 764 -1 758 764 765 -1 760 759 765 -1 761 492 479 -1 762 761 767
        -1 763 762 522 -1 764 763 520 -1 765 764 768 -1 765 769 516 -1 524 771
        772 -1 523 772 773 -1 519 521 773 -1 518 519 774 -1 517 518 775 -1 480
        515 771 -1 771 777 778 -1 772 778 779 -1 773 779 780 -1 775 774 780 -1
        776 775 781 -1 515 514 777 -1 778 784 785 -1 780 779 785 -1 780 786 787
        -1 782 781 787 -1 514 513 783 -1 778 777 783 -1 785 791 792 -1 786 792
        793 -1 787 793 794 -1 513 512 789 -1 783 789 790 -1 785 784 790 -1 792
        791 797 -1 792 798 799 -1 793 799 800 -1 789 512 511 -1 789 795 796 -1
        791 790 796 -1 798 805 806 -1 799 806 807 -1 795 511 510 -1 796 795 802
        -1 796 803 804 -1 797 804 805 -1 805 529 810 -1 807 806 810 -1 802 510
        808 -1 803 802 525 -1 804 803 527 -1 804 809 529 -1 816 815 821 -1 816
        822 823 -1 459 817 823 -1 812 818 819 -1 813 819 820 -1 814 820 821 -1
        822 821 827 -1 822 828 829 -1 473 823 829 -1 819 818 824 -1 819 825 826
        -1 821 820 826 -1 828 834 835 -1 472 829 835 -1 824 830 831 -1 825 831
        832 -1 826 832 833 -1 827 833 834 -1 834 841 842 -1 835 842 843 -1 830
        837 838 -1 832 831 838 -1 832 839 840 -1 833 840 841 -1 843 842 849 -1
        837 844 845 -1 838 845 846 -1 839 846 847 -1 840 847 848 -1 841 848 849
        -1 844 851 852 -1 846 845 852 -1 847 846 853 -1 848 847 854 -1 848 855
        856 -1 849 856 857 -1 852 851 858 -1 853 852 463 -1 854 853 465 -1 854
        859 860 -1 855 860 467 -1 856 467 861 -1 863 867 868 -1 462 868 869 -1
        464 869 870 -1 865 864 870 -1 466 865 871 -1 866 466 872 -1 867 874 875
        -1 868 875 876 -1 869 876 877 -1 871 870 877 -1 872 871 878 -1 872 879
        880 -1 876 875 882 -1 877 876 883 -1 878 877 884 -1 879 878 885 -1 880
        879 886 -1 875 874 881 -1 882 888 889 -1 884 883 889 -1 884 890 891 -1
        886 885 891 -1 481 886 892 -1 881 887 888 -1 890 889 896 -1 890 897 898
        -1 892 891 898 -1 892 899 482 -1 888 887 894 -1 889 888 895 -1 896 903
        904 -1 898 897 904 -1 899 898 905 -1 899 906 483 -1 894 901 902 -1 896
        895 902 -1 904 909 910 -1 905 910 470 -1 906 470 911 -1 901 907 908 -1
        903 902 908 -1 904 903 469 -1 ]
    }
}

# 'C-0402 Body'
Shape {
    appearance Appearance {
        material Material {
            ambientIntensity 0.579
            diffuseColor 0.469 0.363 0.086
            specularColor 0.328 0.258 0.172
            emissiveColor 0.0 0.0 0.0
            shininess 0.3
            transparency 0.0
        }
    }
    geometry IndexedFaceSet {
        coord Coordinate {
            point [ -0.098425 0.086614 0.185039 -0.098425 -0.086614 0.185039
            0.098425 -0.086614 0.185039 0.098425 -0.086614 0.011811 -0.098425
            0.086614 0.011811 -0.098425 -0.086614 0.011811 0.098425 0.086614
            0.185039 0.098425 0.086614 0.011811 ]
        }
        coordIndex [ 0 7 4 -1 2 0 1 -1 1 3 2 -1 5 7 3 -1 0 6 7 -1 2 6 0 -1 1 5 3
        -1 5 4 7 -1 ]
    }
}
