#VRML V2.0 utf8

DEF PlasticBlackShiny Material {
    ambientIntensity 0.314
    diffuseColor 0.016 0.015 0.014
    specularColor 0.791 0.784 0.770
    emissiveColor 0.0 0.0 0.0
    shininess 0.6
    transparency 0.0
}

DEF Tin Material {
    ambientIntensity 0.271
    diffuseColor 0.824 0.820 0.781
    specularColor 0.328 0.258 0.172
    emissiveColor 0.0 0.0 0.0
    shininess 0.70
    transparency 0.0
}

DEF PlasticWhite Material {
    ambientIntensity 0.494
    diffuseColor 0.895 0.891 0.813
    specularColor 0.047 0.055 0.109
    emissiveColor 0.0 0.0 0.0
    shininess 0.25
    transparency 0.0
}

DEF PlasticBlackRough Material {
    ambientIntensity 0.314
    diffuseColor 0.016 0.015 0.014
    specularColor 0.388 0.384 0.382
    emissiveColor 0.0 0.0 0.0
    shininess 0.2
    transparency 0.0
}


# C-35-45-10 Body
Shape {
    appearance Appearance {
        material USE PlasticBlackShiny
    }
    geometry IndexedFaceSet {
        coord Coordinate {
            point [ -1.783179 6.654915 17.322611 -3.444838 5.966634 17.322611 -4.194169 5.465947 17.322611 -5.966634 3.444838 17.322611 -6.365230 2.636564 17.322611 -3.444838 -5.966634 17.322611 -5.966634 -3.444838 17.322611 -5.465947 -4.194169 17.322611 -1.783179 -6.654915 17.322611 0.000000 -6.889675 17.322611 1.783179 -6.654915 17.322611 3.444838 -5.966634 17.322611 5.465947 -4.194169 17.322611 5.966634 -3.444838 17.322611 6.365230 -2.636564 17.322611 6.654915 -1.783179 17.322611 6.830733 -0.899283 17.322611 5.465947 4.194169 17.322611 4.871736 4.871736 17.322611 4.194169 5.465947 17.322611 0.000000 6.889675 17.322611 -1.783179 6.654915 2.294627 -2.636564 6.365230 2.294627 4.871736 -4.871736 2.294627 5.465947 -4.194169 2.294627 -3.444838 5.966634 2.294627 5.966634 -3.444838 2.294627 -4.194169 5.465947 2.294627 6.365230 -2.636564 2.294627 -4.871736 4.871736 2.294627 6.654915 -1.783179 2.294627 -6.654915 -1.783179 2.294627 -5.465947 4.194169 2.294627 6.830733 -0.899283 2.294627 -6.365230 -2.636564 2.294627 -5.966634 3.444838 2.294627 6.889675 0.000000 2.294627 -5.966634 -3.444838 2.294627 -6.365230 2.636564 2.294627 6.830733 0.899283 2.294627 -5.465947 -4.194169 2.294627 -6.654915 1.783179 2.294627 6.654915 1.783179 2.294627 -4.871736 -4.871736 2.294627 6.365230 2.636564 2.294627 -4.194169 -5.465947 2.294627 5.966634 3.444838 2.294627 -3.444838 -5.966634 2.294627 5.465947 4.194169 2.294627 -2.636564 -6.365230 2.294627 4.871736 4.871736 2.294627 -1.783179 -6.654915 2.294627 4.194169 5.465947 2.294627 -0.899283 -6.830733 2.294627 3.444838 5.966634 2.294627 0.000000 -6.889675 2.294627 2.636564 6.365230 2.294627 0.899283 -6.830733 2.294627 1.783179 6.654915 2.294627 1.783179 -6.654915 2.294627 0.899283 6.830733 2.294627 2.636564 -6.365230 2.294627 0.000000 6.889675 2.294627 3.444838 -5.966634 2.294627 -0.899283 6.830733 2.294627 4.194169 -5.465947 2.294627 -6.625968 -1.775423 2.143966 -6.543533 -1.753335 2.016242 -6.337543 -2.625096 2.143966 -6.258697 -2.592437 2.016242 -5.940680 -3.429853 2.143966 -5.866771 -3.387182 2.016242 -5.442171 -4.175925 2.143966 -5.374465 -4.123972 2.016242 -4.850545 -4.850545 2.143966 -4.790199 -4.790199 2.016242 -4.175925 -5.442171 2.143966 -4.123972 -5.374465 2.016242 -3.429853 -5.940680 2.143966 -3.387182 -5.866771 2.016242 -2.625096 -6.337543 2.143966 -2.592437 -6.258697 2.016242 -1.775423 -6.625968 2.143966 -1.753335 -6.543533 2.016242 -0.895371 -6.801021 2.143966 -0.884232 -6.716409 2.016242 0.000000 -6.859707 2.143966 0.000000 -6.774364 2.016242 0.895371 -6.801021 2.143966 0.884232 -6.716409 2.016242 1.775423 -6.625968 2.143966 1.753335 -6.543533 2.016242 2.625096 -6.337543 2.143966 2.592437 -6.258697 2.016242 3.429853 -5.940680 2.143966 3.387182 -5.866771 2.016242 4.175925 -5.442171 2.143966 4.123972 -5.374465 2.016242 4.850545 -4.850545 2.143966 4.790199 -4.790199 2.016242 5.442171 -4.175925 2.143966 5.374465 -4.123972 2.016242 5.940680 -3.429853 2.143966 5.866771 -3.387182 2.016242 6.337543 -2.625096 2.143966 6.258697 -2.592437 2.016242 6.625968 -1.775423 2.143966 6.543533 -1.753335 2.016242 6.801021 -0.895371 2.143966 6.716409 -0.884232 2.016242 6.859707 0.000000 2.143966 6.774364 0.000000 2.016242 6.801021 0.895371 2.143966 6.716409 0.884232 2.016242 6.625968 1.775423 2.143966 6.543533 1.753335 2.016242 6.337543 2.625096 2.143966 6.258697 2.592437 2.016242 5.940680 3.429853 2.143966 5.866771 3.387182 2.016242 5.442171 4.175925 2.143966 5.374465 4.123972 2.016242 4.850545 4.850545 2.143966 4.790199 4.790199 2.016242 4.175925 5.442171 2.143966 4.123972 5.374465 2.016242 3.429853 5.940680 2.143966 3.387182 5.866771 2.016242 2.625096 6.337543 2.143966 2.592437 6.258697 2.016242 1.775423 6.625968 2.143966 1.753335 6.543533 2.016242 0.895371 6.801021 2.143966 0.884232 6.716409 2.016242 0.000000 6.859707 2.143966 0.000000 6.774364 2.016242 -0.895371 6.801021 2.143966 -0.884232 6.716409 2.016242 -1.775423 6.625968 2.143966 -1.753335 6.543533 2.016242 -2.625096 6.337543 2.143966 -2.592437 6.258697 2.016242 -3.429853 5.940680 2.143966 -3.387182 5.866771 2.016242 -4.175925 5.442171 2.143966 -4.123972 5.374465 2.016242 -4.850545 4.850545 2.143966 -4.790199 4.790199 2.016242 -5.442171 4.175925 2.143966 -5.374465 4.123972 2.016242 -5.940680 3.429853 2.143966 -5.866771 3.387182 2.016242 -6.337543 2.625096 2.143966 -6.258697 2.592437 2.016242 -6.625968 1.775423 2.143966 -6.543533 1.753335 2.016242 6.604538 0.869504 1.781937 6.661529 0.000000 1.781937 6.681146 0.000000 1.607828 6.623989 0.872065 1.607828 6.661912 0.877057 1.947316 6.719398 0.000000 1.947316 6.453492 1.729208 1.607828 6.716409 0.884232 1.459472 6.543533 1.753335 1.459472 6.434542 1.724130 1.781937 6.490440 1.739108 1.947316 6.172575 2.556764 1.607828 6.258697 2.592437 1.459472 6.154450 2.549257 1.781937 6.207913 2.571402 1.947316 5.786043 3.340573 1.607828 5.866771 3.387182 1.459472 5.769053 3.330765 1.781937 5.819169 3.359699 1.947316 5.300509 4.067224 1.607828 5.374465 4.123972 1.459472 5.284946 4.055282 1.781937 5.330857 4.090510 1.947316 4.724284 4.724284 1.607828 4.790199 4.790199 1.459472 4.710412 4.710412 1.781937 4.751331 4.751331 1.947316 4.067224 5.300509 1.607828 4.123972 5.374465 1.459472 4.055282 5.284946 1.781937 4.090510 5.330857 1.947316 3.340573 5.786043 1.607828 3.387182 5.866771 1.459472 3.330765 5.769053 1.781937 3.359699 5.819169 1.947316 2.556764 6.172575 1.607828 2.592437 6.258697 1.459472 2.549257 6.154450 1.781937 2.571402 6.207913 1.947316 1.729208 6.453492 1.607828 1.753335 6.543533 1.459472 1.724130 6.434542 1.781937 1.739108 6.490440 1.947316 0.872065 6.623989 1.607828 0.884232 6.716409 1.459472 0.869504 6.604538 1.781937 0.877057 6.661912 1.947316 0.000000 6.681146 1.607828 0.000000 6.774364 1.459472 0.000000 6.661529 1.781937 0.000000 6.719398 1.947316 -0.872065 6.623989 1.607828 -0.884232 6.716409 1.459472 -0.869504 6.604538 1.781937 -0.877057 6.661912 1.947316 -1.729208 6.453492 1.607828 -1.753335 6.543533 1.459472 -1.724130 6.434542 1.781937 -1.739108 6.490440 1.947316 -2.556764 6.172575 1.607828 -2.592437 6.258697 1.459472 -2.549257 6.154450 1.781937 -2.571402 6.207913 1.947316 -3.340573 5.786043 1.607828 -3.387182 5.866771 1.459472 -3.330765 5.769053 1.781937 -3.359699 5.819169 1.947316 -4.067224 5.300509 1.607828 -4.123972 5.374465 1.459472 -4.055282 5.284946 1.781937 -4.090510 5.330857 1.947316 -4.724284 4.724284 1.607828 -4.790199 4.790199 1.459472 -4.710412 4.710412 1.781937 -4.751331 4.751331 1.947316 -5.300509 4.067224 1.607828 -5.374465 4.123972 1.459472 -5.284946 4.055282 1.781937 -5.330857 4.090510 1.947316 -5.786043 3.340573 1.607828 -5.866771 3.387182 1.459472 -5.769053 3.330765 1.781937 -5.819169 3.359699 1.947316 -6.172575 2.556764 1.607828 -6.258697 2.592437 1.459472 -6.154450 2.549257 1.781937 -6.207913 2.571402 1.947316 -6.453492 1.729208 1.607828 -6.543533 1.753335 1.459472 -6.434542 1.724130 1.781937 -6.490440 1.739108 1.947316 -6.453492 -1.729208 1.607828 -6.543533 -1.753335 1.459472 -6.434542 -1.724130 1.781937 -6.490440 -1.739108 1.947316 -6.172575 -2.556764 1.607828 -6.258697 -2.592437 1.459472 -6.154450 -2.549257 1.781937 -6.207913 -2.571402 1.947316 -5.786043 -3.340573 1.607828 -5.866771 -3.387182 1.459472 -5.769053 -3.330765 1.781937 -5.819169 -3.359699 1.947316 -5.300509 -4.067224 1.607828 -5.374465 -4.123972 1.459472 -5.284946 -4.055282 1.781937 -5.330857 -4.090510 1.947316 -4.724284 -4.724284 1.607828 -4.790199 -4.790199 1.459472 -4.710412 -4.710412 1.781937 -4.751331 -4.751331 1.947316 -4.067224 -5.300509 1.607828 -4.123972 -5.374465 1.459472 -4.055282 -5.284946 1.781937 -4.090510 -5.330857 1.947316 -3.340573 -5.786043 1.607828 -3.387182 -5.866771 1.459472 -3.330765 -5.769053 1.781937 -3.359699 -5.819169 1.947316 -2.556764 -6.172575 1.607828 -2.592437 -6.258697 1.459472 -2.549257 -6.154450 1.781937 -2.571402 -6.207913 1.947316 -1.729208 -6.453492 1.607828 -1.753335 -6.543533 1.459472 -1.724130 -6.434542 1.781937 -1.739108 -6.490440 1.947316 -0.872065 -6.623989 1.607828 -0.884232 -6.716409 1.459472 -0.869504 -6.604538 1.781937 -0.877057 -6.661912 1.947316 0.000000 -6.681146 1.607828 0.000000 -6.774364 1.459472 0.000000 -6.661529 1.781937 0.000000 -6.719398 1.947316 0.872065 -6.623989 1.607828 0.884232 -6.716409 1.459472 0.869504 -6.604538 1.781937 0.877057 -6.661912 1.947316 1.729208 -6.453492 1.607828 1.753335 -6.543533 1.459472 1.724130 -6.434542 1.781937 1.739108 -6.490440 1.947316 2.556764 -6.172575 1.607828 2.592437 -6.258697 1.459472 2.549257 -6.154450 1.781937 2.571402 -6.207913 1.947316 3.340573 -5.786043 1.607828 3.387182 -5.866771 1.459472 3.330765 -5.769053 1.781937 3.359699 -5.819169 1.947316 4.067224 -5.300509 1.607828 4.123972 -5.374465 1.459472 4.055282 -5.284946 1.781937 4.090510 -5.330857 1.947316 4.724284 -4.724284 1.607828 4.790199 -4.790199 1.459472 4.710412 -4.710412 1.781937 4.751331 -4.751331 1.947316 5.300509 -4.067224 1.607828 5.374465 -4.123972 1.459472 5.284946 -4.055282 1.781937 5.330857 -4.090510 1.947316 5.786043 -3.340573 1.607828 5.866771 -3.387182 1.459472 5.769053 -3.330765 1.781937 5.819169 -3.359699 1.947316 6.172575 -2.556764 1.607828 6.258697 -2.592437 1.459472 6.154450 -2.549257 1.781937 6.207913 -2.571402 1.947316 6.453492 -1.729208 1.607828 6.543533 -1.753335 1.459472 6.434542 -1.724130 1.781937 6.490440 -1.739108 1.947316 6.623989 -0.872065 1.607828 6.716409 -0.884232 1.459472 6.604538 -0.869504 1.781937 6.661912 -0.877057 1.947316 6.774364 0.000000 1.459472 -6.625968 -1.775423 1.331748 -6.654915 -1.783179 1.181087 -6.337543 -2.625096 1.331748 -6.365230 -2.636564 1.181087 -5.940680 -3.429853 1.331748 -5.966634 -3.444838 1.181087 -5.442171 -4.175925 1.331748 -5.465947 -4.194169 1.181087 -4.850545 -4.850545 1.331748 -4.871736 -4.871736 1.181087 -4.175925 -5.442171 1.331748 -4.194169 -5.465947 1.181087 -3.429853 -5.940680 1.331748 -3.444838 -5.966634 1.181087 -2.625096 -6.337543 1.331748 -2.636564 -6.365230 1.181087 -1.775423 -6.625968 1.331748 -1.783179 -6.654915 1.181087 -0.895371 -6.801021 1.331748 -0.899283 -6.830733 1.181087 0.000000 -6.859707 1.331748 0.000000 -6.889675 1.181087 0.895371 -6.801021 1.331748 0.899283 -6.830733 1.181087 1.775423 -6.625968 1.331748 1.783179 -6.654915 1.181087 2.625096 -6.337543 1.331748 2.636564 -6.365230 1.181087 3.429853 -5.940680 1.331748 3.444838 -5.966634 1.181087 4.175925 -5.442171 1.331748 4.194169 -5.465947 1.181087 4.850545 -4.850545 1.331748 4.871736 -4.871736 1.181087 5.442171 -4.175925 1.331748 5.465947 -4.194169 1.181087 5.940680 -3.429853 1.331748 5.966634 -3.444838 1.181087 6.337543 -2.625096 1.331748 6.365230 -2.636564 1.181087 6.625968 -1.775423 1.331748 6.654915 -1.783179 1.181087 6.801021 -0.895371 1.331748 6.830733 -0.899283 1.181087 6.859707 0.000000 1.331748 6.889675 0.000000 1.181087 6.801021 0.895371 1.331748 6.830733 0.899283 1.181087 6.625968 1.775423 1.331748 6.654915 1.783179 1.181087 6.337543 2.625096 1.331748 6.365230 2.636564 1.181087 5.940680 3.429853 1.331748 5.966634 3.444838 1.181087 5.442171 4.175925 1.331748 5.465947 4.194169 1.181087 4.850545 4.850545 1.331748 4.871736 4.871736 1.181087 4.175925 5.442171 1.331748 4.194169 5.465947 1.181087 3.429853 5.940680 1.331748 3.444838 5.966634 1.181087 2.625096 6.337543 1.331748 2.636564 6.365230 1.181087 1.775423 6.625968 1.331748 1.783179 6.654915 1.181087 0.895371 6.801021 1.331748 0.899283 6.830733 1.181087 0.000000 6.859707 1.331748 0.000000 6.889675 1.181087 -0.895371 6.801021 1.331748 -0.899283 6.830733 1.181087 -1.775423 6.625968 1.331748 -1.783179 6.654915 1.181087 -2.625096 6.337543 1.331748 -2.636564 6.365230 1.181087 -3.429853 5.940680 1.331748 -3.444838 5.966634 1.181087 -4.175925 5.442171 1.331748 -4.194169 5.465947 1.181087 -4.850545 4.850545 1.331748 -4.871736 4.871736 1.181087 -5.442171 4.175925 1.331748 -5.465947 4.194169 1.181087 -5.940680 3.429853 1.331748 -5.966634 3.444838 1.181087 -6.337543 2.625096 1.331748 -6.365230 2.636564 1.181087 -6.625968 1.775423 1.331748 -6.654915 1.783179 1.181087 5.465947 -4.194169 0.393696 -3.444838 5.966634 0.393696 5.966634 -3.444838 0.393696 -4.194169 5.465947 0.393696 6.654915 -1.783179 0.393696 -6.365230 -2.636564 0.393696 6.830733 -0.899283 0.393696 -5.966634 3.444838 0.393696 -6.365230 2.636564 0.393696 -5.465947 -4.194169 0.393696 6.654915 1.783179 0.393696 -4.871736 -4.871736 0.393696 5.966634 3.444838 0.393696 5.465947 4.194169 0.393696 -1.783179 -6.654915 0.393696 2.636564 6.365230 0.393696 1.783179 6.654915 0.393696 2.636564 -6.365230 0.393696 0.000000 6.889675 0.393696 -0.000001 0.000000 0.000000 6.801021 -0.895371 0.243035 6.716409 -0.884232 0.115311 6.589777 -0.867560 0.029968 6.440405 -0.847895 0.000000 6.625968 -1.775421 0.243035 6.543534 -1.753333 0.115311 6.420162 -1.720275 0.029968 6.274634 -1.681281 0.000000 6.337542 -2.625099 0.243035 6.258696 -2.592440 0.115311 6.140694 -2.543561 0.029968 6.001502 -2.485906 0.000000 6.365229 -2.636567 0.393696 5.940680 -3.429854 0.243035 5.866771 -3.387183 0.115311 5.756158 -3.323321 0.029968 5.625683 -3.247990 0.000000 5.442172 -4.175924 0.243035 5.374465 -4.123971 0.115311 5.273135 -4.046217 0.029968 5.153607 -3.954501 0.000000 4.850543 -4.850548 0.243035 4.790196 -4.790202 0.115311 4.699882 -4.699887 0.029968 4.593349 -4.593354 0.000000 4.871733 -4.871738 0.393696 4.175923 -5.442172 0.243035 4.123970 -5.374465 0.115311 4.046216 -5.273135 0.029968 3.954500 -5.153608 0.000000 4.194167 -5.465948 0.393696 3.429853 -5.940681 0.243035 3.387182 -5.866772 0.115311 3.323319 -5.756159 0.029968 3.247989 -5.625683 0.000000 3.444837 -5.966634 0.393696 2.625098 -6.337542 0.243035 2.592439 -6.258696 0.115311 2.543561 -6.140694 0.029968 2.485905 -6.001502 0.000000 1.775420 -6.625968 0.243035 1.753331 -6.543534 0.115311 1.720274 -6.420162 0.029968 1.681280 -6.274635 0.000000 1.783176 -6.654916 0.393696 0.895370 -6.801021 0.243035 0.884231 -6.716409 0.115311 0.867559 -6.589777 0.029968 0.847894 -6.440405 0.000000 0.899282 -6.830733 0.393696 0.000001 -6.859707 0.243035 0.000001 -6.774364 0.115311 0.000001 -6.646640 0.029968 0.000000 -6.495979 0.000000 0.000001 -6.889675 0.393696 -0.895376 -6.801021 0.243035 -0.884236 -6.716408 0.115311 -0.867565 -6.589776 0.029968 -0.847899 -6.440405 0.000000 -0.899287 -6.830732 0.393696 -1.775425 -6.625967 0.243035 -1.753337 -6.543533 0.115311 -1.720279 -6.420161 0.029968 -1.681285 -6.274633 0.000000 -2.625097 -6.337542 0.243035 -2.592438 -6.258697 0.115311 -2.543560 -6.140694 0.029968 -2.485904 -6.001502 0.000000 -2.636565 -6.365229 0.393696 -3.429852 -5.940681 0.243035 -3.387181 -5.866773 0.115311 -3.323319 -5.756160 0.029968 -3.247988 -5.625684 0.000000 -3.444836 -5.966634 0.393696 -4.175928 -5.442169 0.243035 -4.123975 -5.374463 0.115311 -4.046221 -5.273132 0.029968 -3.954504 -5.153605 0.000000 -4.194171 -5.465944 0.393696 -4.850546 -4.850544 0.243035 -4.790200 -4.790198 0.115311 -4.699885 -4.699883 0.029968 -4.593352 -4.593350 0.000000 -5.442171 -4.175925 0.243035 -5.374465 -4.123972 0.115311 -5.273134 -4.046218 0.029968 -5.153607 -3.954501 0.000000 -5.940681 -3.429852 0.243035 -5.866773 -3.387181 0.115311 -5.756160 -3.323319 0.029968 -5.625684 -3.247988 0.000000 -5.966634 -3.444836 0.393696 -6.337543 -2.625094 0.243035 -6.258698 -2.592435 0.115311 -6.140696 -2.543556 0.029968 -6.001503 -2.485901 0.000000 -6.625968 -1.775422 0.243035 -6.543534 -1.753334 0.115311 -6.420162 -1.720276 0.029968 -6.274634 -1.681282 0.000000 -6.654916 -1.783178 0.393696 -6.625968 1.775422 0.243035 -6.543534 1.753334 0.115311 -6.420162 1.720276 0.029968 -6.274634 1.681282 0.000000 -6.654916 1.783178 0.393696 -6.337542 2.625097 0.243035 -6.258697 2.592438 0.115311 -6.140694 2.543559 0.029968 -6.001502 2.485904 0.000000 -5.940680 3.429855 0.243035 -5.866771 3.387184 0.115311 -5.756158 3.323321 0.029968 -5.625682 3.247991 0.000000 -5.442171 4.175925 0.243035 -5.374465 4.123972 0.115311 -5.273134 4.046218 0.029968 -5.153607 3.954501 0.000000 -5.465947 4.194169 0.393696 -4.850546 4.850544 0.243035 -4.790200 4.790198 0.115311 -4.699885 4.699883 0.029968 -4.593352 4.593350 0.000000 -4.871737 4.871735 0.393696 -4.175925 5.442171 0.243035 -4.123972 5.374465 0.115311 -4.046218 5.273134 0.029968 -3.954501 5.153607 0.000000 -3.429852 5.940681 0.243035 -3.387181 5.866773 0.115311 -3.323319 5.756160 0.029968 -3.247988 5.625684 0.000000 -2.625097 6.337542 0.243035 -2.592438 6.258697 0.115311 -2.543560 6.140694 0.029968 -2.485904 6.001502 0.000000 -2.636565 6.365229 0.393696 -1.775422 6.625968 0.243035 -1.753334 6.543534 0.115311 -1.720276 6.420162 0.029968 -1.681282 6.274634 0.000000 -1.783178 6.654916 0.393696 -0.895372 6.801021 0.243035 -0.884233 6.716409 0.115311 -0.867562 6.589777 0.029968 -0.847896 6.440405 0.000000 -0.899284 6.830733 0.393696 0.000001 6.859707 0.243035 0.000001 6.774364 0.115311 0.000001 6.646640 0.029968 0.000000 6.495979 0.000000 0.895370 6.801021 0.243035 0.884231 6.716409 0.115311 0.867559 6.589777 0.029968 0.847894 6.440405 0.000000 0.899282 6.830733 0.393696 1.775423 6.625968 0.243035 1.753335 6.543533 0.115311 1.720277 6.420161 0.029968 1.681283 6.274634 0.000000 2.625098 6.337542 0.243035 2.592439 6.258696 0.115311 2.543561 6.140694 0.029968 2.485905 6.001502 0.000000 3.429853 5.940681 0.243035 3.387182 5.866772 0.115311 3.323319 5.756159 0.029968 3.247989 5.625683 0.000000 3.444837 5.966634 0.393696 4.175926 5.442170 0.243035 4.123972 5.374464 0.115311 4.046218 5.273133 0.029968 3.954502 5.153606 0.000000 4.194169 5.465946 0.393696 4.850544 4.850545 0.243035 4.790198 4.790199 0.115311 4.699884 4.699884 0.029968 4.593351 4.593351 0.000000 4.871736 4.871736 0.393696 5.442172 4.175924 0.243035 5.374465 4.123971 0.115311 5.273135 4.046217 0.029968 5.153607 3.954501 0.000000 5.940680 3.429854 0.243035 5.866771 3.387183 0.115311 5.756158 3.323321 0.029968 5.625683 3.247990 0.000000 6.337543 2.625096 0.243035 6.258697 2.592437 0.115311 6.140695 2.543559 0.029968 6.001503 2.485903 0.000000 6.365230 2.636564 0.393696 6.625968 1.775422 0.243035 6.543533 1.753334 0.115311 6.420161 1.720277 0.029968 6.274634 1.681283 0.000000 6.801021 0.895371 0.243035 6.716409 0.884232 0.115311 6.589777 0.867560 0.029968 6.440405 0.847895 0.000000 6.830733 0.899283 0.393696 6.859707 0.000000 0.243035 6.774364 0.000000 0.115311 6.646640 0.000000 0.029968 6.495979 0.000000 0.000000 6.889675 0.000000 0.393696 4.261878 2.460604 17.716307 4.546590 1.883265 17.716307 4.753510 1.273704 17.716307 4.879095 0.642348 17.716307 4.921196 0.000002 17.716307 4.879095 -0.642344 17.716307 4.753511 -1.273699 17.716307 4.546592 -1.883261 17.716307 4.261880 -2.460600 17.716307 3.904246 -2.995837 17.716307 3.479810 -3.479813 17.716307 2.995833 -3.904249 17.716307 2.460596 -4.261882 17.716307 1.883258 -4.546594 17.716307 1.273697 -4.753511 17.716307 0.642343 -4.879095 17.716307 -0.000002 -4.921196 17.716307 -0.642347 -4.879095 17.716307 -1.273701 -4.753510 17.716307 -1.883262 -4.546592 17.716307 -2.460599 -4.261880 17.716307 -2.995835 -3.904247 17.716307 -3.479812 -3.479810 17.716307 -3.904248 -2.995834 17.716307 -4.261882 -2.460598 17.716307 -4.546593 -1.883259 17.716307 -4.753511 -1.273698 17.716307 -4.753510 1.273700 17.716307 -4.546592 1.883261 17.716307 -4.261881 2.460598 17.716307 -3.904248 2.995835 17.716307 -3.479811 3.479812 17.716307 -2.995835 3.904248 17.716307 -2.460598 4.261881 17.716307 -1.883260 4.546592 17.716307 -1.273699 4.753510 17.716307 -0.642345 4.879095 17.716307 0.000000 4.921196 17.716307 6.889675 0.000000 17.322611 6.859707 0.000000 17.473272 6.774364 0.000000 17.600996 6.646640 0.000000 17.686340 6.495979 0.000000 17.716307 6.830733 0.899283 17.322611 6.801021 0.895371 17.473272 6.716409 0.884232 17.600996 6.589777 0.867560 17.686340 6.440405 0.847895 17.716307 6.654915 1.783179 17.322611 6.625968 1.775422 17.473272 6.543533 1.753334 17.600996 6.420161 1.720277 17.686340 6.274634 1.681283 17.716307 6.365230 2.636564 17.322611 6.337543 2.625096 17.473272 6.258697 2.592437 17.600996 6.140695 2.543559 17.686340 6.001503 2.485903 17.716307 5.966633 3.444838 17.322611 5.940680 3.429854 17.473272 5.866771 3.387183 17.600996 5.756158 3.323321 17.686340 5.625683 3.247990 17.716307 5.442172 4.175924 17.473272 5.374465 4.123971 17.600996 5.273135 4.046217 17.686340 5.153607 3.954501 17.716307 4.850544 4.850545 17.473272 4.790198 4.790199 17.600996 4.699884 4.699884 17.686340 4.593351 4.593351 17.716307 4.175926 5.442170 17.473272 4.123972 5.374464 17.600996 4.046218 5.273133 17.686340 3.954502 5.153606 17.716307 3.444837 5.966634 17.322611 3.429853 5.940681 17.473272 3.387182 5.866772 17.600996 3.323319 5.756159 17.686340 3.247989 5.625683 17.716307 2.636566 6.365229 17.322611 2.625098 6.337542 17.473272 2.592439 6.258696 17.600996 2.543561 6.140694 17.686340 2.485905 6.001502 17.716307 1.783179 6.654915 17.322611 1.775423 6.625968 17.473272 1.753335 6.543533 17.600996 1.720277 6.420161 17.686340 1.681283 6.274634 17.716307 0.899282 6.830733 17.322611 0.895370 6.801021 17.473272 0.884231 6.716409 17.600996 0.867559 6.589777 17.686340 0.847894 6.440405 17.716307 0.000001 6.859707 17.473272 0.000001 6.774364 17.600996 0.000001 6.646640 17.686340 0.000000 6.495979 17.716307 -0.899284 6.830733 17.322611 -0.895372 6.801021 17.473272 -0.884233 6.716409 17.600996 -0.867562 6.589777 17.686340 -0.847896 6.440405 17.716307 -1.775422 6.625968 17.473272 -1.753334 6.543534 17.600996 -1.720276 6.420162 17.686340 -1.681282 6.274634 17.716307 -2.636565 6.365229 17.322611 -2.625097 6.337542 17.473272 -2.592438 6.258697 17.600996 -2.543560 6.140694 17.686340 -2.485904 6.001502 17.716307 -3.429852 5.940681 17.473272 -3.387181 5.866773 17.600996 -3.323319 5.756160 17.686340 -3.247988 5.625684 17.716307 -4.175925 5.442171 17.473272 -4.123972 5.374465 17.600996 -4.046218 5.273134 17.686340 -3.954501 5.153607 17.716307 -4.871737 4.871735 17.322611 -4.850546 4.850544 17.473272 -4.790200 4.790198 17.600996 -4.699885 4.699883 17.686340 -4.593352 4.593350 17.716307 -5.465947 4.194169 17.322611 -5.442171 4.175925 17.473272 -5.374465 4.123972 17.600996 -5.273134 4.046218 17.686340 -5.153607 3.954501 17.716307 -5.940680 3.429855 17.473272 -5.866771 3.387184 17.600996 -5.756158 3.323321 17.686340 -5.625682 3.247991 17.716307 -6.337542 2.625097 17.473272 -6.258697 2.592438 17.600996 -6.140694 2.543559 17.686340 -6.001502 2.485904 17.716307 -6.654916 1.783178 17.322611 -6.625968 1.775422 17.473272 -6.543534 1.753334 17.600996 -6.420162 1.720276 17.686340 -6.274634 1.681282 17.716307 -6.654916 -1.783178 17.322611 -6.625968 -1.775422 17.473272 -6.543534 -1.753334 17.600996 -6.420162 -1.720276 17.686340 -6.274634 -1.681282 17.716307 -6.365231 -2.636562 17.322611 -6.337543 -2.625094 17.473272 -6.258698 -2.592435 17.600996 -6.140696 -2.543556 17.686340 -6.001503 -2.485901 17.716307 -5.940681 -3.429852 17.473272 -5.866773 -3.387181 17.600996 -5.756160 -3.323319 17.686340 -5.625684 -3.247988 17.716307 -5.442171 -4.175925 17.473272 -5.374465 -4.123972 17.600996 -5.273134 -4.046218 17.686340 -5.153607 -3.954501 17.716307 -4.871737 -4.871735 17.322611 -4.850546 -4.850544 17.473272 -4.790200 -4.790198 17.600996 -4.699885 -4.699883 17.686340 -4.593352 -4.593350 17.716307 -4.194171 -5.465944 17.322611 -4.175928 -5.442169 17.473272 -4.123975 -5.374463 17.600996 -4.046221 -5.273132 17.686340 -3.954504 -5.153605 17.716307 -3.429852 -5.940681 17.473272 -3.387181 -5.866773 17.600996 -3.323319 -5.756160 17.686340 -3.247988 -5.625684 17.716307 -2.636565 -6.365229 17.322611 -2.625097 -6.337542 17.473272 -2.592438 -6.258697 17.600996 -2.543560 -6.140694 17.686340 -2.485904 -6.001502 17.716307 -1.775425 -6.625967 17.473272 -1.753337 -6.543533 17.600996 -1.720279 -6.420161 17.686340 -1.681285 -6.274633 17.716307 -0.899287 -6.830732 17.322611 -0.895376 -6.801021 17.473272 -0.884236 -6.716408 17.600996 -0.867565 -6.589776 17.686340 -0.847899 -6.440405 17.716307 0.000001 -6.859707 17.473272 0.000001 -6.774364 17.600996 0.000001 -6.646640 17.686340 0.000000 -6.495979 17.716307 0.899282 -6.830733 17.322611 0.895370 -6.801021 17.473272 0.884231 -6.716409 17.600996 0.867559 -6.589777 17.686340 0.847894 -6.440405 17.716307 1.775420 -6.625968 17.473272 1.753331 -6.543534 17.600996 1.720274 -6.420162 17.686340 1.681280 -6.274635 17.716307 2.636566 -6.365229 17.322611 2.625098 -6.337542 17.473272 2.592439 -6.258696 17.600996 2.543561 -6.140694 17.686340 2.485905 -6.001502 17.716307 3.429853 -5.940681 17.473272 3.387182 -5.866772 17.600996 3.323319 -5.756159 17.686340 3.247989 -5.625683 17.716307 4.194167 -5.465948 17.322611 4.175923 -5.442172 17.473272 4.123970 -5.374465 17.600996 4.046216 -5.273135 17.686340 3.954500 -5.153608 17.716307 4.871733 -4.871738 17.322611 4.850543 -4.850548 17.473272 4.790196 -4.790202 17.600996 4.699882 -4.699887 17.686340 4.593349 -4.593354 17.716307 5.442172 -4.175924 17.473272 5.374465 -4.123971 17.600996 5.273135 -4.046217 17.686340 5.153607 -3.954501 17.716307 5.940680 -3.429854 17.473272 5.866771 -3.387183 17.600996 5.756158 -3.323321 17.686340 5.625683 -3.247990 17.716307 6.337542 -2.625099 17.473272 6.258696 -2.592440 17.600996 6.140694 -2.543561 17.686340 6.001502 -2.485906 17.716307 6.625968 -1.775421 17.473272 6.543534 -1.753333 17.600996 6.420162 -1.720275 17.686340 6.274634 -1.681281 17.716307 6.801021 -0.895371 17.473272 6.716409 -0.884232 17.600996 6.589777 -0.867560 17.686340 6.440405 -0.847895 17.716307 0.000000 4.921196 17.637568 -0.642345 4.879095 17.637568 -1.273699 4.753510 17.637568 -1.883260 4.546592 17.637568 -2.460598 4.261881 17.637568 -2.995835 3.904248 17.637568 -3.479811 3.479812 17.637568 -3.904248 2.995835 17.637568 -4.261881 2.460598 17.637568 -4.546592 1.883261 17.637568 -4.753510 1.273700 17.637568 -4.753511 -1.273698 17.637568 -4.546593 -1.883259 17.637568 -4.261882 -2.460598 17.637568 -3.904248 -2.995834 17.637568 -3.479812 -3.479810 17.637568 -2.995835 -3.904247 17.637568 -2.460599 -4.261880 17.637568 -1.883262 -4.546592 17.637568 -1.273701 -4.753510 17.637568 -0.642347 -4.879095 17.637568 -0.000002 -4.921196 17.637568 0.642343 -4.879095 17.637568 1.273697 -4.753511 17.637568 1.883258 -4.546594 17.637568 2.460596 -4.261882 17.637568 2.995833 -3.904249 17.637568 3.479810 -3.479813 17.637568 3.904246 -2.995837 17.637568 4.261880 -2.460600 17.637568 4.546592 -1.883261 17.637568 4.753511 -1.273699 17.637568 4.879095 -0.642344 17.637568 4.921196 0.000002 17.637568 4.879095 0.642348 17.637568 4.753510 1.273704 17.637568 4.546590 1.883265 17.637568 4.261878 2.460604 17.637568 3.904243 2.995841 17.637568 3.479805 3.479817 17.637568 2.995827 3.904254 17.637568 2.460589 4.261887 17.637568 1.883250 4.546597 17.637568 1.273687 4.753514 17.637568 0.642331 4.879097 17.637568 3.904243 2.995841 17.716307 3.479805 3.479817 17.716307 2.995827 3.904254 17.716307 2.460589 4.261887 17.716307 1.883250 4.546597 17.716307 1.273687 4.753514 17.716307 0.642331 4.879097 17.716307 0.000000 4.921196 17.716307 0.642331 4.879097 17.716307 1.273687 4.753514 17.716307 1.883250 4.546597 17.716307 2.460589 4.261887 17.716307 2.995827 3.904254 17.716307 3.479805 3.479817 17.716307 3.904243 2.995841 17.716307 4.261878 2.460604 17.716307 4.546590 1.883265 17.716307 4.753510 1.273704 17.716307 4.879095 0.642348 17.716307 4.921196 0.000002 17.716307 4.879095 -0.642344 17.716307 4.753511 -1.273699 17.716307 4.546592 -1.883261 17.716307 4.261880 -2.460600 17.716307 3.904246 -2.995837 17.716307 3.479810 -3.479813 17.716307 2.995833 -3.904249 17.716307 2.460596 -4.261882 17.716307 1.883258 -4.546594 17.716307 1.273697 -4.753511 17.716307 0.642343 -4.879095 17.716307 -0.000002 -4.921196 17.716307 -0.642347 -4.879095 17.716307 -1.273701 -4.753510 17.716307 -1.883262 -4.546592 17.716307 -2.460599 -4.261880 17.716307 -2.995835 -3.904247 17.716307 -3.479812 -3.479810 17.716307 -3.904248 -2.995834 17.716307 -4.261882 -2.460598 17.716307 -4.546593 -1.883259 17.716307 -4.753511 -1.273698 17.716307 -4.753510 1.273700 17.716307 -4.546592 1.883261 17.716307 -4.261881 2.460598 17.716307 -3.904248 2.995835 17.716307 -3.479811 3.479812 17.716307 -2.995835 3.904248 17.716307 -2.460598 4.261881 17.716307 -1.883260 4.546592 17.716307 -1.273699 4.753510 17.716307 -0.642345 4.879095 17.716307 ]
        }
        coordIndex [ 12 23 24 -1 25 760 22 -1 26 12 24 -1 27 1 25 -1 28 13 26 -1 29 2 27 -1 30 14 28 -1 32 773 29 -1 33 15 30 -1 34 796 31 -1 37 801 34 -1 35 778 32 -1 36 16 33 -1 38 3 35 -1 39 690 36 -1 40 6 37 -1 41 4 38 -1 700 39 42 -1 43 7 40 -1 705 42 44 -1 43 819 814 -1 710 44 46 -1 47 819 45 -1 17 46 48 -1 49 5 47 -1 18 48 50 -1 51 828 49 -1 19 50 52 -1 53 8 51 -1 727 52 54 -1 55 837 53 -1 56 727 54 -1 57 9 55 -1 58 732 56 -1 59 846 57 -1 60 737 58 -1 61 10 59 -1 62 742 60 -1 63 855 61 -1 64 20 62 -1 65 11 63 -1 21 751 64 -1 23 864 65 -1 369 426 371 -1 88 59 57 -1 115 112 113 -1 116 42 114 -1 80 83 82 -1 118 44 116 -1 81 78 79 -1 118 48 46 -1 97 94 95 -1 98 65 96 -1 74 77 76 -1 98 24 23 -1 98 97 99 -1 150 32 148 -1 102 101 103 -1 104 26 102 -1 94 93 95 -1 106 28 104 -1 92 91 93 -1 132 58 130 -1 332 376 378 -1 110 33 108 -1 86 89 88 -1 110 39 36 -1 110 109 111 -1 112 42 39 -1 84 83 85 -1 82 49 80 -1 107 104 105 -1 80 47 78 -1 102 105 104 -1 26 100 102 -1 121 118 119 -1 146 27 144 -1 101 98 99 -1 146 32 29 -1 122 121 123 -1 54 124 126 -1 126 125 127 -1 152 35 150 -1 118 117 119 -1 130 56 128 -1 116 115 117 -1 132 131 133 -1 86 57 55 -1 113 110 111 -1 134 133 135 -1 134 64 62 -1 139 136 137 -1 136 21 64 -1 140 21 138 -1 131 128 129 -1 142 22 140 -1 129 126 127 -1 142 27 25 -1 145 142 143 -1 52 122 124 -1 125 122 123 -1 74 45 43 -1 146 145 147 -1 150 149 151 -1 68 31 66 -1 63 92 94 -1 142 141 143 -1 154 38 152 -1 140 139 141 -1 108 30 106 -1 343 340 341 -1 137 134 135 -1 348 347 349 -1 354 288 284 -1 340 260 256 -1 157 160 161 -1 155 152 153 -1 356 359 358 -1 153 150 151 -1 61 90 92 -1 78 77 79 -1 78 45 76 -1 149 146 147 -1 338 341 340 -1 184 392 394 -1 74 40 72 -1 308 364 366 -1 65 94 96 -1 364 300 362 -1 336 339 338 -1 350 280 276 -1 70 40 37 -1 88 91 90 -1 203 209 205 -1 205 210 206 -1 210 135 206 -1 199 196 200 -1 211 209 207 -1 209 214 210 -1 214 137 210 -1 211 216 215 -1 191 197 193 -1 197 194 193 -1 218 139 214 -1 219 216 220 -1 193 187 191 -1 217 222 218 -1 143 218 222 -1 223 220 224 -1 271 269 267 -1 225 222 221 -1 145 222 226 -1 223 228 227 -1 223 229 225 -1 225 230 226 -1 147 226 230 -1 231 228 232 -1 158 156 157 -1 149 230 234 -1 233 230 229 -1 231 236 235 -1 233 235 237 -1 274 77 270 -1 273 270 269 -1 271 276 275 -1 219 217 215 -1 274 277 278 -1 151 242 153 -1 244 239 240 -1 215 213 211 -1 213 218 214 -1 155 242 246 -1 212 207 208 -1 282 285 286 -1 208 203 204 -1 50 120 122 -1 289 286 285 -1 287 284 288 -1 285 287 289 -1 289 294 290 -1 295 293 291 -1 247 252 251 -1 239 245 241 -1 245 242 241 -1 302 91 298 -1 255 252 256 -1 241 235 239 -1 301 306 302 -1 95 302 306 -1 307 304 308 -1 259 257 255 -1 258 261 262 -1 97 306 310 -1 259 264 263 -1 261 263 265 -1 309 314 310 -1 75 262 266 -1 267 264 268 -1 267 265 263 -1 269 266 265 -1 77 266 270 -1 260 255 256 -1 317 319 321 -1 189 186 185 -1 101 322 103 -1 187 192 191 -1 303 301 299 -1 325 322 321 -1 79 278 81 -1 280 275 276 -1 275 281 277 -1 249 254 250 -1 83 278 282 -1 285 279 283 -1 87 286 290 -1 165 170 166 -1 85 282 286 -1 135 202 206 -1 283 280 284 -1 201 195 199 -1 133 198 202 -1 198 201 202 -1 295 300 299 -1 162 156 159 -1 281 278 277 -1 190 125 186 -1 303 300 304 -1 271 277 273 -1 266 261 265 -1 127 194 129 -1 267 272 271 -1 307 305 303 -1 309 306 305 -1 166 113 160 -1 307 312 311 -1 307 313 309 -1 160 111 161 -1 177 182 178 -1 315 312 316 -1 315 313 311 -1 317 314 313 -1 101 314 318 -1 320 315 316 -1 223 221 219 -1 121 174 178 -1 321 318 317 -1 319 324 323 -1 319 325 321 -1 258 253 257 -1 103 326 105 -1 323 328 327 -1 299 297 295 -1 297 302 298 -1 170 115 166 -1 291 296 295 -1 333 327 331 -1 109 330 334 -1 298 293 297 -1 287 292 291 -1 287 293 289 -1 157 334 333 -1 111 334 161 -1 163 158 335 -1 333 158 157 -1 205 202 201 -1 326 107 105 -1 328 331 327 -1 330 333 334 -1 175 172 176 -1 323 329 325 -1 67 254 69 -1 329 326 325 -1 240 235 236 -1 253 255 257 -1 185 182 181 -1 254 71 69 -1 183 188 187 -1 185 187 189 -1 169 174 170 -1 149 238 151 -1 183 180 184 -1 231 229 227 -1 241 238 237 -1 182 125 123 -1 191 196 195 -1 185 179 183 -1 123 178 182 -1 190 193 194 -1 203 200 204 -1 177 179 181 -1 258 73 71 -1 177 174 173 -1 159 164 162 -1 167 165 162 -1 310 99 97 -1 156 166 160 -1 162 168 167 -1 249 251 253 -1 171 168 172 -1 131 194 198 -1 175 180 179 -1 173 175 177 -1 89 298 91 -1 68 67 69 -1 203 201 199 -1 234 237 238 -1 87 294 89 -1 332 158 331 -1 354 280 352 -1 385 382 383 -1 362 296 360 -1 363 360 361 -1 348 276 272 -1 344 343 345 -1 348 268 346 -1 367 364 365 -1 368 308 366 -1 350 349 351 -1 368 316 312 -1 56 126 128 -1 388 176 172 -1 372 371 373 -1 372 324 320 -1 368 367 369 -1 374 328 324 -1 376 375 377 -1 360 292 358 -1 378 377 379 -1 378 335 332 -1 380 379 381 -1 382 335 380 -1 382 381 383 -1 384 163 382 -1 386 164 384 -1 384 387 386 -1 192 396 398 -1 370 369 371 -1 320 370 372 -1 391 388 389 -1 392 176 390 -1 392 391 393 -1 416 232 228 -1 372 375 374 -1 188 394 396 -1 396 395 397 -1 388 168 386 -1 388 387 389 -1 398 196 192 -1 400 399 401 -1 402 401 403 -1 204 402 404 -1 404 403 405 -1 406 405 407 -1 406 204 404 -1 409 406 407 -1 402 196 400 -1 410 212 408 -1 411 408 409 -1 412 216 410 -1 394 393 395 -1 412 224 220 -1 415 412 413 -1 416 224 414 -1 398 397 399 -1 344 260 342 -1 412 411 413 -1 420 419 421 -1 108 107 109 -1 119 170 174 -1 416 415 417 -1 422 244 240 -1 424 423 425 -1 408 208 406 -1 340 252 338 -1 134 60 132 -1 86 85 87 -1 356 355 357 -1 84 51 82 -1 358 288 356 -1 352 351 353 -1 74 73 75 -1 418 417 419 -1 420 240 236 -1 86 53 84 -1 420 232 418 -1 422 421 423 -1 344 268 264 -1 344 347 346 -1 354 353 355 -1 73 70 71 -1 364 363 365 -1 70 69 71 -1 70 34 68 -1 338 248 336 -1 358 361 360 -1 582 409 587 -1 413 582 427 -1 371 428 373 -1 413 429 415 -1 373 458 375 -1 417 429 569 -1 375 430 377 -1 419 569 564 -1 337 431 339 -1 377 432 379 -1 419 433 421 -1 379 651 381 -1 339 537 341 -1 421 434 423 -1 381 646 383 -1 341 435 343 -1 425 434 551 -1 436 383 646 -1 343 437 345 -1 637 385 436 -1 345 524 347 -1 438 387 637 -1 347 519 349 -1 439 389 438 -1 351 519 514 -1 439 393 391 -1 351 440 353 -1 619 393 624 -1 353 505 355 -1 614 395 619 -1 355 500 357 -1 397 441 399 -1 357 495 359 -1 399 442 401 -1 359 490 361 -1 403 442 601 -1 361 443 363 -1 405 601 444 -1 363 481 365 -1 407 444 592 -1 365 476 367 -1 407 587 409 -1 367 471 369 -1 971 915 914 -1 457 462 445 -1 577 581 445 -1 650 449 445 -1 563 568 445 -1 532 536 445 -1 518 523 445 -1 636 641 445 -1 623 628 445 -1 609 613 445 -1 596 600 445 -1 504 509 445 -1 489 494 445 -1 475 480 445 -1 550 555 445 -1 462 466 445 -1 449 453 445 -1 581 586 445 -1 568 573 445 -1 536 541 445 -1 523 528 445 -1 641 645 445 -1 628 632 445 -1 613 618 445 -1 645 650 445 -1 600 605 445 -1 509 513 445 -1 494 499 445 -1 480 485 445 -1 555 559 445 -1 586 591 445 -1 466 470 445 -1 453 457 445 -1 573 577 445 -1 541 545 445 -1 528 532 445 -1 632 636 445 -1 618 623 445 -1 605 609 445 -1 559 563 445 -1 591 596 445 -1 513 518 445 -1 499 504 445 -1 485 489 445 -1 470 475 445 -1 446 651 432 -1 447 647 446 -1 649 447 448 -1 650 448 449 -1 450 432 430 -1 447 450 451 -1 448 451 452 -1 449 452 453 -1 454 430 458 -1 455 450 454 -1 456 451 455 -1 457 452 456 -1 454 428 459 -1 460 454 459 -1 456 460 461 -1 462 456 461 -1 459 426 463 -1 460 463 464 -1 461 464 465 -1 466 461 465 -1 467 426 471 -1 468 463 467 -1 469 464 468 -1 466 469 470 -1 467 476 472 -1 473 467 472 -1 469 473 474 -1 470 474 475 -1 472 481 477 -1 478 472 477 -1 474 478 479 -1 480 474 479 -1 482 481 443 -1 478 482 483 -1 479 483 484 -1 485 479 484 -1 486 443 490 -1 483 486 487 -1 484 487 488 -1 485 488 489 -1 486 495 491 -1 487 491 492 -1 493 487 492 -1 489 493 494 -1 491 500 496 -1 492 496 497 -1 498 492 497 -1 494 498 499 -1 496 505 501 -1 502 496 501 -1 498 502 503 -1 499 503 504 -1 501 440 506 -1 502 506 507 -1 503 507 508 -1 509 503 508 -1 506 514 510 -1 511 506 510 -1 508 511 512 -1 509 512 513 -1 515 514 519 -1 511 515 516 -1 517 511 516 -1 513 517 518 -1 520 519 524 -1 516 520 521 -1 517 521 522 -1 518 522 523 -1 520 437 525 -1 521 525 526 -1 522 526 527 -1 523 527 528 -1 525 435 529 -1 530 525 529 -1 531 526 530 -1 528 531 532 -1 533 435 537 -1 530 533 534 -1 535 530 534 -1 532 535 536 -1 533 431 538 -1 534 538 539 -1 535 539 540 -1 536 540 541 -1 538 546 542 -1 543 538 542 -1 540 543 544 -1 541 544 545 -1 547 434 552 -1 548 552 553 -1 549 553 554 -1 550 554 555 -1 552 433 556 -1 553 556 557 -1 554 557 558 -1 559 554 558 -1 556 564 560 -1 561 556 560 -1 562 557 561 -1 559 562 563 -1 560 569 565 -1 561 565 566 -1 562 566 567 -1 563 567 568 -1 570 569 429 -1 571 565 570 -1 567 571 572 -1 568 572 573 -1 570 427 574 -1 571 574 575 -1 576 571 575 -1 573 576 577 -1 574 582 578 -1 575 578 579 -1 576 579 580 -1 577 580 581 -1 583 582 587 -1 579 583 584 -1 580 584 585 -1 581 585 586 -1 583 592 588 -1 584 588 589 -1 590 584 589 -1 586 590 591 -1 588 444 593 -1 594 588 593 -1 590 594 595 -1 596 590 595 -1 593 601 597 -1 594 597 598 -1 595 598 599 -1 596 599 600 -1 597 442 602 -1 598 602 603 -1 599 603 604 -1 600 604 605 -1 602 441 606 -1 607 602 606 -1 604 607 608 -1 605 608 609 -1 606 614 610 -1 607 610 611 -1 612 607 611 -1 609 612 613 -1 615 614 619 -1 616 610 615 -1 612 616 617 -1 613 617 618 -1 620 619 624 -1 621 615 620 -1 622 616 621 -1 623 617 622 -1 620 439 625 -1 621 625 626 -1 622 626 627 -1 628 622 627 -1 629 439 438 -1 626 629 630 -1 627 630 631 -1 628 631 632 -1 633 438 637 -1 634 629 633 -1 631 634 635 -1 632 635 636 -1 633 436 638 -1 639 633 638 -1 635 639 640 -1 636 640 641 -1 638 646 642 -1 643 638 642 -1 644 639 643 -1 641 644 645 -1 642 651 647 -1 648 642 647 -1 644 648 649 -1 645 649 650 -1 972 914 913 -1 982 904 903 -1 983 903 902 -1 973 913 912 -1 960 926 925 -1 984 902 901 -1 947 894 938 -1 974 912 911 -1 961 925 924 -1 985 901 900 -1 948 938 937 -1 975 911 910 -1 962 924 923 -1 986 900 899 -1 949 937 936 -1 976 910 909 -1 963 923 922 -1 987 899 898 -1 950 936 935 -1 977 909 908 -1 964 922 921 -1 988 898 897 -1 951 935 934 -1 965 921 920 -1 978 908 907 -1 952 934 933 -1 989 897 896 -1 966 920 919 -1 979 907 906 -1 953 933 932 -1 990 896 895 -1 967 919 918 -1 980 906 905 -1 954 932 931 -1 946 895 894 -1 968 918 917 -1 955 931 930 -1 958 928 927 -1 959 927 926 -1 171 169 167 -1 760 21 22 -1 695 691 690 -1 696 692 691 -1 697 693 692 -1 698 694 693 -1 695 701 696 -1 701 697 696 -1 702 698 697 -1 703 699 698 -1 705 701 700 -1 706 702 701 -1 707 703 702 -1 703 709 704 -1 710 706 705 -1 711 707 706 -1 712 708 707 -1 713 709 708 -1 710 715 711 -1 715 712 711 -1 712 717 713 -1 713 718 714 -1 17 719 715 -1 715 720 716 -1 716 721 717 -1 717 722 718 -1 18 723 719 -1 719 724 720 -1 724 721 720 -1 725 722 721 -1 19 728 723 -1 728 724 723 -1 729 725 724 -1 730 726 725 -1 732 728 727 -1 733 729 728 -1 734 730 729 -1 735 731 730 -1 737 733 732 -1 738 734 733 -1 739 735 734 -1 740 736 735 -1 742 738 737 -1 743 739 738 -1 739 745 740 -1 745 741 740 -1 742 747 743 -1 747 744 743 -1 744 749 745 -1 749 746 745 -1 20 752 747 -1 752 748 747 -1 748 754 749 -1 754 750 749 -1 751 756 752 -1 756 753 752 -1 757 754 753 -1 758 755 754 -1 0 761 756 -1 756 762 757 -1 762 758 757 -1 763 759 758 -1 760 765 761 -1 765 762 761 -1 762 767 763 -1 767 764 763 -1 1 769 765 -1 765 770 766 -1 770 767 766 -1 771 768 767 -1 773 769 2 -1 774 770 769 -1 770 776 771 -1 776 772 771 -1 778 774 773 -1 779 775 774 -1 780 776 775 -1 781 777 776 -1 778 783 779 -1 783 780 779 -1 780 785 781 -1 785 782 781 -1 3 787 783 -1 783 788 784 -1 788 785 784 -1 789 786 785 -1 4 792 787 -1 792 788 787 -1 793 789 788 -1 789 795 790 -1 801 797 796 -1 802 798 797 -1 798 804 799 -1 804 800 799 -1 801 806 802 -1 806 803 802 -1 803 808 804 -1 808 805 804 -1 6 810 806 -1 806 811 807 -1 811 808 807 -1 812 809 808 -1 814 810 7 -1 815 811 810 -1 816 812 811 -1 817 813 812 -1 819 815 814 -1 820 816 815 -1 821 817 816 -1 817 823 818 -1 5 820 819 -1 820 825 821 -1 821 826 822 -1 822 827 823 -1 828 824 5 -1 829 825 824 -1 830 826 825 -1 826 832 827 -1 828 833 829 -1 833 830 829 -1 834 831 830 -1 831 836 832 -1 8 838 833 -1 833 839 834 -1 839 835 834 -1 840 836 835 -1 9 838 837 -1 842 839 838 -1 843 840 839 -1 844 841 840 -1 846 842 9 -1 847 843 842 -1 848 844 843 -1 849 845 844 -1 846 851 847 -1 851 848 847 -1 852 849 848 -1 853 850 849 -1 10 856 851 -1 851 857 852 -1 857 853 852 -1 858 854 853 -1 855 860 856 -1 860 857 856 -1 861 858 857 -1 862 859 858 -1 11 865 860 -1 865 861 860 -1 861 867 862 -1 867 863 862 -1 864 870 865 -1 870 866 865 -1 866 872 867 -1 867 873 868 -1 12 870 869 -1 874 871 870 -1 875 872 871 -1 876 873 872 -1 12 878 874 -1 878 875 874 -1 879 876 875 -1 880 877 876 -1 13 882 878 -1 882 879 878 -1 879 884 880 -1 884 881 880 -1 14 886 882 -1 886 883 882 -1 887 884 883 -1 888 885 884 -1 16 886 15 -1 886 891 887 -1 891 888 887 -1 892 889 888 -1 690 890 16 -1 691 891 890 -1 692 892 891 -1 693 893 892 -1 957 929 928 -1 970 916 915 -1 956 930 929 -1 969 917 916 -1 689 755 688 -1 755 687 688 -1 687 764 686 -1 764 685 686 -1 685 772 684 -1 772 683 684 -1 777 682 683 -1 682 786 681 -1 786 680 681 -1 790 679 680 -1 800 677 678 -1 805 676 677 -1 809 675 676 -1 813 674 675 -1 674 823 673 -1 823 672 673 -1 827 671 672 -1 832 670 671 -1 836 669 670 -1 841 668 669 -1 845 667 668 -1 667 854 666 -1 854 665 666 -1 859 664 665 -1 863 663 664 -1 868 662 663 -1 873 661 662 -1 877 660 661 -1 881 659 660 -1 659 889 658 -1 658 893 657 -1 657 694 656 -1 656 699 655 -1 655 704 654 -1 654 709 653 -1 653 714 652 -1 652 718 939 -1 939 722 940 -1 940 726 941 -1 941 731 942 -1 942 736 943 -1 943 741 944 -1 944 746 945 -1 945 750 689 -1 12 869 23 -1 25 1 760 -1 26 13 12 -1 27 2 1 -1 28 14 13 -1 29 773 2 -1 30 15 14 -1 32 778 773 -1 33 16 15 -1 34 801 796 -1 37 6 801 -1 35 3 778 -1 36 690 16 -1 38 4 3 -1 39 695 690 -1 40 7 6 -1 41 791 4 -1 700 695 39 -1 43 814 7 -1 705 700 42 -1 43 45 819 -1 710 705 44 -1 47 5 819 -1 17 710 46 -1 49 828 5 -1 18 17 48 -1 51 8 828 -1 19 18 50 -1 53 837 8 -1 727 19 52 -1 55 9 837 -1 56 732 727 -1 57 846 9 -1 58 737 732 -1 59 10 846 -1 60 742 737 -1 61 855 10 -1 62 20 742 -1 63 11 855 -1 64 751 20 -1 65 864 11 -1 21 0 751 -1 23 869 864 -1 369 471 426 -1 88 90 59 -1 115 114 112 -1 116 44 42 -1 80 81 83 -1 118 46 44 -1 81 80 78 -1 118 120 48 -1 97 96 94 -1 98 23 65 -1 74 75 77 -1 98 100 24 -1 98 96 97 -1 150 35 32 -1 102 100 101 -1 104 28 26 -1 94 92 93 -1 106 30 28 -1 92 90 91 -1 132 60 58 -1 332 328 376 -1 110 36 33 -1 86 87 89 -1 110 112 39 -1 110 108 109 -1 112 114 42 -1 84 82 83 -1 82 51 49 -1 107 106 104 -1 80 49 47 -1 102 103 105 -1 26 24 100 -1 121 120 118 -1 146 29 27 -1 101 100 98 -1 146 148 32 -1 122 120 121 -1 54 52 124 -1 126 124 125 -1 152 38 35 -1 118 116 117 -1 130 58 56 -1 116 114 115 -1 132 130 131 -1 86 88 57 -1 113 112 110 -1 134 132 133 -1 134 136 64 -1 139 138 136 -1 136 138 21 -1 140 22 21 -1 131 130 128 -1 142 25 22 -1 129 128 126 -1 142 144 27 -1 145 144 142 -1 52 50 122 -1 125 124 122 -1 74 76 45 -1 146 144 145 -1 150 148 149 -1 68 34 31 -1 63 61 92 -1 142 140 141 -1 154 41 38 -1 140 138 139 -1 108 33 30 -1 343 342 340 -1 137 136 134 -1 348 346 347 -1 354 356 288 -1 340 342 260 -1 157 156 160 -1 155 154 152 -1 356 357 359 -1 153 152 150 -1 61 59 90 -1 78 76 77 -1 78 47 45 -1 149 148 146 -1 338 339 341 -1 184 180 392 -1 74 43 40 -1 308 304 364 -1 65 63 94 -1 364 304 300 -1 336 337 339 -1 350 352 280 -1 70 72 40 -1 88 89 91 -1 203 207 209 -1 205 209 210 -1 210 137 135 -1 199 195 196 -1 211 213 209 -1 209 213 214 -1 214 139 137 -1 211 212 216 -1 191 195 197 -1 197 198 194 -1 218 141 139 -1 219 215 216 -1 193 189 187 -1 217 221 222 -1 143 141 218 -1 223 219 220 -1 271 273 269 -1 225 226 222 -1 145 143 222 -1 223 224 228 -1 223 227 229 -1 225 229 230 -1 147 145 226 -1 231 227 228 -1 158 159 156 -1 149 147 230 -1 233 234 230 -1 231 232 236 -1 233 231 235 -1 274 79 77 -1 273 274 270 -1 271 272 276 -1 219 221 217 -1 274 273 277 -1 151 238 242 -1 244 243 239 -1 215 217 213 -1 213 217 218 -1 155 153 242 -1 212 211 207 -1 282 281 285 -1 208 207 203 -1 50 48 120 -1 289 290 286 -1 287 283 284 -1 285 283 287 -1 289 293 294 -1 295 297 293 -1 247 248 252 -1 239 243 245 -1 245 246 242 -1 302 93 91 -1 255 251 252 -1 241 237 235 -1 301 305 306 -1 95 93 302 -1 307 303 304 -1 259 261 257 -1 258 257 261 -1 97 95 306 -1 259 260 264 -1 261 259 263 -1 309 313 314 -1 75 73 262 -1 267 263 264 -1 267 269 265 -1 269 270 266 -1 77 75 266 -1 260 259 255 -1 317 315 319 -1 189 190 186 -1 101 318 322 -1 187 188 192 -1 303 305 301 -1 325 326 322 -1 79 274 278 -1 280 279 275 -1 275 279 281 -1 249 253 254 -1 83 81 278 -1 285 281 279 -1 87 85 286 -1 165 169 170 -1 85 83 282 -1 135 133 202 -1 283 279 280 -1 201 197 195 -1 133 131 198 -1 198 197 201 -1 295 296 300 -1 162 165 156 -1 281 282 278 -1 190 127 125 -1 303 299 300 -1 271 275 277 -1 266 262 261 -1 127 190 194 -1 267 268 272 -1 307 309 305 -1 309 310 306 -1 166 115 113 -1 307 308 312 -1 307 311 313 -1 160 113 111 -1 177 181 182 -1 315 311 312 -1 315 317 313 -1 317 318 314 -1 101 99 314 -1 320 319 315 -1 223 225 221 -1 121 119 174 -1 321 322 318 -1 319 320 324 -1 319 323 325 -1 258 254 253 -1 103 322 326 -1 323 324 328 -1 299 301 297 -1 297 301 302 -1 170 117 115 -1 291 292 296 -1 333 329 327 -1 109 107 330 -1 298 294 293 -1 287 288 292 -1 287 291 293 -1 157 161 334 -1 111 109 334 -1 163 159 158 -1 333 331 158 -1 205 206 202 -1 326 330 107 -1 328 332 331 -1 330 329 333 -1 175 171 172 -1 323 327 329 -1 67 250 254 -1 329 330 326 -1 240 239 235 -1 253 251 255 -1 185 186 182 -1 254 258 71 -1 183 184 188 -1 185 183 187 -1 169 173 174 -1 149 234 238 -1 183 179 180 -1 231 233 229 -1 241 242 238 -1 182 186 125 -1 191 192 196 -1 185 181 179 -1 123 121 178 -1 190 189 193 -1 203 199 200 -1 177 175 179 -1 258 262 73 -1 177 178 174 -1 159 163 164 -1 167 169 165 -1 310 314 99 -1 156 165 166 -1 162 164 168 -1 249 247 251 -1 171 167 168 -1 131 129 194 -1 175 176 180 -1 173 171 175 -1 89 294 298 -1 68 66 67 -1 203 205 201 -1 234 233 237 -1 87 290 294 -1 332 335 158 -1 354 284 280 -1 385 384 382 -1 362 300 296 -1 363 362 360 -1 348 350 276 -1 344 342 343 -1 348 272 268 -1 367 366 364 -1 368 312 308 -1 350 348 349 -1 368 370 316 -1 56 54 126 -1 388 390 176 -1 372 370 371 -1 372 374 324 -1 368 366 367 -1 374 376 328 -1 376 374 375 -1 360 296 292 -1 378 376 377 -1 378 380 335 -1 380 378 379 -1 382 163 335 -1 382 380 381 -1 384 164 163 -1 386 168 164 -1 384 385 387 -1 192 188 396 -1 370 368 369 -1 320 316 370 -1 391 390 388 -1 392 180 176 -1 392 390 391 -1 416 418 232 -1 372 373 375 -1 188 184 394 -1 396 394 395 -1 388 172 168 -1 388 386 387 -1 398 400 196 -1 400 398 399 -1 402 400 401 -1 204 200 402 -1 404 402 403 -1 406 404 405 -1 406 208 204 -1 409 408 406 -1 402 200 196 -1 410 216 212 -1 411 410 408 -1 412 220 216 -1 394 392 393 -1 412 414 224 -1 415 414 412 -1 416 228 224 -1 398 396 397 -1 344 264 260 -1 412 410 411 -1 420 418 419 -1 108 106 107 -1 119 117 170 -1 416 414 415 -1 422 424 244 -1 424 422 423 -1 408 212 208 -1 340 256 252 -1 134 62 60 -1 86 84 85 -1 356 354 355 -1 84 53 51 -1 358 292 288 -1 352 350 351 -1 74 72 73 -1 418 416 417 -1 420 422 240 -1 86 55 53 -1 420 236 232 -1 422 420 421 -1 344 346 268 -1 344 345 347 -1 354 352 353 -1 73 72 70 -1 364 362 363 -1 70 68 69 -1 70 37 34 -1 338 252 248 -1 358 359 361 -1 582 411 409 -1 413 411 582 -1 371 426 428 -1 413 427 429 -1 373 428 458 -1 417 415 429 -1 375 458 430 -1 419 417 569 -1 337 546 431 -1 377 430 432 -1 419 564 433 -1 379 432 651 -1 339 431 537 -1 421 433 434 -1 381 651 646 -1 341 537 435 -1 425 423 434 -1 436 385 383 -1 343 435 437 -1 637 387 385 -1 345 437 524 -1 438 389 387 -1 347 524 519 -1 439 391 389 -1 351 349 519 -1 439 624 393 -1 351 514 440 -1 619 395 393 -1 353 440 505 -1 614 397 395 -1 355 505 500 -1 397 614 441 -1 357 500 495 -1 399 441 442 -1 359 495 490 -1 403 401 442 -1 361 490 443 -1 405 403 601 -1 363 443 481 -1 407 405 444 -1 365 481 476 -1 407 592 587 -1 367 476 471 -1 971 970 915 -1 446 647 651 -1 447 648 647 -1 649 648 447 -1 650 649 448 -1 450 446 432 -1 447 446 450 -1 448 447 451 -1 449 448 452 -1 454 450 430 -1 455 451 450 -1 456 452 451 -1 457 453 452 -1 454 458 428 -1 460 455 454 -1 456 455 460 -1 462 457 456 -1 459 428 426 -1 460 459 463 -1 461 460 464 -1 466 462 461 -1 467 463 426 -1 468 464 463 -1 469 465 464 -1 466 465 469 -1 467 471 476 -1 473 468 467 -1 469 468 473 -1 470 469 474 -1 472 476 481 -1 478 473 472 -1 474 473 478 -1 480 475 474 -1 482 477 481 -1 478 477 482 -1 479 478 483 -1 485 480 479 -1 486 482 443 -1 483 482 486 -1 484 483 487 -1 485 484 488 -1 486 490 495 -1 487 486 491 -1 493 488 487 -1 489 488 493 -1 491 495 500 -1 492 491 496 -1 498 493 492 -1 494 493 498 -1 496 500 505 -1 502 497 496 -1 498 497 502 -1 499 498 503 -1 501 505 440 -1 502 501 506 -1 503 502 507 -1 509 504 503 -1 506 440 514 -1 511 507 506 -1 508 507 511 -1 509 508 512 -1 515 510 514 -1 511 510 515 -1 517 512 511 -1 513 512 517 -1 520 515 519 -1 516 515 520 -1 517 516 521 -1 518 517 522 -1 520 524 437 -1 521 520 525 -1 522 521 526 -1 523 522 527 -1 525 437 435 -1 530 526 525 -1 531 527 526 -1 528 527 531 -1 533 529 435 -1 530 529 533 -1 535 531 530 -1 532 531 535 -1 533 537 431 -1 534 533 538 -1 535 534 539 -1 536 535 540 -1 538 431 546 -1 543 539 538 -1 540 539 543 -1 541 540 544 -1 547 551 434 -1 548 547 552 -1 549 548 553 -1 550 549 554 -1 552 434 433 -1 553 552 556 -1 554 553 557 -1 559 555 554 -1 556 433 564 -1 561 557 556 -1 562 558 557 -1 559 558 562 -1 560 564 569 -1 561 560 565 -1 562 561 566 -1 563 562 567 -1 570 565 569 -1 571 566 565 -1 567 566 571 -1 568 567 572 -1 570 429 427 -1 571 570 574 -1 576 572 571 -1 573 572 576 -1 574 427 582 -1 575 574 578 -1 576 575 579 -1 577 576 580 -1 583 578 582 -1 579 578 583 -1 580 579 584 -1 581 580 585 -1 583 587 592 -1 584 583 588 -1 590 585 584 -1 586 585 590 -1 588 592 444 -1 594 589 588 -1 590 589 594 -1 596 591 590 -1 593 444 601 -1 594 593 597 -1 595 594 598 -1 596 595 599 -1 597 601 442 -1 598 597 602 -1 599 598 603 -1 600 599 604 -1 602 442 441 -1 607 603 602 -1 604 603 607 -1 605 604 608 -1 606 441 614 -1 607 606 610 -1 612 608 607 -1 609 608 612 -1 615 610 614 -1 616 611 610 -1 612 611 616 -1 613 612 617 -1 620 615 619 -1 621 616 615 -1 622 617 616 -1 623 618 617 -1 620 624 439 -1 621 620 625 -1 622 621 626 -1 628 623 622 -1 629 625 439 -1 626 625 629 -1 627 626 630 -1 628 627 631 -1 633 629 438 -1 634 630 629 -1 631 630 634 -1 632 631 635 -1 633 637 436 -1 639 634 633 -1 635 634 639 -1 636 635 640 -1 638 436 646 -1 643 639 638 -1 644 640 639 -1 641 640 644 -1 642 646 651 -1 648 643 642 -1 644 643 648 -1 645 644 649 -1 972 971 914 -1 982 981 904 -1 983 982 903 -1 973 972 913 -1 960 959 926 -1 984 983 902 -1 947 946 894 -1 974 973 912 -1 961 960 925 -1 985 984 901 -1 948 947 938 -1 975 974 911 -1 962 961 924 -1 986 985 900 -1 949 948 937 -1 976 975 910 -1 963 962 923 -1 987 986 899 -1 950 949 936 -1 977 976 909 -1 964 963 922 -1 988 987 898 -1 951 950 935 -1 965 964 921 -1 978 977 908 -1 952 951 934 -1 989 988 897 -1 966 965 920 -1 979 978 907 -1 953 952 933 -1 990 989 896 -1 967 966 919 -1 980 979 906 -1 954 953 932 -1 946 990 895 -1 968 967 918 -1 955 954 931 -1 958 957 928 -1 959 958 927 -1 171 173 169 -1 760 0 21 -1 695 696 691 -1 696 697 692 -1 697 698 693 -1 698 699 694 -1 695 700 701 -1 701 702 697 -1 702 703 698 -1 703 704 699 -1 705 706 701 -1 706 707 702 -1 707 708 703 -1 703 708 709 -1 710 711 706 -1 711 712 707 -1 712 713 708 -1 713 714 709 -1 710 17 715 -1 715 716 712 -1 712 716 717 -1 713 717 718 -1 17 18 719 -1 715 719 720 -1 716 720 721 -1 717 721 722 -1 18 19 723 -1 719 723 724 -1 724 725 721 -1 725 726 722 -1 19 727 728 -1 728 729 724 -1 729 730 725 -1 730 731 726 -1 732 733 728 -1 733 734 729 -1 734 735 730 -1 735 736 731 -1 737 738 733 -1 738 739 734 -1 739 740 735 -1 740 741 736 -1 742 743 738 -1 743 744 739 -1 739 744 745 -1 745 746 741 -1 742 20 747 -1 747 748 744 -1 744 748 749 -1 749 750 746 -1 20 751 752 -1 752 753 748 -1 748 753 754 -1 754 755 750 -1 751 0 756 -1 756 757 753 -1 757 758 754 -1 758 759 755 -1 0 760 761 -1 756 761 762 -1 762 763 758 -1 763 764 759 -1 760 1 765 -1 765 766 762 -1 762 766 767 -1 767 768 764 -1 1 2 769 -1 765 769 770 -1 770 771 767 -1 771 772 768 -1 773 774 769 -1 774 775 770 -1 770 775 776 -1 776 777 772 -1 778 779 774 -1 779 780 775 -1 780 781 776 -1 781 782 777 -1 778 3 783 -1 783 784 780 -1 780 784 785 -1 785 786 782 -1 3 4 787 -1 783 787 788 -1 788 789 785 -1 789 790 786 -1 4 791 792 -1 792 793 788 -1 793 794 789 -1 789 794 795 -1 801 802 797 -1 802 803 798 -1 798 803 804 -1 804 805 800 -1 801 6 806 -1 806 807 803 -1 803 807 808 -1 808 809 805 -1 6 7 810 -1 806 810 811 -1 811 812 808 -1 812 813 809 -1 814 815 810 -1 815 816 811 -1 816 817 812 -1 817 818 813 -1 819 820 815 -1 820 821 816 -1 821 822 817 -1 817 822 823 -1 5 824 820 -1 820 824 825 -1 821 825 826 -1 822 826 827 -1 828 829 824 -1 829 830 825 -1 830 831 826 -1 826 831 832 -1 828 8 833 -1 833 834 830 -1 834 835 831 -1 831 835 836 -1 8 837 838 -1 833 838 839 -1 839 840 835 -1 840 841 836 -1 9 842 838 -1 842 843 839 -1 843 844 840 -1 844 845 841 -1 846 847 842 -1 847 848 843 -1 848 849 844 -1 849 850 845 -1 846 10 851 -1 851 852 848 -1 852 853 849 -1 853 854 850 -1 10 855 856 -1 851 856 857 -1 857 858 853 -1 858 859 854 -1 855 11 860 -1 860 861 857 -1 861 862 858 -1 862 863 859 -1 11 864 865 -1 865 866 861 -1 861 866 867 -1 867 868 863 -1 864 869 870 -1 870 871 866 -1 866 871 872 -1 867 872 873 -1 12 874 870 -1 874 875 871 -1 875 876 872 -1 876 877 873 -1 12 13 878 -1 878 879 875 -1 879 880 876 -1 880 881 877 -1 13 14 882 -1 882 883 879 -1 879 883 884 -1 884 885 881 -1 14 15 886 -1 886 887 883 -1 887 888 884 -1 888 889 885 -1 16 890 886 -1 886 890 891 -1 891 892 888 -1 892 893 889 -1 690 691 890 -1 691 692 891 -1 692 693 892 -1 693 694 893 -1 957 956 929 -1 970 969 916 -1 956 955 930 -1 969 968 917 -1 689 750 755 -1 755 759 687 -1 687 759 764 -1 764 768 685 -1 685 768 772 -1 772 777 683 -1 777 782 682 -1 682 782 786 -1 786 790 680 -1 790 795 679 -1 800 805 677 -1 805 809 676 -1 809 813 675 -1 813 818 674 -1 674 818 823 -1 823 827 672 -1 827 832 671 -1 832 836 670 -1 836 841 669 -1 841 845 668 -1 845 850 667 -1 667 850 854 -1 854 859 665 -1 859 863 664 -1 863 868 663 -1 868 873 662 -1 873 877 661 -1 877 881 660 -1 881 885 659 -1 659 885 889 -1 658 889 893 -1 657 893 694 -1 656 694 699 -1 655 699 704 -1 654 704 709 -1 653 709 714 -1 652 714 718 -1 939 718 722 -1 940 722 726 -1 941 726 731 -1 942 731 736 -1 943 736 741 -1 944 741 746 -1 945 746 750 -1 ]
    }
}

# C-35-45-10 Pins
Shape {
    appearance Appearance {
        material USE Tin
    }
    geometry IndexedFaceSet {
        coord Coordinate {
            point [ 1.653522 0.078739 -1.377935 2.125957 0.078739 -1.968479 1.811000 0.078739 -1.968479 2.283435 0.078739 -1.377935 1.653522 0.078739 0.000000 2.283435 0.078739 0.000000 1.653522 -0.078739 0.000000 2.283435 -0.078739 0.000000 1.653522 -0.078739 -1.377935 1.811000 -0.078739 -1.968479 2.125957 -0.078739 -1.968479 2.283435 -0.078739 -1.377935 -2.125957 0.078739 -1.968479 -1.653522 0.078739 -1.377935 -1.811000 0.078739 -1.968479 -2.283435 0.078739 -1.377935 -2.283435 0.078739 0.000000 -1.653522 0.078739 0.000000 -1.653522 -0.078739 0.000000 -2.283435 -0.078739 0.000000 -1.653522 -0.078739 -1.377935 -1.811000 -0.078739 -1.968479 -2.125957 -0.078739 -1.968479 -2.283435 -0.078739 -1.377935 1.653522 0.078739 -1.377935 1.811000 0.078739 -1.968479 1.811000 0.078739 -1.968479 2.125957 0.078739 -1.968479 2.125957 0.078739 -1.968479 2.283435 0.078739 -1.377935 2.283435 0.078739 0.000000 1.653522 0.078739 0.000000 1.653522 -0.078739 0.000000 1.653522 -0.078739 -1.377935 1.811000 -0.078739 -1.968479 1.811000 -0.078739 -1.968479 2.125957 -0.078739 -1.968479 2.125957 -0.078739 -1.968479 2.283435 -0.078739 -1.377935 2.283435 -0.078739 0.000000 -2.125957 0.078739 -1.968479 -2.125957 0.078739 -1.968479 -1.811000 0.078739 -1.968479 -1.811000 0.078739 -1.968479 -1.653522 0.078739 -1.377935 -2.283435 0.078739 -1.377935 -2.283435 0.078739 0.000000 -1.653522 0.078739 0.000000 -1.653522 -0.078739 0.000000 -1.653522 -0.078739 -1.377935 -1.811000 -0.078739 -1.968479 -1.811000 -0.078739 -1.968479 -2.125957 -0.078739 -1.968479 -2.125957 -0.078739 -1.968479 -2.283435 -0.078739 -1.377935 -2.283435 -0.078739 0.000000 ]
        }
        coordIndex [ 8 36 11 -1 4 33 32 -1 33 25 34 -1 27 9 26 -1 10 3 38 -1 39 3 5 -1 11 6 8 -1 44 40 45 -1 44 46 47 -1 23 51 20 -1 48 13 17 -1 50 13 49 -1 14 52 41 -1 54 12 22 -1 16 54 19 -1 23 18 55 -1 29 2 0 -1 0 30 29 -1 8 35 36 -1 4 24 33 -1 33 24 25 -1 27 37 9 -1 10 28 3 -1 39 38 3 -1 11 7 6 -1 44 42 40 -1 44 45 46 -1 23 53 51 -1 48 49 13 -1 50 43 13 -1 14 21 52 -1 54 15 12 -1 16 15 54 -1 23 20 18 -1 29 1 2 -1 0 31 30 -1 ]
    }
}

# C-35-45-10 Marking
Shape {
    appearance Appearance {
        material USE PlasticWhite
    }
    geometry IndexedFaceSet {
        coord Coordinate {
            point [ -6.830733 -0.899283 17.322611 -6.889675 0.000000 17.322611 -6.889675 0.000000 2.294627 -6.830733 -0.899283 2.294627 -6.654915 -1.783179 2.294627 -6.654915 1.783179 2.294627 -6.830733 0.899283 2.294627 -6.859707 0.000000 2.143966 -6.774364 0.000000 2.016242 -6.716409 -0.884232 2.016242 -6.716409 0.884232 2.016242 -6.801021 -0.895371 2.143966 -6.625968 -1.775423 2.143966 -6.543533 -1.753335 2.016242 -6.625968 1.775423 2.143966 -6.543533 1.753335 2.016242 -6.801021 0.895371 2.143966 -6.716409 -0.884232 1.459472 -6.453492 1.729208 1.607828 -6.543533 1.753335 1.459472 -6.434542 1.724130 1.781937 -6.490440 1.739108 1.947316 -6.623989 0.872065 1.607828 -6.681146 0.000000 1.607828 -6.716409 0.884232 1.459472 -6.604538 0.869504 1.781937 -6.661529 0.000000 1.781937 -6.719398 0.000000 1.947316 -6.661912 0.877057 1.947316 -6.623989 -0.872065 1.607828 -6.604538 -0.869504 1.781937 -6.661912 -0.877057 1.947316 -6.453492 -1.729208 1.607828 -6.543533 -1.753335 1.459472 -6.434542 -1.724130 1.781937 -6.490440 -1.739108 1.947316 -6.774364 0.000000 1.459472 -6.889675 0.000000 1.181087 -6.830733 -0.899283 1.181087 -6.830733 0.899283 1.181087 -6.801021 -0.895371 1.331748 -6.859707 0.000000 1.331748 -6.625968 -1.775423 1.331748 -6.654915 -1.783179 1.181087 -6.625968 1.775423 1.331748 -6.654915 1.783179 1.181087 -6.801021 0.895371 1.331748 -6.889675 0.000000 0.393696 -6.830733 -0.899283 0.393696 -6.830733 0.899283 0.393696 -0.000001 0.000000 0.000000 -6.625968 -1.775422 0.243035 -6.543534 -1.753334 0.115311 -6.420162 -1.720276 0.029968 -6.274634 -1.681282 0.000000 -6.654916 -1.783178 0.393696 -6.801021 -0.895372 0.243035 -6.716409 -0.884233 0.115311 -6.589777 -0.867561 0.029968 -6.440405 -0.847896 0.000000 -6.859707 0.000001 0.243035 -6.774364 0.000001 0.115311 -6.646640 0.000001 0.029968 -6.495979 0.000001 0.000000 -6.801021 0.895372 0.243035 -6.716409 0.884233 0.115311 -6.589777 0.867561 0.029968 -6.440405 0.847896 0.000000 -6.625968 1.775422 0.243035 -6.543534 1.753334 0.115311 -6.420162 1.720276 0.029968 -6.274634 1.681282 0.000000 -6.654916 1.783178 0.393696 -4.753511 -1.273698 17.716307 -4.879095 -0.642344 17.716307 -4.921196 0.000001 17.716307 -4.879095 0.642346 17.716307 -4.753510 1.273700 17.716307 -6.654916 1.783178 17.322611 -6.625968 1.775422 17.473272 -6.543534 1.753334 17.600996 -6.420162 1.720276 17.686340 -6.274634 1.681282 17.716307 -6.830733 0.899284 17.322611 -6.801021 0.895372 17.473272 -6.716409 0.884233 17.600996 -6.589777 0.867561 17.686340 -6.440405 0.847896 17.716307 -6.859707 0.000001 17.473272 -6.774364 0.000001 17.600996 -6.646640 0.000001 17.686340 -6.495979 0.000001 17.716307 -6.801021 -0.895372 17.473272 -6.716409 -0.884233 17.600996 -6.589777 -0.867561 17.686340 -6.440405 -0.847896 17.716307 -6.654916 -1.783178 17.322611 -6.625968 -1.775422 17.473272 -6.543534 -1.753334 17.600996 -6.420162 -1.720276 17.686340 -6.274634 -1.681282 17.716307 -4.753510 1.273700 17.637568 -4.879095 0.642346 17.637568 -4.921196 0.000001 17.637568 -4.879095 -0.642344 17.637568 -4.753511 -1.273698 17.637568 -4.753511 -1.273698 17.716307 -4.879095 -0.642344 17.716307 -4.921196 0.000001 17.716307 -4.879095 0.642346 17.716307 -4.753510 1.273700 17.716307 ]
        }
        coordIndex [ 3 1 2 -1 4 0 3 -1 6 78 5 -1 2 83 6 -1 6 7 2 -1 40 37 38 -1 46 36 24 -1 16 5 14 -1 16 15 10 -1 40 36 41 -1 11 4 3 -1 25 18 22 -1 10 21 28 -1 8 28 27 -1 31 8 27 -1 19 22 18 -1 30 35 31 -1 35 9 31 -1 29 33 32 -1 30 23 29 -1 31 26 30 -1 24 23 22 -1 30 32 34 -1 25 21 20 -1 41 39 37 -1 7 9 11 -1 43 40 38 -1 24 44 46 -1 46 45 39 -1 13 11 9 -1 25 23 26 -1 42 17 40 -1 37 48 38 -1 55 38 48 -1 39 72 49 -1 39 47 37 -1 10 7 16 -1 7 3 2 -1 23 17 29 -1 28 26 27 -1 67 71 50 -1 54 59 50 -1 59 63 50 -1 63 67 50 -1 56 55 48 -1 52 56 57 -1 58 52 57 -1 54 58 59 -1 60 48 47 -1 61 56 60 -1 58 61 62 -1 63 58 62 -1 60 49 64 -1 61 64 65 -1 62 65 66 -1 63 66 67 -1 64 72 68 -1 65 68 69 -1 66 69 70 -1 67 70 71 -1 107 105 104 -1 78 84 79 -1 84 80 79 -1 85 81 80 -1 86 82 81 -1 83 88 84 -1 84 89 85 -1 89 86 85 -1 86 91 87 -1 0 88 1 -1 92 89 88 -1 93 90 89 -1 94 91 90 -1 96 92 0 -1 97 93 92 -1 98 94 93 -1 99 95 94 -1 110 102 101 -1 109 103 102 -1 108 104 103 -1 82 76 77 -1 87 75 76 -1 91 74 75 -1 95 73 74 -1 3 0 1 -1 4 96 0 -1 6 83 78 -1 2 1 83 -1 6 16 7 -1 40 41 37 -1 46 41 36 -1 16 6 5 -1 16 14 15 -1 40 17 36 -1 11 12 4 -1 25 20 18 -1 10 15 21 -1 8 10 28 -1 31 9 8 -1 19 24 22 -1 30 34 35 -1 35 13 9 -1 29 17 33 -1 30 26 23 -1 31 27 26 -1 24 36 23 -1 30 29 32 -1 25 28 21 -1 41 46 39 -1 7 8 9 -1 43 42 40 -1 24 19 44 -1 46 44 45 -1 13 12 11 -1 25 22 23 -1 42 33 17 -1 37 47 48 -1 55 43 38 -1 39 45 72 -1 39 49 47 -1 10 8 7 -1 7 11 3 -1 23 36 17 -1 28 25 26 -1 56 51 55 -1 52 51 56 -1 58 53 52 -1 54 53 58 -1 60 56 48 -1 61 57 56 -1 58 57 61 -1 63 59 58 -1 60 47 49 -1 61 60 64 -1 62 61 65 -1 63 62 66 -1 64 49 72 -1 65 64 68 -1 66 65 69 -1 67 66 70 -1 107 106 105 -1 78 83 84 -1 84 85 80 -1 85 86 81 -1 86 87 82 -1 83 1 88 -1 84 88 89 -1 89 90 86 -1 86 90 91 -1 0 92 88 -1 92 93 89 -1 93 94 90 -1 94 95 91 -1 96 97 92 -1 97 98 93 -1 98 99 94 -1 99 100 95 -1 110 109 102 -1 109 108 103 -1 108 107 104 -1 82 87 76 -1 87 91 75 -1 91 95 74 -1 95 100 73 -1 ]
    }
}

# C-35-45-10 Top
Shape {
    appearance Appearance {
        material USE PlasticBlackRough
    }
    geometry IndexedFaceSet {
        coord Coordinate {
            point [ -0.000002 0.000001 17.637575 0.000000 4.921196 17.637568 -0.642345 4.879095 17.637568 -1.273699 4.753510 17.637568 -1.883260 4.546592 17.637568 -2.460598 4.261881 17.637568 -2.995835 3.904248 17.637568 -3.479811 3.479812 17.637568 -3.904248 2.995835 17.637568 -4.261881 2.460598 17.637568 -4.546592 1.883261 17.637568 -4.753510 1.273700 17.637568 -4.879095 0.642346 17.637568 -4.921196 0.000001 17.637568 -4.879095 -0.642344 17.637568 -4.753511 -1.273698 17.637568 -4.546593 -1.883259 17.637568 -4.261882 -2.460598 17.637568 -3.904248 -2.995834 17.637568 -3.479812 -3.479810 17.637568 -2.995835 -3.904247 17.637568 -2.460599 -4.261880 17.637568 -1.883262 -4.546592 17.637568 -1.273701 -4.753510 17.637568 -0.642347 -4.879095 17.637568 -0.000002 -4.921196 17.637568 0.642343 -4.879095 17.637568 1.273697 -4.753511 17.637568 1.883258 -4.546594 17.637568 2.460596 -4.261882 17.637568 2.995833 -3.904249 17.637568 3.479810 -3.479813 17.637568 3.904246 -2.995837 17.637568 4.261880 -2.460600 17.637568 4.546592 -1.883261 17.637568 4.753511 -1.273699 17.637568 4.879095 -0.642344 17.637568 4.921196 0.000002 17.637568 4.879095 0.642348 17.637568 4.753510 1.273704 17.637568 4.546590 1.883265 17.637568 4.261878 2.460604 17.637568 3.904243 2.995841 17.637568 3.479805 3.479817 17.637568 2.995827 3.904254 17.637568 2.460589 4.261887 17.637568 1.883250 4.546597 17.637568 1.273687 4.753514 17.637568 0.642331 4.879097 17.637568 ]
        }
        coordIndex [ 17 0 16 -1 30 0 29 -1 48 0 47 -1 11 0 10 -1 20 0 19 -1 18 0 17 -1 32 0 31 -1 38 0 37 -1 4 0 3 -1 7 0 6 -1 43 0 42 -1 19 0 18 -1 8 0 7 -1 34 0 33 -1 36 0 35 -1 1 0 48 -1 29 0 28 -1 46 0 45 -1 21 0 20 -1 35 0 34 -1 15 0 14 -1 5 0 4 -1 24 0 23 -1 31 0 30 -1 22 0 21 -1 10 0 9 -1 3 0 2 -1 47 0 46 -1 33 0 32 -1 25 0 24 -1 9 0 8 -1 2 0 1 -1 41 0 40 -1 44 0 43 -1 37 0 36 -1 45 0 44 -1 42 0 41 -1 23 0 22 -1 16 0 15 -1 6 0 5 -1 28 0 27 -1 12 0 11 -1 39 0 38 -1 26 0 25 -1 13 0 12 -1 40 0 39 -1 27 0 26 -1 14 0 13 -1 ]
    }
}
