#VRML V2.0 utf8

DEF PlasticBlackShiny Material {
    ambientIntensity 0.314
    diffuseColor 0.016 0.015 0.014
    specularColor 0.791 0.784 0.770
    emissiveColor 0.0 0.0 0.0
    shininess 0.6
    transparency 0.0
}

DEF Tin Material {
    ambientIntensity 0.271
    diffuseColor 0.824 0.820 0.781
    specularColor 0.328 0.258 0.172
    emissiveColor 0.0 0.0 0.0
    shininess 0.70
    transparency 0.0
}

DEF PlasticWhite Material {
    ambientIntensity 0.494
    diffuseColor 0.895 0.891 0.813
    specularColor 0.047 0.055 0.109
    emissiveColor 0.0 0.0 0.0
    shininess 0.25
    transparency 0.0
}


# C-8-15-3.5 Body
Shape {
    appearance Appearance {
        material USE PlasticBlackShiny
    }
    geometry IndexedFaceSet {
        coord Coordinate {
            point [ -1.417324 0.000000 0.000000 -1.390090 -0.276506 0.000000 -1.454929 -0.602651 0.157480 -1.435437 -0.594577 0.078740 -1.382183 -0.572519 0.021098 -1.309436 -0.542386 0.000000 -1.309436 -0.542386 5.905515 -1.382183 -0.572519 5.884417 -1.435437 -0.594577 5.826775 -1.454929 -0.602651 5.748034 -1.372020 -0.568309 1.231701 -1.417004 -0.586942 1.295156 -1.445282 -0.598656 1.369051 -1.454928 -0.602651 1.448350 -1.454929 -0.602652 0.708661 -1.343741 -0.556596 0.999209 -1.334096 -0.552601 1.078508 -1.343741 -0.556596 1.157807 -1.445284 -0.598656 0.787960 -1.417006 -0.586943 0.861855 -1.372021 -0.568310 0.925310 -0.909331 -0.376657 5.826775 -0.909331 -0.376657 5.905515 -1.309402 -0.874914 0.157480 -1.291859 -0.863193 0.078740 -1.243932 -0.831169 0.021098 -1.178461 -0.787423 0.000000 -1.178461 -0.787423 5.905515 -1.243932 -0.831169 5.884417 -1.291859 -0.863193 5.826775 -1.309402 -0.874914 5.748034 -1.234785 -0.825057 1.231701 -1.275270 -0.852108 1.295156 -1.300720 -0.869113 1.369051 -1.309400 -0.874913 1.448350 -1.309402 -0.874914 0.708661 -1.209335 -0.808052 0.999209 -1.200654 -0.802252 1.078508 -1.209335 -0.808052 1.157807 -1.300721 -0.869114 0.787960 -1.275271 -0.852109 0.861855 -1.234787 -0.825058 0.925310 -0.818376 -0.546821 5.826775 -0.818376 -0.546821 5.905515 -1.113554 -1.113554 0.157480 -1.098636 -1.098636 0.078740 -1.057877 -1.057877 0.021098 -1.002199 -1.002199 0.000000 -1.002199 -1.002199 5.905515 -1.057877 -1.057877 5.884417 -1.098636 -1.098636 5.826775 -1.113554 -1.113554 5.748034 -1.050098 -1.050098 1.231701 -1.084528 -1.084528 1.295156 -1.106171 -1.106171 1.369051 -1.113554 -1.113554 1.448350 -1.113555 -1.113555 0.708661 -1.028455 -1.028455 0.999209 -1.021073 -1.021073 1.078508 -1.028455 -1.028455 1.157807 -1.106173 -1.106173 0.787960 -1.084529 -1.084529 0.861855 -1.050100 -1.050100 0.925310 -0.695972 -0.695972 5.826775 -0.695972 -0.695972 5.905515 -0.874914 -1.309402 0.157480 -0.863192 -1.291859 0.078740 -0.831168 -1.243932 0.021098 -0.787423 -1.178462 0.000000 -0.787423 -1.178462 5.905515 -0.831168 -1.243932 5.884417 -0.863192 -1.291859 5.826775 -0.874914 -1.309402 5.748034 -0.825057 -1.234785 1.231701 -0.852108 -1.275270 1.295156 -0.869113 -1.300720 1.369051 -0.874913 -1.309400 1.448350 -0.874914 -1.309402 0.708661 -0.808052 -1.209335 0.999209 -0.802252 -1.200654 1.078508 -0.808052 -1.209335 1.157807 -0.869114 -1.300722 0.787960 -0.852109 -1.275271 0.861855 -0.825058 -1.234787 0.925310 -0.546821 -0.818376 5.826775 -0.546821 -0.818376 5.905515 -0.602651 -1.454929 0.157480 -0.594577 -1.435437 0.078740 -0.572519 -1.382183 0.021098 -0.542386 -1.309436 0.000000 -0.542386 -1.309436 5.905515 -0.572519 -1.382183 5.884417 -0.594577 -1.435437 5.826775 -0.602651 -1.454929 5.748034 -0.568309 -1.372020 1.231701 -0.586942 -1.417004 1.295156 -0.598656 -1.445282 1.369051 -0.602651 -1.454928 1.448350 -0.602652 -1.454929 0.708661 -0.556596 -1.343741 0.999209 -0.552601 -1.334096 1.078508 -0.556596 -1.343741 1.157807 -0.598656 -1.445284 0.787960 -0.586943 -1.417006 0.861855 -0.568310 -1.372021 0.925310 -0.376657 -0.909331 5.826775 -0.376657 -0.909331 5.905515 -0.307229 -1.544545 0.157480 -0.303113 -1.523852 0.078740 -0.291867 -1.467317 0.021098 -0.276506 -1.390090 0.000000 -0.276506 -1.390090 5.905515 -0.291867 -1.467317 5.884417 -0.303113 -1.523852 5.826775 -0.307229 -1.544545 5.748034 -0.289721 -1.456528 1.231701 -0.299220 -1.504283 1.295156 -0.305192 -1.534304 1.369051 -0.307229 -1.544543 1.448350 -0.307229 -1.544545 0.708661 -0.283750 -1.426508 0.999209 -0.281713 -1.416268 1.078508 -0.283750 -1.426508 1.157807 -0.305192 -1.534306 0.787960 -0.299221 -1.504285 0.861855 -0.289722 -1.456530 0.925310 -0.192018 -0.965340 5.826775 -0.192018 -0.965340 5.905515 0.000000 -1.574804 0.157480 0.000000 -1.553706 0.078740 0.000000 -1.496064 0.021098 0.000000 -1.417324 0.000000 0.000000 -1.417324 5.905515 0.000000 -1.496064 5.884417 0.000000 -1.553706 5.826775 0.000000 -1.574804 5.748034 0.000000 -1.485063 1.231701 0.000000 -1.533754 1.295156 0.000000 -1.564363 1.369051 0.000000 -1.574802 1.448350 0.000000 -1.574804 0.708661 0.000000 -1.454455 0.999209 0.000000 -1.444015 1.078508 0.000000 -1.454455 1.157807 0.000000 -1.564364 0.787960 0.000000 -1.533756 0.861855 0.000000 -1.485065 0.925310 0.000000 -0.984252 5.826775 0.000000 -0.984252 5.905515 0.307229 -1.544544 0.157480 0.303113 -1.523852 0.078740 0.291868 -1.467317 0.021098 0.276506 -1.390090 0.000000 0.276506 -1.390090 5.905515 0.291868 -1.467317 5.884417 0.303113 -1.523852 5.826775 0.307229 -1.544544 5.748034 0.289722 -1.456528 1.231701 0.299221 -1.504283 1.295156 0.305192 -1.534304 1.369051 0.307229 -1.544543 1.448350 0.307229 -1.544545 0.708661 0.283750 -1.426508 0.999209 0.281713 -1.416268 1.078508 0.283750 -1.426508 1.157807 0.305192 -1.534305 0.787960 0.299221 -1.504285 0.861855 0.289722 -1.456530 0.925310 0.192018 -0.965340 5.826775 0.192018 -0.965340 5.905515 0.602652 -1.454929 0.157480 0.594577 -1.435437 0.078740 0.572519 -1.382183 0.021098 0.542386 -1.309436 0.000000 0.542386 -1.309436 5.905515 0.572519 -1.382183 5.884417 0.594577 -1.435437 5.826775 0.602652 -1.454929 5.748034 0.568309 -1.372020 1.231701 0.586942 -1.417004 1.295156 0.598656 -1.445282 1.369051 0.602651 -1.454928 1.448350 0.602652 -1.454929 0.708661 0.556596 -1.343741 0.999209 0.552601 -1.334096 1.078508 0.556596 -1.343741 1.157807 0.598656 -1.445284 0.787960 0.586943 -1.417006 0.861855 0.568310 -1.372021 0.925310 0.376657 -0.909331 5.826775 0.376657 -0.909331 5.905515 0.874914 -1.309402 0.157480 0.863193 -1.291859 0.078740 0.831169 -1.243931 0.021098 0.787423 -1.178461 0.000000 0.787423 -1.178461 5.905515 0.831169 -1.243931 5.884417 0.863193 -1.291859 5.826775 0.874914 -1.309402 5.748034 0.825057 -1.234785 1.231701 0.852108 -1.275270 1.295156 0.869113 -1.300720 1.369051 0.874914 -1.309400 1.448350 0.874915 -1.309402 0.708661 0.808052 -1.209335 0.999209 0.802252 -1.200654 1.078508 0.808052 -1.209335 1.157807 0.869114 -1.300721 0.787960 0.852109 -1.275271 0.861855 0.825058 -1.234786 0.925310 0.546821 -0.818376 5.826775 0.546821 -0.818376 5.905515 1.113554 -1.113554 0.157480 1.098636 -1.098636 0.078740 1.057877 -1.057877 0.021098 1.002199 -1.002199 0.000000 1.002199 -1.002199 5.905515 1.057877 -1.057877 5.884417 1.098636 -1.098636 5.826775 1.113554 -1.113554 5.748034 1.050098 -1.050098 1.231701 1.084528 -1.084528 1.295156 1.106171 -1.106171 1.369051 1.113554 -1.113554 1.448350 1.113555 -1.113555 0.708661 1.028455 -1.028455 0.999209 1.021073 -1.021073 1.078508 1.028455 -1.028455 1.157807 1.106173 -1.106173 0.787960 1.084529 -1.084529 0.861855 1.050100 -1.050100 0.925310 0.695972 -0.695972 5.826775 0.695972 -0.695972 5.905515 1.309402 -0.874914 0.157480 1.291859 -0.863192 0.078740 1.243932 -0.831168 0.021098 1.178462 -0.787423 0.000000 1.178462 -0.787423 5.905515 1.243932 -0.831168 5.884417 1.291859 -0.863192 5.826775 1.309402 -0.874914 5.748034 1.234785 -0.825057 1.231701 1.275270 -0.852108 1.295156 1.300720 -0.869113 1.369051 1.309400 -0.874913 1.448350 1.309402 -0.874914 0.708661 1.209335 -0.808052 0.999209 1.200654 -0.802252 1.078508 1.209335 -0.808052 1.157807 1.300722 -0.869114 0.787960 1.275271 -0.852109 0.861855 1.234787 -0.825058 0.925310 0.818376 -0.546821 5.826775 0.818376 -0.546821 5.905515 1.454929 -0.602651 0.157480 1.435437 -0.594577 0.078740 1.382183 -0.572519 0.021098 1.309436 -0.542386 0.000000 1.309436 -0.542386 5.905515 1.382183 -0.572519 5.884417 1.435437 -0.594577 5.826775 1.454929 -0.602651 5.748034 1.372020 -0.568309 1.231701 1.417004 -0.586942 1.295156 1.445283 -0.598655 1.369051 1.454928 -0.602651 1.448350 1.454930 -0.602651 0.708661 1.343741 -0.556595 0.999209 1.334096 -0.552600 1.078508 1.343741 -0.556595 1.157807 1.445284 -0.598656 0.787960 1.417006 -0.586943 0.861855 1.372021 -0.568310 0.925310 0.909331 -0.376657 5.826775 0.909331 -0.376657 5.905515 1.544545 -0.307229 0.157480 1.523852 -0.303113 0.078740 1.467317 -0.291868 0.021098 1.390090 -0.276506 0.000000 1.390090 -0.276506 5.905515 1.467317 -0.291868 5.884417 1.523852 -0.303113 5.826775 1.544545 -0.307229 5.748034 1.456528 -0.289721 1.231701 1.504283 -0.299221 1.295156 1.534304 -0.305192 1.369051 1.544543 -0.307229 1.448350 1.544545 -0.307229 0.708661 1.426508 -0.283750 0.999209 1.416268 -0.281713 1.078508 1.426508 -0.283750 1.157807 1.534306 -0.305192 0.787960 1.504285 -0.299221 0.861855 1.456530 -0.289722 0.925310 0.965340 -0.192018 5.826775 0.965340 -0.192018 5.905515 1.574804 0.000000 0.157480 1.553706 0.000000 0.078740 1.496064 0.000000 0.021098 1.417324 0.000000 0.000000 1.417324 0.000000 5.905515 1.496064 0.000000 5.884417 1.553706 0.000000 5.826775 1.574804 0.000000 5.748034 1.485063 0.000000 1.231701 1.533754 0.000000 1.295156 1.564363 0.000000 1.369051 1.574802 0.000000 1.448350 1.574804 0.000000 0.708661 1.454455 0.000000 0.999209 1.444015 0.000000 1.078508 1.454455 0.000000 1.157807 1.564364 0.000000 0.787960 1.533756 0.000000 0.861855 1.485065 0.000000 0.925310 0.984252 0.000000 5.826775 0.984252 0.000000 5.905515 1.544544 0.307229 0.157480 1.523852 0.303113 0.078740 1.467317 0.291868 0.021098 1.390090 0.276506 0.000000 1.390090 0.276506 5.905515 1.467317 0.291868 5.884417 1.523852 0.303113 5.826775 1.544544 0.307229 5.748034 1.456528 0.289722 1.231701 1.504283 0.299221 1.295156 1.534304 0.305192 1.369051 1.544543 0.307229 1.448350 1.544545 0.307229 0.708661 1.426508 0.283750 0.999209 1.416268 0.281714 1.078508 1.426508 0.283750 1.157807 1.534305 0.305193 0.787960 1.504285 0.299221 0.861855 1.456530 0.289722 0.925310 0.965340 0.192018 5.826775 0.965340 0.192018 5.905515 1.454929 0.602651 0.157480 1.435437 0.594577 0.078740 1.382183 0.572519 0.021098 1.309436 0.542386 0.000000 1.309436 0.542386 5.905515 1.382183 0.572519 5.884417 1.435437 0.594577 5.826775 1.454929 0.602651 5.748034 1.372020 0.568309 1.231701 1.417004 0.586942 1.295156 1.445282 0.598656 1.369051 1.454928 0.602651 1.448350 1.454929 0.602651 0.708661 1.343741 0.556596 0.999209 1.334096 0.552601 1.078508 1.343741 0.556596 1.157807 1.445284 0.598656 0.787960 1.417006 0.586943 0.861855 1.372021 0.568310 0.925310 0.909331 0.376657 5.826775 0.909331 0.376657 5.905515 1.309402 0.874914 0.157480 1.291859 0.863193 0.078740 1.243931 0.831169 0.021098 1.178461 0.787423 0.000000 1.178461 0.787423 5.905515 1.243931 0.831169 5.884417 1.291859 0.863193 5.826775 1.309402 0.874914 5.748034 1.234785 0.825057 1.231701 1.275270 0.852108 1.295156 1.300720 0.869113 1.369051 1.309400 0.874913 1.448350 1.309402 0.874914 0.708661 1.209335 0.808052 0.999209 1.200654 0.802252 1.078508 1.209335 0.808052 1.157807 1.300721 0.869114 0.787960 1.275271 0.852109 0.861855 1.234786 0.825058 0.925310 0.818376 0.546821 5.826775 0.818376 0.546821 5.905515 1.113554 1.113555 0.157480 1.098636 1.098636 0.078740 1.057877 1.057877 0.021098 1.002199 1.002199 0.000000 1.002199 1.002199 5.905515 1.057877 1.057877 5.884417 1.098636 1.098636 5.826775 1.113554 1.113555 5.748034 1.050098 1.050099 1.231701 1.084528 1.084528 1.295156 1.106171 1.106171 1.369051 1.113553 1.113554 1.448350 1.113555 1.113555 0.708661 1.028455 1.028455 0.999209 1.021073 1.021073 1.078508 1.028455 1.028455 1.157807 1.106172 1.106173 0.787960 1.084529 1.084529 0.861855 1.050099 1.050100 0.925310 0.695971 0.695972 5.826775 0.695971 0.695972 5.905515 0.874914 1.309402 0.157480 0.863192 1.291859 0.078740 0.831168 1.243932 0.021098 0.787423 1.178462 0.000000 0.787423 1.178462 5.905515 0.831168 1.243932 5.884417 0.863192 1.291859 5.826775 0.874914 1.309402 5.748034 0.825057 1.234785 1.231701 0.852108 1.275270 1.295156 0.869113 1.300720 1.369051 0.874913 1.309401 1.448350 0.874914 1.309402 0.708661 0.808051 1.209335 0.999209 0.802251 1.200655 1.078508 0.808051 1.209335 1.157807 0.869114 1.300722 0.787960 0.852109 1.275272 0.861855 0.825058 1.234787 0.925310 0.546821 0.818376 5.826775 0.546821 0.818376 5.905515 0.602651 1.454929 0.157480 0.594577 1.435437 0.078740 0.572518 1.382183 0.021098 0.542386 1.309437 0.000000 0.542386 1.309437 5.905515 0.572518 1.382183 5.884417 0.594577 1.435437 5.826775 0.602651 1.454929 5.748034 0.568309 1.372020 1.231701 0.586942 1.417004 1.295156 0.598655 1.445283 1.369051 0.602650 1.454928 1.448350 0.602651 1.454930 0.708661 0.556595 1.343741 0.999209 0.552600 1.334096 1.078508 0.556595 1.343741 1.157807 0.598656 1.445284 0.787960 0.586943 1.417006 0.861855 0.568309 1.372022 0.925310 0.376657 0.909331 5.826775 0.376657 0.909331 5.905515 0.307229 1.544544 0.157480 0.303113 1.523852 0.078740 0.291868 1.467317 0.021098 0.276506 1.390090 0.000000 0.276506 1.390090 5.905515 0.291868 1.467317 5.884417 0.303113 1.523852 5.826775 0.307229 1.544544 5.748034 0.289722 1.456528 1.231701 0.299221 1.504283 1.295156 0.305192 1.534304 1.369051 0.307229 1.544543 1.448350 0.307229 1.544545 0.708661 0.283750 1.426508 0.999209 0.281713 1.416268 1.078508 0.283750 1.426508 1.157807 0.305192 1.534305 0.787960 0.299221 1.504285 0.861855 0.289722 1.456530 0.925310 0.192018 0.965340 5.826775 0.192018 0.965340 5.905515 -0.000000 1.574804 0.157480 -0.000000 1.553706 0.078740 -0.000000 1.496064 0.021098 -0.000000 1.417324 0.000000 -0.000000 1.417324 5.905515 -0.000000 1.496064 5.884417 -0.000000 1.553706 5.826775 -0.000000 1.574804 5.748034 -0.000000 1.485063 1.231701 -0.000000 1.533754 1.295156 -0.000000 1.564363 1.369051 -0.000000 1.574802 1.448350 0.000000 1.574804 0.708661 -0.000000 1.454455 0.999209 -0.000000 1.444015 1.078508 -0.000000 1.454455 1.157807 0.000000 1.564364 0.787960 0.000000 1.533756 0.861855 0.000000 1.485065 0.925310 -0.000000 0.984252 5.826775 -0.000000 0.984252 5.905515 0.000000 0.000000 0.000000 -0.307229 1.544544 0.157480 -0.303113 1.523852 0.078740 -0.291868 1.467317 0.021098 -0.276506 1.390090 0.000000 -0.276506 1.390090 5.905515 -0.291868 1.467317 5.884417 -0.303113 1.523852 5.826775 -0.307229 1.544544 5.748034 -0.289722 1.456528 1.231701 -0.299221 1.504283 1.295156 -0.305192 1.534304 1.369051 -0.307229 1.544543 1.448350 -0.307229 1.544545 0.708661 -0.283750 1.426508 0.999209 -0.281713 1.416268 1.078508 -0.283750 1.426508 1.157807 -0.305192 1.534305 0.787960 -0.299221 1.504285 0.861855 -0.289722 1.456530 0.925310 -0.192018 0.965340 5.826775 -0.192018 0.965340 5.905515 -0.602652 1.454929 0.157480 -0.594578 1.435437 0.078740 -0.572519 1.382183 0.021098 -0.542386 1.309436 0.000000 -0.542386 1.309436 5.905515 -0.572519 1.382183 5.884417 -0.594578 1.435437 5.826775 -0.602652 1.454929 5.748034 -0.568309 1.372019 1.231701 -0.586943 1.417004 1.295156 -0.598656 1.445282 1.369051 -0.602651 1.454928 1.448350 -0.602652 1.454929 0.708661 -0.556596 1.343741 0.999209 -0.552601 1.334096 1.078508 -0.556596 1.343741 1.157807 -0.598657 1.445284 0.787960 -0.586943 1.417006 0.861855 -0.568310 1.372021 0.925310 -0.376657 0.909331 5.826775 -0.376657 0.909331 5.905515 -0.874914 1.309401 0.157480 -0.863193 1.291859 0.078740 -0.831169 1.243931 0.021098 -0.787423 1.178461 0.000000 -0.787423 1.178461 5.905515 -0.831169 1.243931 5.884417 -0.863193 1.291859 5.826775 -0.874914 1.309401 5.748034 -0.825057 1.234785 1.231701 -0.852108 1.275270 1.295156 -0.869114 1.300720 1.369051 -0.874914 1.309400 1.448350 -0.874915 1.309402 0.708661 -0.808052 1.209335 0.999209 -0.802252 1.200654 1.078508 -0.808052 1.209335 1.157807 -0.869115 1.300721 0.787960 -0.852109 1.275271 0.861855 -0.825058 1.234786 0.925310 -0.546822 0.818376 5.826775 -0.546822 0.818376 5.905515 -1.113555 1.113554 0.157480 -1.098636 1.098635 0.078740 -1.057877 1.057877 0.021098 -1.002200 1.002199 0.000000 -1.002200 1.002199 5.905515 -1.057877 1.057877 5.884417 -1.098636 1.098635 5.826775 -1.113555 1.113554 5.748034 -1.050099 1.050098 1.231701 -1.084528 1.084527 1.295156 -1.106172 1.106171 1.369051 -1.113554 1.113553 1.448350 -1.113555 1.113554 0.708661 -1.028455 1.028454 0.999209 -1.021073 1.021072 1.078508 -1.028455 1.028454 1.157807 -1.106173 1.106172 0.787960 -1.084530 1.084529 0.861855 -1.050100 1.050099 0.925310 -0.695972 0.695971 5.826775 -0.695972 0.695971 5.905515 -1.309402 0.874914 0.157480 -1.291859 0.863193 0.078740 -1.243932 0.831169 0.021098 -1.178461 0.787423 0.000000 -1.178461 0.787423 5.905515 -1.243932 0.831169 5.884417 -1.291859 0.863193 5.826775 -1.309402 0.874914 5.748034 -1.234785 0.825057 1.231701 -1.275270 0.852108 1.295156 -1.300720 0.869113 1.369051 -1.309400 0.874913 1.448350 -1.309402 0.874914 0.708661 -1.209335 0.808052 0.999209 -1.200654 0.802252 1.078508 -1.209335 0.808052 1.157807 -1.300721 0.869114 0.787960 -1.275271 0.852109 0.861855 -1.234787 0.825058 0.925310 -0.818376 0.546821 5.826775 -0.818376 0.546821 5.905515 -1.454929 0.602651 0.157480 -1.435437 0.594577 0.078740 -1.382183 0.572519 0.021098 -1.309436 0.542386 0.000000 -1.309436 0.542386 5.905515 -1.382183 0.572519 5.884417 -1.435437 0.594577 5.826775 -1.454929 0.602651 5.748034 -1.372020 0.568309 1.231701 -1.417004 0.586942 1.295156 -1.445283 0.598656 1.369051 -1.454928 0.602651 1.448350 -1.454930 0.602652 0.708661 -1.343741 0.556596 0.999209 -1.334096 0.552601 1.078508 -1.343741 0.556596 1.157807 -1.445284 0.598656 0.787960 -1.417006 0.586943 0.861855 -1.372021 0.568310 0.925310 -0.909331 0.376657 5.826775 -0.909331 0.376657 5.905515 -1.390090 0.276506 0.000000 ]
        }
        coordIndex [ 3 23 2 -1 23 45 44 -1 44 66 65 -1 66 86 65 -1 87 107 86 -1 108 128 107 -1 129 149 128 -1 149 171 170 -1 170 192 191 -1 191 213 212 -1 212 234 233 -1 234 254 233 -1 254 276 275 -1 276 296 275 -1 297 317 296 -1 318 338 317 -1 339 359 338 -1 360 380 359 -1 381 401 380 -1 402 422 401 -1 423 443 422 -1 444 464 443 -1 464 487 486 -1 487 507 486 -1 507 529 528 -1 529 549 528 -1 550 570 549 -1 571 591 570 -1 3 25 24 -1 25 45 24 -1 46 66 45 -1 67 87 66 -1 87 109 108 -1 109 129 108 -1 130 150 129 -1 150 172 171 -1 172 192 171 -1 193 213 192 -1 214 234 213 -1 235 255 234 -1 255 277 276 -1 277 297 276 -1 298 318 297 -1 319 339 318 -1 340 360 339 -1 361 381 360 -1 381 403 402 -1 402 424 423 -1 424 444 423 -1 445 465 444 -1 466 487 465 -1 488 508 487 -1 509 529 508 -1 529 551 550 -1 550 572 571 -1 572 592 571 -1 5 25 4 -1 26 46 25 -1 47 67 46 -1 68 88 67 -1 88 110 109 -1 110 130 109 -1 131 151 130 -1 152 172 151 -1 173 193 172 -1 194 214 193 -1 215 235 214 -1 236 256 235 -1 257 277 256 -1 278 298 277 -1 298 320 319 -1 320 340 319 -1 341 361 340 -1 362 382 361 -1 383 403 382 -1 404 424 403 -1 425 445 424 -1 446 466 445 -1 467 488 466 -1 488 510 509 -1 510 530 509 -1 531 551 530 -1 552 572 551 -1 573 593 572 -1 0 485 1 -1 1 485 5 -1 5 485 26 -1 26 485 47 -1 47 485 68 -1 68 485 89 -1 89 485 110 -1 110 485 131 -1 131 485 152 -1 152 485 173 -1 173 485 194 -1 194 485 215 -1 215 485 236 -1 236 485 257 -1 257 485 278 -1 278 485 299 -1 299 485 320 -1 320 485 341 -1 341 485 362 -1 362 485 383 -1 383 485 404 -1 404 485 425 -1 425 485 446 -1 446 485 467 -1 467 485 489 -1 489 485 510 -1 510 485 531 -1 531 485 552 -1 552 485 573 -1 573 485 594 -1 594 485 612 -1 612 485 0 -1 7 27 6 -1 28 48 27 -1 49 69 48 -1 70 90 69 -1 90 112 111 -1 112 132 111 -1 132 154 153 -1 154 174 153 -1 175 195 174 -1 196 216 195 -1 217 237 216 -1 237 259 258 -1 258 280 279 -1 280 300 279 -1 301 321 300 -1 321 343 342 -1 343 363 342 -1 363 385 384 -1 385 405 384 -1 405 427 426 -1 426 448 447 -1 448 468 447 -1 468 491 490 -1 491 511 490 -1 512 532 511 -1 532 554 553 -1 554 574 553 -1 575 595 574 -1 7 29 28 -1 29 49 28 -1 50 70 49 -1 71 91 70 -1 92 112 91 -1 113 133 112 -1 133 155 154 -1 155 175 154 -1 176 196 175 -1 196 218 217 -1 218 238 217 -1 239 259 238 -1 259 281 280 -1 280 302 301 -1 302 322 301 -1 323 343 322 -1 343 365 364 -1 365 385 364 -1 386 406 385 -1 407 427 406 -1 428 448 427 -1 449 469 448 -1 470 491 469 -1 492 512 491 -1 513 533 512 -1 534 554 533 -1 555 575 554 -1 576 596 575 -1 9 29 8 -1 30 50 29 -1 51 71 50 -1 71 93 92 -1 93 113 92 -1 114 134 113 -1 134 156 155 -1 156 176 155 -1 176 198 197 -1 198 218 197 -1 219 239 218 -1 240 260 239 -1 261 281 260 -1 282 302 281 -1 303 323 302 -1 324 344 323 -1 345 365 344 -1 365 387 386 -1 386 408 407 -1 407 429 428 -1 429 449 428 -1 450 470 449 -1 471 492 470 -1 493 513 492 -1 514 534 513 -1 535 555 534 -1 555 577 576 -1 576 598 597 -1 10 38 31 -1 38 52 31 -1 59 73 52 -1 80 94 73 -1 94 122 115 -1 115 143 136 -1 136 164 157 -1 157 185 178 -1 178 206 199 -1 199 227 220 -1 227 241 220 -1 248 262 241 -1 262 290 283 -1 283 311 304 -1 304 332 325 -1 325 353 346 -1 346 374 367 -1 367 395 388 -1 388 416 409 -1 409 437 430 -1 437 451 430 -1 451 479 472 -1 472 501 494 -1 494 522 515 -1 515 543 536 -1 536 564 557 -1 564 578 557 -1 585 599 578 -1 11 31 32 -1 32 52 53 -1 52 74 53 -1 73 95 74 -1 95 115 116 -1 116 136 137 -1 136 158 137 -1 157 179 158 -1 179 199 200 -1 199 221 200 -1 220 242 221 -1 241 263 242 -1 262 284 263 -1 284 304 305 -1 304 326 305 -1 325 347 326 -1 346 368 347 -1 367 389 368 -1 388 410 389 -1 409 431 410 -1 430 452 431 -1 451 473 452 -1 472 495 473 -1 494 516 495 -1 515 537 516 -1 536 558 537 -1 557 579 558 -1 579 599 600 -1 11 33 12 -1 32 54 33 -1 53 75 54 -1 75 95 96 -1 95 117 96 -1 116 138 117 -1 137 159 138 -1 159 179 180 -1 179 201 180 -1 200 222 201 -1 221 243 222 -1 243 263 264 -1 263 285 264 -1 284 306 285 -1 306 326 327 -1 326 348 327 -1 347 369 348 -1 368 390 369 -1 389 411 390 -1 410 432 411 -1 431 453 432 -1 452 474 453 -1 474 495 496 -1 495 517 496 -1 516 538 517 -1 537 559 538 -1 558 580 559 -1 580 600 601 -1 12 34 13 -1 34 54 55 -1 54 76 55 -1 75 97 76 -1 96 118 97 -1 117 139 118 -1 138 160 139 -1 159 181 160 -1 181 201 202 -1 201 223 202 -1 222 244 223 -1 243 265 244 -1 264 286 265 -1 285 307 286 -1 307 327 328 -1 327 349 328 -1 348 370 349 -1 370 390 391 -1 390 412 391 -1 411 433 412 -1 432 454 433 -1 453 475 454 -1 474 497 475 -1 496 518 497 -1 517 539 518 -1 538 560 539 -1 559 581 560 -1 580 602 581 -1 2 35 14 -1 23 56 35 -1 44 77 56 -1 65 98 77 -1 98 107 119 -1 119 128 140 -1 128 161 140 -1 149 182 161 -1 170 203 182 -1 203 212 224 -1 212 245 224 -1 233 266 245 -1 254 287 266 -1 275 308 287 -1 296 329 308 -1 317 350 329 -1 338 371 350 -1 359 392 371 -1 380 413 392 -1 401 434 413 -1 422 455 434 -1 443 476 455 -1 464 498 476 -1 486 519 498 -1 507 540 519 -1 528 561 540 -1 549 582 561 -1 570 603 582 -1 16 36 37 -1 36 58 37 -1 57 79 58 -1 78 100 79 -1 99 121 100 -1 120 142 121 -1 141 163 142 -1 162 184 163 -1 183 205 184 -1 204 226 205 -1 225 247 226 -1 246 268 247 -1 268 288 289 -1 288 310 289 -1 309 331 310 -1 330 352 331 -1 351 373 352 -1 372 394 373 -1 393 415 394 -1 414 436 415 -1 435 457 436 -1 456 478 457 -1 477 500 478 -1 499 521 500 -1 521 541 542 -1 541 563 542 -1 562 584 563 -1 583 605 584 -1 16 38 17 -1 38 58 59 -1 58 80 59 -1 79 101 80 -1 100 122 101 -1 121 143 122 -1 143 163 164 -1 164 184 185 -1 184 206 185 -1 206 226 227 -1 226 248 227 -1 247 269 248 -1 268 290 269 -1 289 311 290 -1 310 332 311 -1 331 353 332 -1 352 374 353 -1 373 395 374 -1 394 416 395 -1 415 437 416 -1 436 458 437 -1 457 479 458 -1 478 501 479 -1 500 522 501 -1 521 543 522 -1 542 564 543 -1 563 585 564 -1 584 606 585 -1 15 41 36 -1 41 57 36 -1 62 78 57 -1 78 104 99 -1 99 125 120 -1 120 146 141 -1 141 167 162 -1 162 188 183 -1 183 209 204 -1 209 225 204 -1 230 246 225 -1 251 267 246 -1 272 288 267 -1 293 309 288 -1 309 335 330 -1 330 356 351 -1 351 377 372 -1 377 393 372 -1 398 414 393 -1 414 440 435 -1 435 461 456 -1 456 482 477 -1 482 499 477 -1 499 525 520 -1 525 541 520 -1 546 562 541 -1 567 583 562 -1 588 604 583 -1 18 35 39 -1 35 60 39 -1 56 81 60 -1 77 102 81 -1 98 123 102 -1 119 144 123 -1 144 161 165 -1 165 182 186 -1 186 203 207 -1 203 228 207 -1 224 249 228 -1 245 270 249 -1 266 291 270 -1 287 312 291 -1 308 333 312 -1 333 350 354 -1 350 375 354 -1 375 392 396 -1 392 417 396 -1 413 438 417 -1 434 459 438 -1 455 480 459 -1 476 502 480 -1 498 523 502 -1 519 544 523 -1 540 565 544 -1 565 582 586 -1 582 607 586 -1 18 40 19 -1 40 60 61 -1 60 82 61 -1 82 102 103 -1 102 124 103 -1 123 145 124 -1 144 166 145 -1 165 187 166 -1 186 208 187 -1 207 229 208 -1 228 250 229 -1 249 271 250 -1 270 292 271 -1 291 313 292 -1 312 334 313 -1 333 355 334 -1 354 376 355 -1 376 396 397 -1 396 418 397 -1 417 439 418 -1 439 459 460 -1 459 481 460 -1 480 503 481 -1 502 524 503 -1 523 545 524 -1 544 566 545 -1 565 587 566 -1 586 608 587 -1 19 41 20 -1 41 61 62 -1 62 82 83 -1 83 103 104 -1 103 125 104 -1 124 146 125 -1 145 167 146 -1 166 188 167 -1 187 209 188 -1 208 230 209 -1 230 250 251 -1 251 271 272 -1 271 293 272 -1 292 314 293 -1 313 335 314 -1 335 355 356 -1 355 377 356 -1 376 398 377 -1 397 419 398 -1 418 440 419 -1 439 461 440 -1 460 482 461 -1 481 504 482 -1 503 525 504 -1 524 546 525 -1 545 567 546 -1 566 588 567 -1 587 609 588 -1 22 42 21 -1 43 63 42 -1 64 84 63 -1 85 105 84 -1 106 126 105 -1 127 147 126 -1 148 168 147 -1 169 189 168 -1 190 210 189 -1 211 231 210 -1 232 252 231 -1 253 273 252 -1 274 294 273 -1 295 315 294 -1 316 336 315 -1 337 357 336 -1 358 378 357 -1 379 399 378 -1 400 420 399 -1 421 441 420 -1 442 462 441 -1 463 483 462 -1 484 505 483 -1 506 526 505 -1 527 547 526 -1 548 568 547 -1 569 589 568 -1 590 610 589 -1 22 27 43 -1 27 64 43 -1 48 85 64 -1 69 106 85 -1 106 111 127 -1 111 148 127 -1 148 153 169 -1 153 190 169 -1 190 195 211 -1 195 232 211 -1 216 253 232 -1 237 274 253 -1 258 295 274 -1 279 316 295 -1 300 337 316 -1 337 342 358 -1 342 379 358 -1 363 400 379 -1 384 421 400 -1 405 442 421 -1 426 463 442 -1 463 468 484 -1 468 506 484 -1 490 527 506 -1 527 532 548 -1 532 569 548 -1 553 590 569 -1 590 595 611 -1 13 30 9 -1 34 51 30 -1 55 72 51 -1 72 97 93 -1 97 114 93 -1 118 135 114 -1 139 156 135 -1 160 177 156 -1 181 198 177 -1 202 219 198 -1 223 240 219 -1 244 261 240 -1 265 282 261 -1 286 303 282 -1 307 324 303 -1 328 345 324 -1 349 366 345 -1 370 387 366 -1 391 408 387 -1 412 429 408 -1 433 450 429 -1 454 471 450 -1 475 493 471 -1 497 514 493 -1 514 539 535 -1 539 556 535 -1 560 577 556 -1 581 598 577 -1 3 24 23 -1 23 24 45 -1 44 45 66 -1 66 87 86 -1 87 108 107 -1 108 129 128 -1 129 150 149 -1 149 150 171 -1 170 171 192 -1 191 192 213 -1 212 213 234 -1 234 255 254 -1 254 255 276 -1 276 297 296 -1 297 318 317 -1 318 339 338 -1 339 360 359 -1 360 381 380 -1 381 402 401 -1 402 423 422 -1 423 444 443 -1 444 465 464 -1 464 465 487 -1 487 508 507 -1 507 508 529 -1 529 550 549 -1 550 571 570 -1 571 592 591 -1 3 4 25 -1 25 46 45 -1 46 67 66 -1 67 88 87 -1 87 88 109 -1 109 130 129 -1 130 151 150 -1 150 151 172 -1 172 193 192 -1 193 214 213 -1 214 235 234 -1 235 256 255 -1 255 256 277 -1 277 298 297 -1 298 319 318 -1 319 340 339 -1 340 361 360 -1 361 382 381 -1 381 382 403 -1 402 403 424 -1 424 445 444 -1 445 466 465 -1 466 488 487 -1 488 509 508 -1 509 530 529 -1 529 530 551 -1 550 551 572 -1 572 593 592 -1 5 26 25 -1 26 47 46 -1 47 68 67 -1 68 89 88 -1 88 89 110 -1 110 131 130 -1 131 152 151 -1 152 173 172 -1 173 194 193 -1 194 215 214 -1 215 236 235 -1 236 257 256 -1 257 278 277 -1 278 299 298 -1 298 299 320 -1 320 341 340 -1 341 362 361 -1 362 383 382 -1 383 404 403 -1 404 425 424 -1 425 446 445 -1 446 467 466 -1 467 489 488 -1 488 489 510 -1 510 531 530 -1 531 552 551 -1 552 573 572 -1 573 594 593 -1 7 28 27 -1 28 49 48 -1 49 70 69 -1 70 91 90 -1 90 91 112 -1 112 133 132 -1 132 133 154 -1 154 175 174 -1 175 196 195 -1 196 217 216 -1 217 238 237 -1 237 238 259 -1 258 259 280 -1 280 301 300 -1 301 322 321 -1 321 322 343 -1 343 364 363 -1 363 364 385 -1 385 406 405 -1 405 406 427 -1 426 427 448 -1 448 469 468 -1 468 469 491 -1 491 512 511 -1 512 533 532 -1 532 533 554 -1 554 575 574 -1 575 596 595 -1 7 8 29 -1 29 50 49 -1 50 71 70 -1 71 92 91 -1 92 113 112 -1 113 134 133 -1 133 134 155 -1 155 176 175 -1 176 197 196 -1 196 197 218 -1 218 239 238 -1 239 260 259 -1 259 260 281 -1 280 281 302 -1 302 323 322 -1 323 344 343 -1 343 344 365 -1 365 386 385 -1 386 407 406 -1 407 428 427 -1 428 449 448 -1 449 470 469 -1 470 492 491 -1 492 513 512 -1 513 534 533 -1 534 555 554 -1 555 576 575 -1 576 597 596 -1 9 30 29 -1 30 51 50 -1 51 72 71 -1 71 72 93 -1 93 114 113 -1 114 135 134 -1 134 135 156 -1 156 177 176 -1 176 177 198 -1 198 219 218 -1 219 240 239 -1 240 261 260 -1 261 282 281 -1 282 303 302 -1 303 324 323 -1 324 345 344 -1 345 366 365 -1 365 366 387 -1 386 387 408 -1 407 408 429 -1 429 450 449 -1 450 471 470 -1 471 493 492 -1 493 514 513 -1 514 535 534 -1 535 556 555 -1 555 556 577 -1 576 577 598 -1 10 17 38 -1 38 59 52 -1 59 80 73 -1 80 101 94 -1 94 101 122 -1 115 122 143 -1 136 143 164 -1 157 164 185 -1 178 185 206 -1 199 206 227 -1 227 248 241 -1 248 269 262 -1 262 269 290 -1 283 290 311 -1 304 311 332 -1 325 332 353 -1 346 353 374 -1 367 374 395 -1 388 395 416 -1 409 416 437 -1 437 458 451 -1 451 458 479 -1 472 479 501 -1 494 501 522 -1 515 522 543 -1 536 543 564 -1 564 585 578 -1 585 606 599 -1 11 10 31 -1 32 31 52 -1 52 73 74 -1 73 94 95 -1 95 94 115 -1 116 115 136 -1 136 157 158 -1 157 178 179 -1 179 178 199 -1 199 220 221 -1 220 241 242 -1 241 262 263 -1 262 283 284 -1 284 283 304 -1 304 325 326 -1 325 346 347 -1 346 367 368 -1 367 388 389 -1 388 409 410 -1 409 430 431 -1 430 451 452 -1 451 472 473 -1 472 494 495 -1 494 515 516 -1 515 536 537 -1 536 557 558 -1 557 578 579 -1 579 578 599 -1 11 32 33 -1 32 53 54 -1 53 74 75 -1 75 74 95 -1 95 116 117 -1 116 137 138 -1 137 158 159 -1 159 158 179 -1 179 200 201 -1 200 221 222 -1 221 242 243 -1 243 242 263 -1 263 284 285 -1 284 305 306 -1 306 305 326 -1 326 347 348 -1 347 368 369 -1 368 389 390 -1 389 410 411 -1 410 431 432 -1 431 452 453 -1 452 473 474 -1 474 473 495 -1 495 516 517 -1 516 537 538 -1 537 558 559 -1 558 579 580 -1 580 579 600 -1 12 33 34 -1 34 33 54 -1 54 75 76 -1 75 96 97 -1 96 117 118 -1 117 138 139 -1 138 159 160 -1 159 180 181 -1 181 180 201 -1 201 222 223 -1 222 243 244 -1 243 264 265 -1 264 285 286 -1 285 306 307 -1 307 306 327 -1 327 348 349 -1 348 369 370 -1 370 369 390 -1 390 411 412 -1 411 432 433 -1 432 453 454 -1 453 474 475 -1 474 496 497 -1 496 517 518 -1 517 538 539 -1 538 559 560 -1 559 580 581 -1 580 601 602 -1 2 23 35 -1 23 44 56 -1 44 65 77 -1 65 86 98 -1 98 86 107 -1 119 107 128 -1 128 149 161 -1 149 170 182 -1 170 191 203 -1 203 191 212 -1 212 233 245 -1 233 254 266 -1 254 275 287 -1 275 296 308 -1 296 317 329 -1 317 338 350 -1 338 359 371 -1 359 380 392 -1 380 401 413 -1 401 422 434 -1 422 443 455 -1 443 464 476 -1 464 486 498 -1 486 507 519 -1 507 528 540 -1 528 549 561 -1 549 570 582 -1 570 591 603 -1 16 15 36 -1 36 57 58 -1 57 78 79 -1 78 99 100 -1 99 120 121 -1 120 141 142 -1 141 162 163 -1 162 183 184 -1 183 204 205 -1 204 225 226 -1 225 246 247 -1 246 267 268 -1 268 267 288 -1 288 309 310 -1 309 330 331 -1 330 351 352 -1 351 372 373 -1 372 393 394 -1 393 414 415 -1 414 435 436 -1 435 456 457 -1 456 477 478 -1 477 499 500 -1 499 520 521 -1 521 520 541 -1 541 562 563 -1 562 583 584 -1 583 604 605 -1 16 37 38 -1 38 37 58 -1 58 79 80 -1 79 100 101 -1 100 121 122 -1 121 142 143 -1 143 142 163 -1 164 163 184 -1 184 205 206 -1 206 205 226 -1 226 247 248 -1 247 268 269 -1 268 289 290 -1 289 310 311 -1 310 331 332 -1 331 352 353 -1 352 373 374 -1 373 394 395 -1 394 415 416 -1 415 436 437 -1 436 457 458 -1 457 478 479 -1 478 500 501 -1 500 521 522 -1 521 542 543 -1 542 563 564 -1 563 584 585 -1 584 605 606 -1 15 20 41 -1 41 62 57 -1 62 83 78 -1 78 83 104 -1 99 104 125 -1 120 125 146 -1 141 146 167 -1 162 167 188 -1 183 188 209 -1 209 230 225 -1 230 251 246 -1 251 272 267 -1 272 293 288 -1 293 314 309 -1 309 314 335 -1 330 335 356 -1 351 356 377 -1 377 398 393 -1 398 419 414 -1 414 419 440 -1 435 440 461 -1 456 461 482 -1 482 504 499 -1 499 504 525 -1 525 546 541 -1 546 567 562 -1 567 588 583 -1 588 609 604 -1 18 14 35 -1 35 56 60 -1 56 77 81 -1 77 98 102 -1 98 119 123 -1 119 140 144 -1 144 140 161 -1 165 161 182 -1 186 182 203 -1 203 224 228 -1 224 245 249 -1 245 266 270 -1 266 287 291 -1 287 308 312 -1 308 329 333 -1 333 329 350 -1 350 371 375 -1 375 371 392 -1 392 413 417 -1 413 434 438 -1 434 455 459 -1 455 476 480 -1 476 498 502 -1 498 519 523 -1 519 540 544 -1 540 561 565 -1 565 561 582 -1 582 603 607 -1 18 39 40 -1 40 39 60 -1 60 81 82 -1 82 81 102 -1 102 123 124 -1 123 144 145 -1 144 165 166 -1 165 186 187 -1 186 207 208 -1 207 228 229 -1 228 249 250 -1 249 270 271 -1 270 291 292 -1 291 312 313 -1 312 333 334 -1 333 354 355 -1 354 375 376 -1 376 375 396 -1 396 417 418 -1 417 438 439 -1 439 438 459 -1 459 480 481 -1 480 502 503 -1 502 523 524 -1 523 544 545 -1 544 565 566 -1 565 586 587 -1 586 607 608 -1 19 40 41 -1 41 40 61 -1 62 61 82 -1 83 82 103 -1 103 124 125 -1 124 145 146 -1 145 166 167 -1 166 187 188 -1 187 208 209 -1 208 229 230 -1 230 229 250 -1 251 250 271 -1 271 292 293 -1 292 313 314 -1 313 334 335 -1 335 334 355 -1 355 376 377 -1 376 397 398 -1 397 418 419 -1 418 439 440 -1 439 460 461 -1 460 481 482 -1 481 503 504 -1 503 524 525 -1 524 545 546 -1 545 566 567 -1 566 587 588 -1 587 608 609 -1 22 43 42 -1 43 64 63 -1 64 85 84 -1 85 106 105 -1 106 127 126 -1 127 148 147 -1 148 169 168 -1 169 190 189 -1 190 211 210 -1 211 232 231 -1 232 253 252 -1 253 274 273 -1 274 295 294 -1 295 316 315 -1 316 337 336 -1 337 358 357 -1 358 379 378 -1 379 400 399 -1 400 421 420 -1 421 442 441 -1 442 463 462 -1 463 484 483 -1 484 506 505 -1 506 527 526 -1 527 548 547 -1 548 569 568 -1 569 590 589 -1 590 611 610 -1 22 6 27 -1 27 48 64 -1 48 69 85 -1 69 90 106 -1 106 90 111 -1 111 132 148 -1 148 132 153 -1 153 174 190 -1 190 174 195 -1 195 216 232 -1 216 237 253 -1 237 258 274 -1 258 279 295 -1 279 300 316 -1 300 321 337 -1 337 321 342 -1 342 363 379 -1 363 384 400 -1 384 405 421 -1 405 426 442 -1 426 447 463 -1 463 447 468 -1 468 490 506 -1 490 511 527 -1 527 511 532 -1 532 553 569 -1 553 574 590 -1 590 574 595 -1 13 34 30 -1 34 55 51 -1 55 76 72 -1 72 76 97 -1 97 118 114 -1 118 139 135 -1 139 160 156 -1 160 181 177 -1 181 202 198 -1 202 223 219 -1 223 244 240 -1 244 265 261 -1 265 286 282 -1 286 307 303 -1 307 328 324 -1 328 349 345 -1 349 370 366 -1 370 391 387 -1 391 412 408 -1 412 433 429 -1 433 454 450 -1 454 475 471 -1 475 497 493 -1 497 518 514 -1 514 518 539 -1 539 560 556 -1 560 581 577 -1 581 602 598 -1 ]
    }
}

# C-8-15-3.5 Marking
Shape {
    appearance Appearance {
        material USE PlasticWhite
    }
    geometry IndexedFaceSet {
        coord Coordinate {
            point [ -1.574804 0.000000 0.157480 -1.553706 0.000000 0.078740 -1.496064 0.000000 0.021098 -1.417324 0.000000 0.000000 -1.417324 -0.000000 5.905515 -1.496064 -0.000000 5.884417 -1.553706 -0.000000 5.826775 -1.574804 0.000000 5.748034 -1.485063 -0.000000 1.231701 -1.533754 -0.000000 1.295156 -1.564363 -0.000000 1.369051 -1.574802 -0.000000 1.448350 -1.574804 0.000000 0.708661 -1.454455 0.000000 0.999209 -1.444015 0.000000 1.078508 -1.454455 -0.000000 1.157807 -1.564364 0.000000 0.787960 -1.533756 0.000000 0.861855 -1.485065 0.000000 0.925310 -0.984252 -0.000000 5.826775 -0.984252 -0.000000 5.905515 -1.544544 -0.307229 0.157480 -1.523852 -0.303113 0.078740 -1.467317 -0.291868 0.021098 -1.390090 -0.276506 0.000000 -1.390090 -0.276506 5.905515 -1.467317 -0.291868 5.884417 -1.523852 -0.303113 5.826775 -1.544544 -0.307229 5.748034 -1.456528 -0.289722 1.231701 -1.504283 -0.299221 1.295156 -1.534304 -0.305192 1.369051 -1.544543 -0.307229 1.448350 -1.544545 -0.307229 0.708661 -1.426508 -0.283750 0.999209 -1.416268 -0.281713 1.078508 -1.426508 -0.283750 1.157807 -1.534305 -0.305192 0.787960 -1.504285 -0.299221 0.861855 -1.456530 -0.289722 0.925310 -0.965340 -0.192018 5.826775 -0.965340 -0.192018 5.905515 -1.454929 -0.602651 0.157480 -1.435437 -0.594577 0.078740 -1.382183 -0.572519 0.021098 -1.309436 -0.542386 0.000000 -1.309436 -0.542386 5.905515 -1.382183 -0.572519 5.884417 -1.435437 -0.594577 5.826775 -1.454929 -0.602651 5.748034 -1.372020 -0.568309 1.231701 -1.417004 -0.586942 1.295156 -1.445282 -0.598656 1.369051 -1.454928 -0.602651 1.448350 -1.454929 -0.602652 0.708661 -1.343741 -0.556596 0.999209 -1.334096 -0.552601 1.078508 -1.343741 -0.556596 1.157807 -1.445284 -0.598656 0.787960 -1.417006 -0.586943 0.861855 -1.372021 -0.568310 0.925310 -0.909331 -0.376657 5.826775 -0.909331 -0.376657 5.905515 -1.454929 0.602651 0.157480 -1.435437 0.594577 0.078740 -1.382183 0.572519 0.021098 -1.309436 0.542386 0.000000 -1.309436 0.542386 5.905515 -1.382183 0.572519 5.884417 -1.435437 0.594577 5.826775 -1.454929 0.602651 5.748034 -1.372020 0.568309 1.231701 -1.417004 0.586942 1.295156 -1.445283 0.598656 1.369051 -1.454928 0.602651 1.448350 -1.454930 0.602652 0.708661 -1.343741 0.556596 0.999209 -1.334096 0.552601 1.078508 -1.343741 0.556596 1.157807 -1.445284 0.598656 0.787960 -1.417006 0.586943 0.861855 -1.372021 0.568310 0.925310 -0.909331 0.376657 5.826775 -0.909331 0.376657 5.905515 -1.544545 0.307229 0.157480 -1.523852 0.303113 0.078740 -1.467317 0.291867 0.021098 -1.390090 0.276506 0.000000 -1.390090 0.276506 5.905515 -1.467317 0.291867 5.884417 -1.523852 0.303113 5.826775 -1.544545 0.307229 5.748034 -1.456528 0.289721 1.231701 -1.504283 0.299220 1.295156 -1.534304 0.305192 1.369051 -1.544543 0.307229 1.448350 -1.544545 0.307229 0.708661 -1.426508 0.283750 0.999209 -1.416268 0.281713 1.078508 -1.426508 0.283750 1.157807 -1.534306 0.305192 0.787960 -1.504285 0.299221 0.861855 -1.456530 0.289722 0.925310 -0.965340 0.192018 5.826775 -0.965340 0.192018 5.905515 ]
        }
        coordIndex [ 0 22 21 -1 21 43 42 -1 64 84 63 -1 85 0 84 -1 1 23 22 -1 23 43 22 -1 65 85 64 -1 86 1 85 -1 3 23 2 -1 24 44 23 -1 66 86 65 -1 86 3 2 -1 4 26 25 -1 26 46 25 -1 67 89 88 -1 89 4 88 -1 6 26 5 -1 26 48 47 -1 68 90 89 -1 89 6 5 -1 7 27 6 -1 28 48 27 -1 70 90 69 -1 91 6 90 -1 15 29 8 -1 29 57 50 -1 71 99 92 -1 92 15 8 -1 8 30 9 -1 29 51 30 -1 71 93 72 -1 92 9 93 -1 9 31 10 -1 30 52 31 -1 72 94 73 -1 94 9 10 -1 10 32 11 -1 32 52 53 -1 73 95 74 -1 94 11 95 -1 0 33 12 -1 21 54 33 -1 63 96 75 -1 96 0 12 -1 13 35 14 -1 34 56 35 -1 76 98 77 -1 97 14 98 -1 14 36 15 -1 35 57 36 -1 77 99 78 -1 99 14 15 -1 13 39 34 -1 34 60 55 -1 76 102 97 -1 97 18 13 -1 12 37 16 -1 33 58 37 -1 75 100 79 -1 96 16 100 -1 16 38 17 -1 37 59 38 -1 79 101 80 -1 100 17 101 -1 18 38 39 -1 38 60 39 -1 80 102 81 -1 102 17 18 -1 20 40 19 -1 41 61 40 -1 83 103 82 -1 104 19 103 -1 20 25 41 -1 25 62 41 -1 67 104 83 -1 88 20 104 -1 11 28 7 -1 32 49 28 -1 70 95 91 -1 95 7 91 -1 0 1 22 -1 21 22 43 -1 64 85 84 -1 85 1 0 -1 1 2 23 -1 23 44 43 -1 65 86 85 -1 86 2 1 -1 3 24 23 -1 24 45 44 -1 66 87 86 -1 86 87 3 -1 4 5 26 -1 26 47 46 -1 67 68 89 -1 89 5 4 -1 6 27 26 -1 26 27 48 -1 68 69 90 -1 89 90 6 -1 7 28 27 -1 28 49 48 -1 70 91 90 -1 91 7 6 -1 15 36 29 -1 29 36 57 -1 71 78 99 -1 92 99 15 -1 8 29 30 -1 29 50 51 -1 71 92 93 -1 92 8 9 -1 9 30 31 -1 30 51 52 -1 72 93 94 -1 94 93 9 -1 10 31 32 -1 32 31 52 -1 73 94 95 -1 94 10 11 -1 0 21 33 -1 21 42 54 -1 63 84 96 -1 96 84 0 -1 13 34 35 -1 34 55 56 -1 76 97 98 -1 97 13 14 -1 14 35 36 -1 35 56 57 -1 77 98 99 -1 99 98 14 -1 13 18 39 -1 34 39 60 -1 76 81 102 -1 97 102 18 -1 12 33 37 -1 33 54 58 -1 75 96 100 -1 96 12 16 -1 16 37 38 -1 37 58 59 -1 79 100 101 -1 100 16 17 -1 18 17 38 -1 38 59 60 -1 80 101 102 -1 102 101 17 -1 20 41 40 -1 41 62 61 -1 83 104 103 -1 104 20 19 -1 20 4 25 -1 25 46 62 -1 67 88 104 -1 88 4 20 -1 11 32 28 -1 32 53 49 -1 70 74 95 -1 95 11 7 -1 ]
    }
}

# C-8-15-3.5 Top
Shape {
    appearance Appearance {
        material USE Tin
    }
    geometry IndexedFaceSet {
        coord Coordinate {
            point [ -0.984252 -0.000000 5.826775 -0.965340 -0.192018 5.826775 -0.909331 -0.376657 5.826775 -0.818376 -0.546821 5.826775 -0.695972 -0.695972 5.826775 -0.546821 -0.818376 5.826775 -0.376657 -0.909331 5.826775 -0.192018 -0.965340 5.826775 0.000000 -0.984252 5.826775 0.192018 -0.965340 5.826775 0.376657 -0.909331 5.826775 0.546821 -0.818376 5.826775 0.695972 -0.695972 5.826775 0.818376 -0.546821 5.826775 0.909331 -0.376657 5.826775 0.965340 -0.192018 5.826775 0.984252 0.000000 5.826775 0.965340 0.192018 5.826775 0.909331 0.376657 5.826775 0.818376 0.546821 5.826775 0.695971 0.695972 5.826775 0.546821 0.818376 5.826775 0.376657 0.909331 5.826775 0.192018 0.965340 5.826775 -0.000000 -0.000000 5.826775 -0.000000 0.984252 5.826775 -0.192018 0.965340 5.826775 -0.376657 0.909331 5.826775 -0.546822 0.818376 5.826775 -0.695972 0.695971 5.826775 -0.818376 0.546821 5.826775 -0.909331 0.376657 5.826775 -0.965340 0.192018 5.826775 ]
        }
        coordIndex [ 24 0 1 -1 24 1 2 -1 24 2 3 -1 24 3 4 -1 24 4 5 -1 24 5 6 -1 24 6 7 -1 24 7 8 -1 24 8 9 -1 24 9 10 -1 24 10 11 -1 24 11 12 -1 24 12 13 -1 24 13 14 -1 24 14 15 -1 24 15 16 -1 24 16 17 -1 24 17 18 -1 24 18 19 -1 24 19 20 -1 24 20 21 -1 24 21 22 -1 24 22 23 -1 24 23 25 -1 24 25 26 -1 24 26 27 -1 24 27 28 -1 24 28 29 -1 24 29 30 -1 24 30 31 -1 24 31 32 -1 24 32 0 -1 ]
    }
}

# Cylinder
Shape {
    appearance Appearance {
        material USE Tin
    }
    geometry IndexedFaceSet {
        coord Coordinate {
            point [ 0.688977 0.118110 -0.826772 0.688977 0.118110 0.000000 0.719546 0.114086 -0.826772 0.719546 0.114086 0.000000 0.748032 0.102287 -0.826772 0.748032 0.102287 0.000000 0.772493 0.083517 -0.826772 0.772493 0.083517 0.000000 0.791263 0.059055 -0.826772 0.791263 0.059055 0.000000 0.803062 0.030569 -0.826772 0.803062 0.030569 0.000000 0.807087 0.000000 -0.826772 0.807087 0.000000 0.000000 0.803062 -0.030569 -0.826772 0.803062 -0.030569 0.000000 0.791263 -0.059055 -0.826772 0.791263 -0.059055 0.000000 0.772493 -0.083517 -0.826772 0.772493 -0.083517 0.000000 0.748032 -0.102287 -0.826772 0.748032 -0.102287 0.000000 0.719546 -0.114086 -0.826772 0.719546 -0.114086 0.000000 0.688977 -0.118110 -0.826772 0.688977 -0.118110 0.000000 0.658408 -0.114086 -0.826772 0.658408 -0.114086 0.000000 0.629922 -0.102287 -0.826772 0.629922 -0.102287 0.000000 0.605460 -0.083517 -0.826772 0.605460 -0.083517 0.000000 0.586690 -0.059055 -0.826772 0.586690 -0.059055 0.000000 0.574891 -0.030569 -0.826772 0.574891 -0.030569 0.000000 0.570866 0.000000 -0.826772 0.570866 0.000000 0.000000 0.574891 0.030569 -0.826772 0.574891 0.030569 0.000000 0.586690 0.059055 -0.826772 0.586690 0.059055 0.000000 0.605460 0.083517 -0.826772 0.605460 0.083517 0.000000 0.629922 0.102287 -0.826772 0.629922 0.102287 0.000000 0.658408 0.114086 -0.826772 0.658408 0.114086 0.000000 -0.688977 0.118110 -0.826772 -0.688977 0.118110 0.000000 -0.658408 0.114086 -0.826772 -0.658408 0.114086 0.000000 -0.629922 0.102287 -0.826772 -0.629922 0.102287 0.000000 -0.605460 0.083517 -0.826772 -0.605460 0.083517 0.000000 -0.586690 0.059055 -0.826772 -0.586690 0.059055 0.000000 -0.574891 0.030569 -0.826772 -0.574891 0.030569 0.000000 -0.570866 0.000000 -0.826772 -0.570866 0.000000 0.000000 -0.574891 -0.030569 -0.826772 -0.574891 -0.030569 0.000000 -0.586690 -0.059055 -0.826772 -0.586690 -0.059055 0.000000 -0.605460 -0.083517 -0.826772 -0.605460 -0.083517 0.000000 -0.629922 -0.102287 -0.826772 -0.629922 -0.102287 0.000000 -0.658408 -0.114086 -0.826772 -0.658408 -0.114086 0.000000 -0.688977 -0.118110 -0.826772 -0.688977 -0.118110 0.000000 -0.719546 -0.114086 -0.826772 -0.719546 -0.114086 0.000000 -0.748032 -0.102287 -0.826772 -0.748032 -0.102287 0.000000 -0.772493 -0.083517 -0.826772 -0.772493 -0.083517 0.000000 -0.791263 -0.059055 -0.826772 -0.791263 -0.059055 0.000000 -0.803062 -0.030569 -0.826772 -0.803062 -0.030569 0.000000 -0.807087 0.000000 -0.826772 -0.807087 0.000000 0.000000 -0.803062 0.030569 -0.826772 -0.803062 0.030569 0.000000 -0.791263 0.059055 -0.826772 -0.791263 0.059055 0.000000 -0.772493 0.083517 -0.826772 -0.772493 0.083517 0.000000 -0.748032 0.102287 -0.826772 -0.748032 0.102287 0.000000 -0.719546 0.114086 -0.826772 -0.719546 0.114086 0.000000 -0.688977 0.000000 -0.826772 0.688977 0.000000 -0.826772 ]
        }
        coordIndex [ 1 2 0 -1 3 4 2 -1 5 6 4 -1 7 8 6 -1 9 10 8 -1 11 12 10 -1 13 14 12 -1 15 16 14 -1 17 18 16 -1 19 20 18 -1 21 22 20 -1 23 24 22 -1 25 26 24 -1 27 28 26 -1 29 30 28 -1 31 32 30 -1 33 34 32 -1 35 36 34 -1 37 38 36 -1 39 40 38 -1 41 42 40 -1 43 44 42 -1 86 88 96 -1 45 46 44 -1 47 0 46 -1 66 68 96 -1 49 50 48 -1 51 52 50 -1 53 54 52 -1 55 56 54 -1 57 58 56 -1 59 60 58 -1 61 62 60 -1 63 64 62 -1 65 66 64 -1 67 68 66 -1 69 70 68 -1 71 72 70 -1 73 74 72 -1 75 76 74 -1 77 78 76 -1 79 80 78 -1 81 82 80 -1 83 84 82 -1 85 86 84 -1 87 88 86 -1 89 90 88 -1 91 92 90 -1 76 78 96 -1 93 94 92 -1 95 48 94 -1 56 58 96 -1 52 54 96 -1 62 64 96 -1 48 50 96 -1 72 74 96 -1 82 84 96 -1 92 94 96 -1 58 60 96 -1 68 70 96 -1 78 80 96 -1 88 90 96 -1 54 56 96 -1 64 66 96 -1 74 76 96 -1 84 86 96 -1 94 48 96 -1 50 52 96 -1 60 62 96 -1 70 72 96 -1 80 82 96 -1 90 92 96 -1 2 4 97 -1 12 14 97 -1 22 24 97 -1 32 34 97 -1 42 44 97 -1 8 10 97 -1 18 20 97 -1 28 30 97 -1 38 40 97 -1 4 6 97 -1 14 16 97 -1 0 2 97 -1 24 26 97 -1 34 36 97 -1 44 46 97 -1 10 12 97 -1 20 22 97 -1 30 32 97 -1 40 42 97 -1 6 8 97 -1 16 18 97 -1 26 28 97 -1 36 38 97 -1 46 0 97 -1 1 3 2 -1 3 5 4 -1 5 7 6 -1 7 9 8 -1 9 11 10 -1 11 13 12 -1 13 15 14 -1 15 17 16 -1 17 19 18 -1 19 21 20 -1 21 23 22 -1 23 25 24 -1 25 27 26 -1 27 29 28 -1 29 31 30 -1 31 33 32 -1 33 35 34 -1 35 37 36 -1 37 39 38 -1 39 41 40 -1 41 43 42 -1 43 45 44 -1 45 47 46 -1 47 1 0 -1 49 51 50 -1 51 53 52 -1 53 55 54 -1 55 57 56 -1 57 59 58 -1 59 61 60 -1 61 63 62 -1 63 65 64 -1 65 67 66 -1 67 69 68 -1 69 71 70 -1 71 73 72 -1 73 75 74 -1 75 77 76 -1 77 79 78 -1 79 81 80 -1 81 83 82 -1 83 85 84 -1 85 87 86 -1 87 89 88 -1 89 91 90 -1 91 93 92 -1 93 95 94 -1 95 49 48 -1 ]
    }
}
