#VRML V2.0 utf8

DEF Tin Material {
    ambientIntensity 0.271
    diffuseColor 0.824 0.820 0.781
    specularColor 0.328 0.258 0.172
    emissiveColor 0.0 0.0 0.0
    shininess 0.70
    transparency 0.0
}

DEF CoatingBlue Material {
    ambientIntensity 0.351
    diffuseColor 0.000 0.334 0.785
    specularColor 0.789 0.750 0.703
    emissiveColor 0.000 0.000 0.000
    shininess 0.3
    transparency 0.0
}

# R-0207 Pins
Shape {
    appearance Appearance {
        material USE Tin
    }
    geometry IndexedFaceSet {
        coord Coordinate {
            point [ -1.968504 0.000000 -0.826772 -1.968504 0.108268 -0.826772 -1.940482 0.104579 -0.826772 -1.940482 0.104579 0.000000 -1.914370 0.093763 -0.826772 -1.914370 0.093763 0.000000 -1.891947 0.076557 -0.826772 -1.874741 0.054134 -0.826772 -1.863925 0.028022 -0.826772 -1.863925 0.028022 0.000000 -1.860236 -0.000000 -0.826772 -1.860236 -0.000000 0.000000 -1.863925 -0.028022 -0.826772 -1.863925 -0.028022 0.000000 -1.874741 -0.054134 -0.826772 -1.874741 -0.054134 0.000000 -1.891947 -0.076557 -0.826772 -1.914370 -0.093763 -0.826772 -1.914370 -0.093763 0.000000 -1.940482 -0.104579 -0.826772 -1.940482 -0.104579 0.000000 -1.968504 -0.108268 -0.826772 -1.996526 -0.104579 -0.826772 -2.022638 -0.093763 -0.826772 -2.045061 -0.076557 -0.826772 -2.062266 -0.054134 -0.826772 -2.073082 -0.028022 -0.826772 -2.073082 -0.028022 0.000000 -2.076772 0.000000 -0.826772 -2.076772 0.000000 0.000000 -2.073082 0.028022 -0.826772 -2.073082 0.028022 0.000000 -2.062266 0.054134 -0.826772 -2.045061 0.076557 -0.826772 -2.045061 0.076557 0.000000 -2.022638 0.093763 -0.826772 -2.022638 0.093763 0.000000 -1.996526 0.104579 -0.826772 1.968504 0.000000 -0.826772 1.968504 0.108268 -0.826772 1.996526 0.104579 -0.826772 2.022638 0.093763 -0.826772 2.045061 0.076557 -0.826772 2.062266 0.054134 -0.826772 2.062266 0.054134 0.000000 2.073082 0.028022 -0.826772 2.076772 -0.000000 -0.826772 2.073082 -0.028022 -0.826772 2.062266 -0.054134 -0.826772 2.062266 -0.054134 0.000000 2.045061 -0.076557 -0.826772 2.022638 -0.093763 -0.826772 1.996526 -0.104579 -0.826772 1.968504 -0.108268 -0.826772 1.940482 -0.104579 -0.826772 1.914370 -0.093763 -0.826772 1.891947 -0.076557 -0.826772 1.874741 -0.054134 -0.826772 1.863925 -0.028022 -0.826772 1.860236 0.000000 -0.826772 1.863925 0.028022 -0.826772 1.863925 0.028022 0.000000 1.874741 0.054134 -0.826772 1.891947 0.076557 -0.826772 1.914370 0.093763 -0.826772 1.940482 0.104579 -0.826772 1.496063 0.108268 0.472441 1.496063 0.104579 0.444419 -1.496063 0.028022 0.367862 1.496063 0.000000 0.364173 -1.496063 -0.028022 0.367862 1.496063 -0.028022 0.367862 -1.496063 -0.093763 0.418307 1.496063 -0.108268 0.472441 1.496063 -0.093763 0.526575 -1.496063 -0.076557 0.548998 1.496063 -0.076557 0.548998 -1.496063 -0.054134 0.566204 1.496063 -0.028022 0.577020 1.496063 0.028022 0.577020 -1.496063 0.054134 0.566204 1.496063 0.054134 0.566203 1.496063 0.076557 0.548998 -1.496063 0.093763 0.526575 -1.496063 0.104579 0.500463 1.496063 0.104579 0.500463 2.073082 -0.028022 -0.000000 2.045061 -0.076557 -0.000000 2.022638 -0.093763 -0.000000 1.996526 -0.104579 -0.000000 1.968504 -0.108268 -0.000000 1.940482 -0.104579 -0.000000 1.914370 -0.093763 -0.000000 1.891947 -0.076557 -0.000000 1.874741 -0.054134 -0.000000 1.863925 -0.028022 -0.000000 1.860236 -0.000000 -0.000000 1.874741 0.054134 -0.000000 1.891947 0.076557 -0.000000 1.914370 0.093763 -0.000000 1.940482 0.104579 -0.000000 1.968504 0.108268 -0.000000 1.996526 0.104579 -0.000000 2.022638 0.093763 -0.000000 2.045061 0.076557 -0.000000 2.073082 0.028022 -0.000000 2.076772 -0.000000 -0.000000 2.068146 -0.028022 0.075316 2.057423 -0.054134 0.073905 2.040364 -0.076557 0.071659 2.018133 -0.093763 0.068732 1.992244 -0.104579 0.065324 1.964462 -0.108268 0.061666 1.936680 -0.104579 0.058009 1.910791 -0.093763 0.054600 1.888560 -0.076557 0.051673 1.871502 -0.054134 0.049428 1.860778 -0.028022 0.048016 1.857121 -0.000000 0.047534 1.860778 0.028022 0.048016 1.871502 0.054134 0.049428 1.888560 0.076557 0.051673 1.910791 0.093763 0.054600 1.936680 0.104579 0.058009 1.964462 0.108268 0.061666 1.992244 0.104579 0.065324 2.018133 0.093763 0.068732 2.040364 0.076557 0.071659 2.057423 0.054134 0.073905 2.068146 0.028022 0.075316 2.071804 -0.000000 0.075798 -2.062267 0.054134 -0.000000 -1.996526 0.104579 -0.000000 -1.968504 0.108268 -0.000000 -1.891947 0.076557 -0.000000 -1.874741 0.054134 -0.000000 -1.891947 -0.076557 -0.000000 -1.968504 -0.108268 -0.000000 -1.996526 -0.104579 -0.000000 -2.022638 -0.093763 -0.000000 -2.045061 -0.076557 -0.000000 -2.062267 -0.054134 -0.000000 -2.071804 0.000000 0.075798 -2.068146 0.028022 0.075316 -2.057423 0.054134 0.073904 -2.040364 0.076557 0.071659 -2.018133 0.093763 0.068732 -1.992244 0.104579 0.065324 -1.964462 0.108268 0.061666 -1.936680 0.104579 0.058008 -1.910791 0.093763 0.054600 -1.888560 0.076557 0.051673 -1.871502 0.054134 0.049428 -1.860778 0.028022 0.048016 -1.857121 0.000000 0.047534 -1.860778 -0.028022 0.048016 -1.871502 -0.054134 0.049428 -1.888560 -0.076557 0.051673 -1.910791 -0.093763 0.054600 -1.936680 -0.104579 0.058008 -1.964462 -0.108268 0.061666 -1.992244 -0.104579 0.065324 -2.018133 -0.093763 0.068732 -2.040364 -0.076557 0.071659 -2.057423 -0.054134 0.073904 -2.068146 -0.028022 0.075316 -2.056984 0.000000 0.150298 -2.053421 0.028022 0.149344 -2.042974 0.054134 0.146544 -2.026354 0.076557 0.142091 -2.004695 0.093763 0.136288 -1.979473 0.104579 0.129529 -1.952406 0.108268 0.122277 -1.925339 0.104579 0.115024 -1.900117 0.093763 0.108266 -1.878458 0.076557 0.102462 -1.861838 0.054134 0.098009 -1.851391 0.028022 0.095210 -1.847827 0.000000 0.094255 -1.851391 -0.028022 0.095210 -1.861838 -0.054134 0.098009 -1.878458 -0.076557 0.102462 -1.900117 -0.093763 0.108266 -1.925339 -0.104579 0.115024 -1.952406 -0.108268 0.122277 -1.979473 -0.104579 0.129529 -2.004695 -0.093763 0.136288 -2.026354 -0.076557 0.142091 -2.042974 -0.054134 0.146544 -2.053421 -0.028022 0.149344 -2.032568 0.000000 0.222228 -2.029160 0.028022 0.220816 -2.019167 0.054134 0.216677 -2.003271 0.076557 0.210092 -1.982555 0.093763 0.201512 -1.958430 0.104579 0.191519 -1.932541 0.108268 0.180795 -1.906653 0.104579 0.170072 -1.882528 0.093763 0.160079 -1.861812 0.076557 0.151498 -1.845916 0.054134 0.144914 -1.835923 0.028022 0.140775 -1.832515 0.000000 0.139363 -1.835923 -0.028022 0.140775 -1.845916 -0.054134 0.144914 -1.861812 -0.076557 0.151498 -1.882528 -0.093763 0.160079 -1.906653 -0.104579 0.170072 -1.932541 -0.108268 0.180795 -1.958430 -0.104579 0.191519 -1.982555 -0.093763 0.201512 -2.003271 -0.076557 0.210092 -2.019167 -0.054134 0.216677 -2.029160 -0.028022 0.220816 -1.998972 0.000000 0.290354 -1.995777 0.028022 0.288510 -1.986410 0.054134 0.283102 -1.971509 0.076557 0.274499 -1.952090 0.093763 0.263287 -1.929476 0.104579 0.250231 -1.905209 0.108268 0.236220 -1.880941 0.104579 0.222210 -1.858328 0.093763 0.209153 -1.838909 0.076557 0.197942 -1.824008 0.054134 0.189339 -1.814641 0.028022 0.183931 -1.811446 0.000000 0.182087 -1.814641 -0.028022 0.183931 -1.824008 -0.054134 0.189339 -1.838909 -0.076557 0.197942 -1.858328 -0.093763 0.209153 -1.880941 -0.104579 0.222210 -1.905209 -0.108268 0.236220 -1.929476 -0.104579 0.250231 -1.952090 -0.093763 0.263287 -1.971509 -0.076557 0.274499 -1.986410 -0.054134 0.283102 -1.995777 -0.028022 0.288510 -1.956770 0.000000 0.353513 -1.953843 0.028022 0.351267 -1.945262 0.054134 0.344683 -1.931612 0.076557 0.334209 -1.913823 0.093763 0.320558 -1.893107 0.104579 0.304662 -1.870875 0.108268 0.287604 -1.848644 0.104579 0.270545 -1.827928 0.093763 0.254649 -1.810139 0.076557 0.240999 -1.796489 0.054134 0.230525 -1.787908 0.028022 0.223940 -1.784981 0.000000 0.221695 -1.787908 -0.028022 0.223940 -1.796489 -0.054134 0.230525 -1.810139 -0.076557 0.240999 -1.827928 -0.093763 0.254649 -1.848644 -0.104579 0.270545 -1.870875 -0.108268 0.287604 -1.893107 -0.104579 0.304662 -1.913823 -0.093763 0.320558 -1.931612 -0.076557 0.334209 -1.945262 -0.054134 0.344683 -1.953843 -0.028022 0.351267 -1.906686 0.000000 0.410623 -1.904077 0.028022 0.408015 -1.896429 0.054134 0.400366 -1.884263 0.076557 0.388200 -1.868407 0.093763 0.372345 -1.849943 0.104579 0.353881 -1.830129 0.108268 0.334066 -1.810315 0.104579 0.314252 -1.791851 0.093763 0.295788 -1.775995 0.076557 0.279932 -1.763829 0.054134 0.267766 -1.756181 0.028022 0.260118 -1.753572 0.000000 0.257509 -1.756181 -0.028022 0.260118 -1.763829 -0.054134 0.267766 -1.775995 -0.076557 0.279932 -1.791851 -0.093763 0.295788 -1.810315 -0.104579 0.314252 -1.830129 -0.108268 0.334066 -1.849943 -0.104579 0.353881 -1.868407 -0.093763 0.372345 -1.884263 -0.076557 0.388200 -1.896429 -0.054134 0.400366 -1.904077 -0.028022 0.408015 -1.849576 0.000000 0.460707 -1.847330 0.028022 0.457780 -1.840746 0.054134 0.449199 -1.830272 0.076557 0.435549 -1.816621 0.093763 0.417760 -1.800725 0.104579 0.397044 -1.783667 0.108268 0.374813 -1.766608 0.104579 0.352581 -1.750712 0.093763 0.331865 -1.737062 0.076557 0.314076 -1.726588 0.054134 0.300426 -1.720003 0.028022 0.291845 -1.717758 0.000000 0.288918 -1.720003 -0.028022 0.291845 -1.726588 -0.054134 0.300426 -1.737062 -0.076557 0.314076 -1.750712 -0.093763 0.331865 -1.766608 -0.104579 0.352581 -1.783667 -0.108268 0.374813 -1.800725 -0.104579 0.397044 -1.816621 -0.093763 0.417760 -1.830272 -0.076557 0.435549 -1.840746 -0.054134 0.449199 -1.847330 -0.028022 0.457780 -1.786417 0.000000 0.502908 -1.784573 0.028022 0.499714 -1.779165 0.054134 0.490347 -1.770562 0.076557 0.475446 -1.759350 0.093763 0.456027 -1.746294 0.104579 0.433413 -1.732283 0.108268 0.409146 -1.718273 0.104579 0.384878 -1.705217 0.093763 0.362264 -1.694005 0.076557 0.342846 -1.685402 0.054134 0.327945 -1.679994 0.028022 0.318578 -1.678150 0.000000 0.315383 -1.679994 -0.028022 0.318578 -1.685402 -0.054134 0.327945 -1.694005 -0.076557 0.342846 -1.705217 -0.093763 0.362264 -1.718273 -0.104579 0.384878 -1.732283 -0.108268 0.409146 -1.746294 -0.104579 0.433413 -1.759350 -0.093763 0.456027 -1.770562 -0.076557 0.475446 -1.779165 -0.054134 0.490347 -1.784573 -0.028022 0.499714 -1.718291 0.000000 0.536505 -1.716879 0.028022 0.533096 -1.712740 0.054134 0.523104 -1.706155 0.076557 0.507208 -1.697574 0.093763 0.486492 -1.687582 0.104579 0.462367 -1.676858 0.108268 0.436479 -1.666135 0.104579 0.410590 -1.656142 0.093763 0.386465 -1.647561 0.076557 0.365749 -1.640977 0.054134 0.349853 -1.636838 0.028022 0.339861 -1.635426 0.000000 0.336452 -1.636838 -0.028022 0.339861 -1.640977 -0.054134 0.349853 -1.647561 -0.076557 0.365749 -1.656142 -0.093763 0.386465 -1.666135 -0.104579 0.410590 -1.676858 -0.108268 0.436479 -1.687582 -0.104579 0.462367 -1.697574 -0.093763 0.486492 -1.706155 -0.076557 0.507208 -1.712740 -0.054134 0.523104 -1.716879 -0.028022 0.533096 -1.646361 0.000000 0.560921 -1.645407 0.028022 0.557358 -1.642607 0.054134 0.546911 -1.638154 0.076557 0.530291 -1.632350 0.093763 0.508632 -1.625592 0.104579 0.483410 -1.618339 0.108268 0.456343 -1.611087 0.104579 0.429276 -1.604329 0.093763 0.404054 -1.598525 0.076557 0.382395 -1.594072 0.054134 0.365775 -1.591273 0.028022 0.355328 -1.590318 0.000000 0.351764 -1.591273 -0.028022 0.355328 -1.594072 -0.054134 0.365775 -1.598525 -0.076557 0.382395 -1.604329 -0.093763 0.404054 -1.611087 -0.104579 0.429276 -1.618340 -0.108268 0.456343 -1.625592 -0.104579 0.483410 -1.632350 -0.093763 0.508632 -1.638154 -0.076557 0.530291 -1.642607 -0.054134 0.546911 -1.645407 -0.028022 0.557358 -1.571861 0.000000 0.575741 -1.571379 0.028022 0.572083 -1.569967 0.054134 0.561360 -1.567721 0.076557 0.544301 -1.564795 0.093763 0.522070 -1.561386 0.104579 0.496181 -1.557729 0.108268 0.468399 -1.554071 0.104579 0.440617 -1.550663 0.093763 0.414728 -1.547736 0.076557 0.392497 -1.545490 0.054134 0.375439 -1.544079 0.028022 0.364715 -1.543597 0.000000 0.361058 -1.544079 -0.028022 0.364715 -1.545490 -0.054134 0.375439 -1.547736 -0.076557 0.392497 -1.550663 -0.093763 0.414728 -1.554071 -0.104579 0.440617 -1.557729 -0.108268 0.468399 -1.561386 -0.104579 0.496181 -1.564795 -0.093763 0.522070 -1.567722 -0.076557 0.544301 -1.569967 -0.054134 0.561360 -1.571379 -0.028022 0.572083 -1.496063 0.000000 0.580709 -1.496063 0.028022 0.577020 -1.496063 0.076557 0.548998 -1.496063 0.108268 0.472441 -1.496063 0.104579 0.444419 -1.496063 0.093763 0.418307 -1.496063 0.076557 0.395884 -1.496063 0.054134 0.378678 -1.496063 0.000000 0.364173 -1.496063 -0.054134 0.378678 -1.496063 -0.076557 0.395884 -1.496063 -0.104579 0.444419 -1.496063 -0.108268 0.472441 -1.496063 -0.104579 0.500463 -1.496063 -0.093763 0.526575 -1.496063 -0.028022 0.577020 2.053421 -0.028022 0.149344 2.042974 -0.054134 0.146544 2.026354 -0.076557 0.142091 2.004695 -0.093763 0.136288 1.979473 -0.104579 0.129529 1.952406 -0.108268 0.122277 1.925339 -0.104579 0.115024 1.900117 -0.093763 0.108266 1.878458 -0.076557 0.102462 1.861838 -0.054134 0.098009 1.851391 -0.028022 0.095210 1.847827 -0.000000 0.094255 1.851391 0.028022 0.095210 1.861838 0.054134 0.098009 1.878458 0.076557 0.102462 1.900117 0.093763 0.108266 1.925339 0.104579 0.115024 1.952406 0.108268 0.122277 1.979473 0.104579 0.129529 2.004695 0.093763 0.136288 2.026354 0.076557 0.142091 2.042974 0.054134 0.146544 2.053421 0.028022 0.149344 2.056985 -0.000000 0.150299 2.029160 -0.028022 0.220816 2.019167 -0.054134 0.216677 2.003271 -0.076557 0.210092 1.982555 -0.093763 0.201511 1.958430 -0.104579 0.191519 1.932541 -0.108268 0.180795 1.906653 -0.104579 0.170072 1.882528 -0.093763 0.160079 1.861812 -0.076557 0.151498 1.845916 -0.054134 0.144914 1.835924 -0.028022 0.140775 1.832515 -0.000000 0.139363 1.835924 0.028022 0.140775 1.845916 0.054134 0.144914 1.861812 0.076557 0.151498 1.882528 0.093763 0.160079 1.906653 0.104579 0.170072 1.932541 0.108268 0.180795 1.958430 0.104579 0.191519 1.982555 0.093763 0.201511 2.003271 0.076557 0.210092 2.019167 0.054134 0.216677 2.029160 0.028022 0.220816 2.032568 -0.000000 0.222228 1.995777 -0.028022 0.288510 1.986410 -0.054134 0.283102 1.971509 -0.076557 0.274499 1.952090 -0.093763 0.263287 1.929476 -0.104579 0.250231 1.905209 -0.108268 0.236220 1.880941 -0.104579 0.222210 1.858328 -0.093763 0.209153 1.838909 -0.076557 0.197942 1.824008 -0.054134 0.189339 1.814641 -0.028022 0.183931 1.811447 -0.000000 0.182087 1.814641 0.028022 0.183931 1.824008 0.054134 0.189339 1.838909 0.076557 0.197942 1.858328 0.093763 0.209153 1.880941 0.104579 0.222210 1.905209 0.108268 0.236220 1.929476 0.104579 0.250231 1.952090 0.093763 0.263287 1.971509 0.076557 0.274499 1.986410 0.054134 0.283102 1.995777 0.028022 0.288510 1.998972 -0.000000 0.290354 1.953843 -0.028022 0.351267 1.945262 -0.054134 0.344683 1.931612 -0.076557 0.334209 1.913823 -0.093763 0.320559 1.893107 -0.104579 0.304663 1.870875 -0.108268 0.287604 1.848644 -0.104579 0.270545 1.827928 -0.093763 0.254649 1.810139 -0.076557 0.240999 1.796489 -0.054134 0.230525 1.787908 -0.028022 0.223941 1.784981 -0.000000 0.221695 1.787908 0.028022 0.223941 1.796489 0.054134 0.230525 1.810139 0.076557 0.240999 1.827928 0.093763 0.254649 1.848644 0.104579 0.270545 1.870875 0.108268 0.287604 1.893107 0.104579 0.304663 1.913823 0.093763 0.320559 1.931612 0.076557 0.334209 1.945262 0.054134 0.344683 1.953843 0.028022 0.351267 1.956770 -0.000000 0.353513 1.904077 -0.028022 0.408015 1.896429 -0.054134 0.400366 1.884263 -0.076557 0.388200 1.868407 -0.093763 0.372345 1.849943 -0.104579 0.353881 1.830129 -0.108268 0.334066 1.810315 -0.104579 0.314252 1.791851 -0.093763 0.295788 1.775995 -0.076557 0.279932 1.763829 -0.054134 0.267766 1.756181 -0.028022 0.260118 1.753572 -0.000000 0.257509 1.756181 0.028022 0.260118 1.763829 0.054134 0.267766 1.775995 0.076557 0.279932 1.791851 0.093763 0.295788 1.810315 0.104579 0.314252 1.830129 0.108268 0.334066 1.849943 0.104579 0.353881 1.868407 0.093763 0.372345 1.884263 0.076557 0.388200 1.896429 0.054134 0.400366 1.904077 0.028022 0.408015 1.906686 -0.000000 0.410623 1.847330 -0.028022 0.457780 1.840746 -0.054134 0.449199 1.830272 -0.076557 0.435549 1.816622 -0.093763 0.417760 1.800726 -0.104579 0.397044 1.783667 -0.108268 0.374813 1.766608 -0.104579 0.352581 1.750712 -0.093763 0.331865 1.737062 -0.076557 0.314076 1.726588 -0.054134 0.300426 1.720003 -0.028022 0.291845 1.717758 -0.000000 0.288918 1.720003 0.028022 0.291845 1.726588 0.054134 0.300426 1.737062 0.076557 0.314076 1.750712 0.093763 0.331865 1.766608 0.104579 0.352581 1.783667 0.108268 0.374813 1.800726 0.104579 0.397044 1.816622 0.093763 0.417760 1.830272 0.076557 0.435549 1.840746 0.054134 0.449199 1.847330 0.028022 0.457780 1.849576 -0.000000 0.460707 1.784573 -0.028022 0.499714 1.779165 -0.054134 0.490347 1.770562 -0.076557 0.475446 1.759350 -0.093763 0.456027 1.746294 -0.104579 0.433413 1.732283 -0.108268 0.409146 1.718273 -0.104579 0.384878 1.705217 -0.093763 0.362265 1.694005 -0.076557 0.342846 1.685402 -0.054134 0.327945 1.679994 -0.028022 0.318578 1.678149 -0.000000 0.315383 1.679994 0.028022 0.318578 1.685402 0.054134 0.327945 1.694005 0.076557 0.342846 1.705217 0.093763 0.362265 1.718273 0.104579 0.384878 1.732283 0.108268 0.409146 1.746294 0.104579 0.433413 1.759350 0.093763 0.456027 1.770562 0.076557 0.475446 1.779165 0.054134 0.490347 1.784573 0.028022 0.499714 1.786417 -0.000000 0.502909 1.716879 -0.028022 0.533097 1.712740 -0.054134 0.523104 1.706155 -0.076557 0.507208 1.697574 -0.093763 0.486492 1.687582 -0.104579 0.462367 1.676858 -0.108268 0.436479 1.666135 -0.104579 0.410590 1.656142 -0.093763 0.386465 1.647561 -0.076557 0.365749 1.640977 -0.054134 0.349853 1.636838 -0.028022 0.339861 1.635426 -0.000000 0.336452 1.636838 0.028022 0.339861 1.640977 0.054134 0.349853 1.647561 0.076557 0.365749 1.656142 0.093763 0.386465 1.666135 0.104579 0.410590 1.676858 0.108268 0.436479 1.687582 0.104579 0.462367 1.697574 0.093763 0.486492 1.706155 0.076557 0.507208 1.712740 0.054134 0.523104 1.716879 0.028022 0.533097 1.718291 -0.000000 0.536505 1.645407 -0.028022 0.557358 1.642607 -0.054134 0.546911 1.638154 -0.076557 0.530291 1.632351 -0.093763 0.508632 1.625592 -0.104579 0.483410 1.618340 -0.108268 0.456343 1.611087 -0.104579 0.429276 1.604329 -0.093763 0.404054 1.598525 -0.076557 0.382395 1.594072 -0.054134 0.365775 1.591273 -0.028022 0.355328 1.590318 -0.000000 0.351764 1.591273 0.028022 0.355328 1.594072 0.054134 0.365775 1.598525 0.076557 0.382395 1.604329 0.093763 0.404054 1.611087 0.104579 0.429276 1.618340 0.108268 0.456343 1.625592 0.104579 0.483410 1.632351 0.093763 0.508632 1.638154 0.076557 0.530291 1.642607 0.054134 0.546911 1.645407 0.028022 0.557358 1.646361 -0.000000 0.560921 1.571379 -0.028022 0.572083 1.569968 -0.054134 0.561360 1.567722 -0.076557 0.544301 1.564795 -0.093763 0.522070 1.561387 -0.104579 0.496181 1.557729 -0.108268 0.468399 1.554072 -0.104579 0.440617 1.550663 -0.093763 0.414728 1.547736 -0.076557 0.392497 1.545491 -0.054134 0.375439 1.544079 -0.028022 0.364715 1.543597 -0.000000 0.361058 1.544079 0.028022 0.364715 1.545491 0.054134 0.375439 1.547736 0.076557 0.392497 1.550663 0.093763 0.414728 1.554072 0.104579 0.440617 1.557729 0.108268 0.468399 1.561387 0.104579 0.496181 1.564795 0.093763 0.522070 1.567722 0.076557 0.544301 1.569968 0.054134 0.561360 1.571379 0.028022 0.572083 1.571861 -0.000000 0.575741 1.496063 -0.054134 0.566204 1.496063 -0.104579 0.500463 1.496063 -0.104579 0.444419 1.496063 -0.093763 0.418307 1.496063 -0.076557 0.395884 1.496063 -0.054134 0.378678 1.496063 0.028022 0.367862 1.496063 0.054134 0.378678 1.496063 0.076557 0.395884 1.496063 0.093763 0.418307 1.496063 0.093763 0.526575 1.496063 0.000000 0.580709 ]
        }
        coordIndex [ 0 1 2 -1 133 2 1 -1 0 2 4 -1 3 4 2 -1 0 4 6 -1 5 6 4 -1 0 6 7 -1 134 7 6 -1 0 7 8 -1 135 8 7 -1 0 8 10 -1 9 10 8 -1 0 10 12 -1 11 12 10 -1 0 12 14 -1 13 14 12 -1 0 14 16 -1 15 16 14 -1 0 16 17 -1 136 17 16 -1 0 17 19 -1 18 19 17 -1 0 19 21 -1 20 21 19 -1 0 21 22 -1 137 22 21 -1 0 22 23 -1 138 23 22 -1 0 23 24 -1 139 24 23 -1 0 24 25 -1 140 25 24 -1 0 25 26 -1 141 26 25 -1 0 26 28 -1 27 28 26 -1 0 28 30 -1 29 30 28 -1 0 30 32 -1 31 32 30 -1 0 32 33 -1 131 33 32 -1 0 33 35 -1 34 35 33 -1 0 35 37 -1 36 37 35 -1 0 37 1 -1 132 1 37 -1 38 39 40 -1 101 40 39 -1 38 40 41 -1 102 41 40 -1 38 41 42 -1 103 42 41 -1 38 42 43 -1 104 43 42 -1 38 43 45 -1 43 105 45 -1 38 45 46 -1 105 46 45 -1 38 46 47 -1 46 86 47 -1 38 47 48 -1 86 48 47 -1 38 48 50 -1 49 50 48 -1 38 50 51 -1 87 51 50 -1 38 51 52 -1 88 52 51 -1 38 52 53 -1 89 53 52 -1 38 53 54 -1 90 54 53 -1 38 54 55 -1 91 55 54 -1 38 55 56 -1 92 56 55 -1 38 56 57 -1 93 57 56 -1 38 57 58 -1 94 58 57 -1 38 58 59 -1 95 59 58 -1 38 59 60 -1 96 60 59 -1 38 60 62 -1 61 62 60 -1 38 62 63 -1 97 63 62 -1 38 63 64 -1 98 64 63 -1 38 64 65 -1 99 65 64 -1 38 65 39 -1 100 39 65 -1 66 410 409 -1 67 411 410 -1 671 412 411 -1 670 413 412 -1 669 68 413 -1 668 414 68 -1 69 70 414 -1 71 415 70 -1 667 416 415 -1 416 665 72 -1 665 417 72 -1 417 73 418 -1 73 419 418 -1 663 420 419 -1 74 75 420 -1 76 77 75 -1 77 78 421 -1 78 406 421 -1 406 79 407 -1 79 80 407 -1 80 82 408 -1 82 83 408 -1 83 85 84 -1 85 409 84 -1 86 130 107 -1 109 49 108 -1 110 87 109 -1 89 110 111 -1 90 111 112 -1 113 90 112 -1 92 113 114 -1 115 92 114 -1 116 93 115 -1 95 116 117 -1 118 95 117 -1 61 118 119 -1 120 61 119 -1 98 120 121 -1 99 121 122 -1 123 99 122 -1 101 123 124 -1 125 101 124 -1 126 102 125 -1 104 126 127 -1 44 127 128 -1 129 44 128 -1 130 105 129 -1 49 107 108 -1 142 31 29 -1 143 131 31 -1 144 34 131 -1 34 146 36 -1 36 147 132 -1 147 133 132 -1 133 149 3 -1 149 5 3 -1 150 134 5 -1 151 135 134 -1 152 9 135 -1 9 154 11 -1 11 155 13 -1 13 156 15 -1 156 136 15 -1 157 18 136 -1 158 20 18 -1 20 160 137 -1 137 161 138 -1 161 139 138 -1 162 140 139 -1 163 141 140 -1 164 27 141 -1 165 29 27 -1 142 167 143 -1 143 168 144 -1 168 145 144 -1 145 170 146 -1 170 147 146 -1 147 172 148 -1 148 173 149 -1 149 174 150 -1 174 151 150 -1 175 152 151 -1 152 177 153 -1 177 154 153 -1 154 179 155 -1 155 180 156 -1 156 181 157 -1 157 182 158 -1 158 183 159 -1 183 160 159 -1 184 161 160 -1 185 162 161 -1 186 163 162 -1 163 188 164 -1 188 165 164 -1 189 142 165 -1 166 191 167 -1 191 168 167 -1 192 169 168 -1 193 170 169 -1 170 195 171 -1 195 172 171 -1 172 197 173 -1 173 198 174 -1 198 175 174 -1 199 176 175 -1 200 177 176 -1 201 178 177 -1 178 203 179 -1 203 180 179 -1 180 205 181 -1 205 182 181 -1 206 183 182 -1 207 184 183 -1 184 209 185 -1 209 186 185 -1 210 187 186 -1 187 212 188 -1 212 189 188 -1 213 166 189 -1 214 191 190 -1 215 192 191 -1 216 193 192 -1 217 194 193 -1 194 219 195 -1 219 196 195 -1 196 221 197 -1 221 198 197 -1 222 199 198 -1 223 200 199 -1 224 201 200 -1 201 226 202 -1 226 203 202 -1 203 228 204 -1 204 229 205 -1 229 206 205 -1 206 231 207 -1 231 208 207 -1 208 233 209 -1 233 210 209 -1 210 235 211 -1 235 212 211 -1 212 237 213 -1 213 214 190 -1 238 215 214 -1 239 216 215 -1 216 241 217 -1 241 218 217 -1 242 219 218 -1 243 220 219 -1 244 221 220 -1 245 222 221 -1 222 247 223 -1 247 224 223 -1 224 249 225 -1 249 226 225 -1 226 251 227 -1 251 228 227 -1 228 253 229 -1 253 230 229 -1 230 255 231 -1 231 256 232 -1 232 257 233 -1 233 258 234 -1 258 235 234 -1 235 260 236 -1 236 261 237 -1 237 238 214 -1 262 239 238 -1 239 264 240 -1 240 265 241 -1 265 242 241 -1 266 243 242 -1 243 268 244 -1 244 269 245 -1 245 270 246 -1 246 271 247 -1 247 272 248 -1 272 249 248 -1 273 250 249 -1 250 275 251 -1 275 252 251 -1 252 277 253 -1 277 254 253 -1 278 255 254 -1 279 256 255 -1 280 257 256 -1 281 258 257 -1 282 259 258 -1 283 260 259 -1 284 261 260 -1 261 262 238 -1 286 263 262 -1 287 264 263 -1 264 289 265 -1 265 290 266 -1 266 291 267 -1 291 268 267 -1 292 269 268 -1 293 270 269 -1 270 295 271 -1 271 296 272 -1 296 273 272 -1 297 274 273 -1 274 299 275 -1 299 276 275 -1 300 277 276 -1 301 278 277 -1 278 303 279 -1 279 304 280 -1 304 281 280 -1 305 282 281 -1 282 307 283 -1 283 308 284 -1 308 285 284 -1 285 286 262 -1 310 287 286 -1 287 312 288 -1 288 313 289 -1 313 290 289 -1 290 315 291 -1 315 292 291 -1 316 293 292 -1 317 294 293 -1 294 319 295 -1 295 320 296 -1 320 297 296 -1 321 298 297 -1 298 323 299 -1 299 324 300 -1 324 301 300 -1 325 302 301 -1 302 327 303 -1 303 328 304 -1 304 329 305 -1 329 306 305 -1 306 331 307 -1 331 308 307 -1 308 333 309 -1 309 310 286 -1 334 311 310 -1 335 312 311 -1 312 337 313 -1 337 314 313 -1 338 315 314 -1 339 316 315 -1 316 341 317 -1 317 342 318 -1 318 343 319 -1 343 320 319 -1 344 321 320 -1 321 346 322 -1 346 323 322 -1 323 348 324 -1 324 349 325 -1 349 326 325 -1 326 351 327 -1 351 328 327 -1 352 329 328 -1 329 354 330 -1 330 355 331 -1 355 332 331 -1 356 333 332 -1 333 334 310 -1 334 359 335 -1 359 336 335 -1 360 337 336 -1 361 338 337 -1 362 339 338 -1 339 364 340 -1 364 341 340 -1 341 366 342 -1 366 343 342 -1 367 344 343 -1 368 345 344 -1 345 370 346 -1 370 347 346 -1 347 372 348 -1 348 373 349 -1 373 350 349 -1 350 375 351 -1 351 376 352 -1 352 377 353 -1 353 378 354 -1 378 355 354 -1 355 380 356 -1 356 381 357 -1 357 358 334 -1 358 383 359 -1 383 360 359 -1 360 385 361 -1 361 386 362 -1 386 363 362 -1 363 388 364 -1 364 389 365 -1 365 390 366 -1 366 391 367 -1 391 368 367 -1 392 369 368 -1 393 370 369 -1 370 395 371 -1 371 396 372 -1 372 397 373 -1 373 398 374 -1 374 399 375 -1 399 376 375 -1 400 377 376 -1 377 402 378 -1 402 379 378 -1 379 404 380 -1 380 405 381 -1 405 358 381 -1 382 407 383 -1 407 384 383 -1 384 408 385 -1 385 83 386 -1 386 84 387 -1 387 409 388 -1 409 389 388 -1 389 411 390 -1 390 412 391 -1 412 392 391 -1 392 68 393 -1 68 394 393 -1 414 395 394 -1 70 396 395 -1 396 416 397 -1 416 398 397 -1 72 399 398 -1 399 418 400 -1 400 419 401 -1 401 420 402 -1 420 403 402 -1 403 77 404 -1 404 421 405 -1 421 382 405 -1 423 107 422 -1 111 425 426 -1 428 112 427 -1 430 114 429 -1 432 116 431 -1 119 433 434 -1 121 435 436 -1 123 437 438 -1 125 439 440 -1 442 126 441 -1 129 443 444 -1 422 469 446 -1 448 423 447 -1 450 425 449 -1 452 427 451 -1 430 453 454 -1 456 431 455 -1 458 433 457 -1 460 435 459 -1 462 437 461 -1 440 463 464 -1 442 465 466 -1 468 443 467 -1 107 445 422 -1 109 423 424 -1 427 111 426 -1 429 113 428 -1 431 115 430 -1 433 117 432 -1 120 434 435 -1 437 121 436 -1 439 123 438 -1 441 125 440 -1 443 127 442 -1 445 129 444 -1 423 446 447 -1 449 424 448 -1 451 426 450 -1 453 428 452 -1 455 430 454 -1 433 456 457 -1 435 458 459 -1 461 436 460 -1 439 462 463 -1 441 464 465 -1 443 466 467 -1 469 444 468 -1 110 424 425 -1 446 493 470 -1 448 471 472 -1 449 472 473 -1 474 449 473 -1 451 474 475 -1 452 475 476 -1 453 476 477 -1 478 453 477 -1 479 454 478 -1 456 479 480 -1 457 480 481 -1 482 457 481 -1 483 458 482 -1 460 483 484 -1 461 484 485 -1 462 485 486 -1 487 462 486 -1 488 463 487 -1 465 488 489 -1 490 465 489 -1 491 466 490 -1 492 467 491 -1 469 492 493 -1 447 470 471 -1 494 493 517 -1 472 495 496 -1 497 472 496 -1 474 497 498 -1 475 498 499 -1 500 475 499 -1 477 500 501 -1 478 501 502 -1 479 502 503 -1 480 503 504 -1 505 480 504 -1 482 505 506 -1 507 482 506 -1 508 483 507 -1 509 484 508 -1 510 485 509 -1 487 510 511 -1 488 511 512 -1 513 488 512 -1 514 489 513 -1 515 490 514 -1 516 491 515 -1 493 516 517 -1 471 494 495 -1 518 517 541 -1 496 519 520 -1 497 520 521 -1 498 521 522 -1 523 498 522 -1 500 523 524 -1 525 500 524 -1 502 525 526 -1 527 502 526 -1 528 503 527 -1 505 528 529 -1 530 505 529 -1 507 530 531 -1 508 531 532 -1 533 508 532 -1 510 533 534 -1 511 534 535 -1 512 535 536 -1 513 536 537 -1 538 513 537 -1 539 514 538 -1 540 515 539 -1 517 540 541 -1 519 494 518 -1 518 565 542 -1 520 543 544 -1 545 520 544 -1 546 521 545 -1 523 546 547 -1 548 523 547 -1 549 524 548 -1 550 525 549 -1 527 550 551 -1 552 527 551 -1 553 528 552 -1 530 553 554 -1 531 554 555 -1 556 531 555 -1 533 556 557 -1 558 533 557 -1 535 558 559 -1 560 535 559 -1 537 560 561 -1 562 537 561 -1 563 538 562 -1 540 563 564 -1 565 540 564 -1 543 518 542 -1 542 589 566 -1 568 543 567 -1 545 568 569 -1 570 545 569 -1 547 570 571 -1 548 571 572 -1 549 572 573 -1 574 549 573 -1 575 550 574 -1 552 575 576 -1 553 576 577 -1 578 553 577 -1 579 554 578 -1 556 579 580 -1 557 580 581 -1 582 557 581 -1 559 582 583 -1 584 559 583 -1 561 584 585 -1 586 561 585 -1 563 586 587 -1 588 563 587 -1 589 564 588 -1 567 542 566 -1 566 613 590 -1 592 567 591 -1 569 592 593 -1 594 569 593 -1 571 594 595 -1 572 595 596 -1 597 572 596 -1 574 597 598 -1 575 598 599 -1 576 599 600 -1 601 576 600 -1 578 601 602 -1 603 578 602 -1 604 579 603 -1 581 604 605 -1 582 605 606 -1 607 582 606 -1 608 583 607 -1 609 584 608 -1 586 609 610 -1 587 610 611 -1 612 587 611 -1 613 588 612 -1 567 590 591 -1 590 637 614 -1 592 615 616 -1 617 592 616 -1 594 617 618 -1 619 594 618 -1 596 619 620 -1 621 596 620 -1 622 597 621 -1 599 622 623 -1 600 623 624 -1 625 600 624 -1 602 625 626 -1 603 626 627 -1 628 603 627 -1 605 628 629 -1 606 629 630 -1 631 606 630 -1 608 631 632 -1 633 608 632 -1 634 609 633 -1 635 610 634 -1 612 635 636 -1 637 612 636 -1 615 590 614 -1 638 637 661 -1 640 615 639 -1 617 640 641 -1 642 617 641 -1 643 618 642 -1 620 643 644 -1 645 620 644 -1 646 621 645 -1 623 646 647 -1 624 647 648 -1 625 648 649 -1 650 625 649 -1 651 626 650 -1 628 651 652 -1 629 652 653 -1 654 629 653 -1 655 630 654 -1 632 655 656 -1 657 632 656 -1 634 657 658 -1 635 658 659 -1 636 659 660 -1 661 636 660 -1 639 614 638 -1 638 673 78 -1 76 639 662 -1 641 76 74 -1 663 641 74 -1 73 642 663 -1 664 643 73 -1 665 644 664 -1 646 665 666 -1 647 666 667 -1 648 667 71 -1 649 71 69 -1 668 649 69 -1 669 650 668 -1 652 669 670 -1 671 652 670 -1 654 671 67 -1 655 67 66 -1 656 66 85 -1 672 656 85 -1 658 672 82 -1 659 82 81 -1 79 659 81 -1 673 660 79 -1 662 638 78 -1 133 3 2 -1 3 5 4 -1 5 134 6 -1 134 135 7 -1 135 9 8 -1 9 11 10 -1 11 13 12 -1 13 15 14 -1 15 136 16 -1 136 18 17 -1 18 20 19 -1 20 137 21 -1 137 138 22 -1 138 139 23 -1 139 140 24 -1 140 141 25 -1 141 27 26 -1 27 29 28 -1 29 31 30 -1 31 131 32 -1 131 34 33 -1 34 36 35 -1 36 132 37 -1 132 133 1 -1 101 102 40 -1 102 103 41 -1 103 104 42 -1 104 44 43 -1 43 44 105 -1 105 106 46 -1 46 106 86 -1 86 49 48 -1 49 87 50 -1 87 88 51 -1 88 89 52 -1 89 90 53 -1 90 91 54 -1 91 92 55 -1 92 93 56 -1 93 94 57 -1 94 95 58 -1 95 96 59 -1 96 61 60 -1 61 97 62 -1 97 98 63 -1 98 99 64 -1 99 100 65 -1 100 101 39 -1 66 67 410 -1 67 671 411 -1 671 670 412 -1 670 669 413 -1 669 668 68 -1 668 69 414 -1 69 71 70 -1 71 667 415 -1 667 666 416 -1 416 666 665 -1 665 664 417 -1 417 664 73 -1 73 663 419 -1 663 74 420 -1 74 76 75 -1 76 662 77 -1 77 662 78 -1 78 673 406 -1 406 673 79 -1 79 81 80 -1 80 81 82 -1 82 672 83 -1 83 672 85 -1 85 66 409 -1 86 106 130 -1 109 87 49 -1 110 88 87 -1 89 88 110 -1 90 89 111 -1 113 91 90 -1 92 91 113 -1 115 93 92 -1 116 94 93 -1 95 94 116 -1 118 96 95 -1 61 96 118 -1 120 97 61 -1 98 97 120 -1 99 98 121 -1 123 100 99 -1 101 100 123 -1 125 102 101 -1 126 103 102 -1 104 103 126 -1 44 104 127 -1 129 105 44 -1 130 106 105 -1 49 86 107 -1 142 143 31 -1 143 144 131 -1 144 145 34 -1 34 145 146 -1 36 146 147 -1 147 148 133 -1 133 148 149 -1 149 150 5 -1 150 151 134 -1 151 152 135 -1 152 153 9 -1 9 153 154 -1 11 154 155 -1 13 155 156 -1 156 157 136 -1 157 158 18 -1 158 159 20 -1 20 159 160 -1 137 160 161 -1 161 162 139 -1 162 163 140 -1 163 164 141 -1 164 165 27 -1 165 142 29 -1 142 166 167 -1 143 167 168 -1 168 169 145 -1 145 169 170 -1 170 171 147 -1 147 171 172 -1 148 172 173 -1 149 173 174 -1 174 175 151 -1 175 176 152 -1 152 176 177 -1 177 178 154 -1 154 178 179 -1 155 179 180 -1 156 180 181 -1 157 181 182 -1 158 182 183 -1 183 184 160 -1 184 185 161 -1 185 186 162 -1 186 187 163 -1 163 187 188 -1 188 189 165 -1 189 166 142 -1 166 190 191 -1 191 192 168 -1 192 193 169 -1 193 194 170 -1 170 194 195 -1 195 196 172 -1 172 196 197 -1 173 197 198 -1 198 199 175 -1 199 200 176 -1 200 201 177 -1 201 202 178 -1 178 202 203 -1 203 204 180 -1 180 204 205 -1 205 206 182 -1 206 207 183 -1 207 208 184 -1 184 208 209 -1 209 210 186 -1 210 211 187 -1 187 211 212 -1 212 213 189 -1 213 190 166 -1 214 215 191 -1 215 216 192 -1 216 217 193 -1 217 218 194 -1 194 218 219 -1 219 220 196 -1 196 220 221 -1 221 222 198 -1 222 223 199 -1 223 224 200 -1 224 225 201 -1 201 225 226 -1 226 227 203 -1 203 227 228 -1 204 228 229 -1 229 230 206 -1 206 230 231 -1 231 232 208 -1 208 232 233 -1 233 234 210 -1 210 234 235 -1 235 236 212 -1 212 236 237 -1 213 237 214 -1 238 239 215 -1 239 240 216 -1 216 240 241 -1 241 242 218 -1 242 243 219 -1 243 244 220 -1 244 245 221 -1 245 246 222 -1 222 246 247 -1 247 248 224 -1 224 248 249 -1 249 250 226 -1 226 250 251 -1 251 252 228 -1 228 252 253 -1 253 254 230 -1 230 254 255 -1 231 255 256 -1 232 256 257 -1 233 257 258 -1 258 259 235 -1 235 259 260 -1 236 260 261 -1 237 261 238 -1 262 263 239 -1 239 263 264 -1 240 264 265 -1 265 266 242 -1 266 267 243 -1 243 267 268 -1 244 268 269 -1 245 269 270 -1 246 270 271 -1 247 271 272 -1 272 273 249 -1 273 274 250 -1 250 274 275 -1 275 276 252 -1 252 276 277 -1 277 278 254 -1 278 279 255 -1 279 280 256 -1 280 281 257 -1 281 282 258 -1 282 283 259 -1 283 284 260 -1 284 285 261 -1 261 285 262 -1 286 287 263 -1 287 288 264 -1 264 288 289 -1 265 289 290 -1 266 290 291 -1 291 292 268 -1 292 293 269 -1 293 294 270 -1 270 294 295 -1 271 295 296 -1 296 297 273 -1 297 298 274 -1 274 298 299 -1 299 300 276 -1 300 301 277 -1 301 302 278 -1 278 302 303 -1 279 303 304 -1 304 305 281 -1 305 306 282 -1 282 306 307 -1 283 307 308 -1 308 309 285 -1 285 309 286 -1 310 311 287 -1 287 311 312 -1 288 312 313 -1 313 314 290 -1 290 314 315 -1 315 316 292 -1 316 317 293 -1 317 318 294 -1 294 318 319 -1 295 319 320 -1 320 321 297 -1 321 322 298 -1 298 322 323 -1 299 323 324 -1 324 325 301 -1 325 326 302 -1 302 326 327 -1 303 327 328 -1 304 328 329 -1 329 330 306 -1 306 330 331 -1 331 332 308 -1 308 332 333 -1 309 333 310 -1 334 335 311 -1 335 336 312 -1 312 336 337 -1 337 338 314 -1 338 339 315 -1 339 340 316 -1 316 340 341 -1 317 341 342 -1 318 342 343 -1 343 344 320 -1 344 345 321 -1 321 345 346 -1 346 347 323 -1 323 347 348 -1 324 348 349 -1 349 350 326 -1 326 350 351 -1 351 352 328 -1 352 353 329 -1 329 353 354 -1 330 354 355 -1 355 356 332 -1 356 357 333 -1 333 357 334 -1 334 358 359 -1 359 360 336 -1 360 361 337 -1 361 362 338 -1 362 363 339 -1 339 363 364 -1 364 365 341 -1 341 365 366 -1 366 367 343 -1 367 368 344 -1 368 369 345 -1 345 369 370 -1 370 371 347 -1 347 371 372 -1 348 372 373 -1 373 374 350 -1 350 374 375 -1 351 375 376 -1 352 376 377 -1 353 377 378 -1 378 379 355 -1 355 379 380 -1 356 380 381 -1 357 381 358 -1 358 382 383 -1 383 384 360 -1 360 384 385 -1 361 385 386 -1 386 387 363 -1 363 387 388 -1 364 388 389 -1 365 389 390 -1 366 390 391 -1 391 392 368 -1 392 393 369 -1 393 394 370 -1 370 394 395 -1 371 395 396 -1 372 396 397 -1 373 397 398 -1 374 398 399 -1 399 400 376 -1 400 401 377 -1 377 401 402 -1 402 403 379 -1 379 403 404 -1 380 404 405 -1 405 382 358 -1 382 406 407 -1 407 80 384 -1 384 80 408 -1 385 408 83 -1 386 83 84 -1 387 84 409 -1 409 410 389 -1 389 410 411 -1 390 411 412 -1 412 413 392 -1 392 413 68 -1 68 414 394 -1 414 70 395 -1 70 415 396 -1 396 415 416 -1 416 72 398 -1 72 417 399 -1 399 417 418 -1 400 418 419 -1 401 419 420 -1 420 75 403 -1 403 75 77 -1 404 77 421 -1 421 406 382 -1 423 108 107 -1 111 110 425 -1 428 113 112 -1 430 115 114 -1 432 117 116 -1 119 118 433 -1 121 120 435 -1 123 122 437 -1 125 124 439 -1 442 127 126 -1 129 128 443 -1 422 445 469 -1 448 424 423 -1 450 426 425 -1 452 428 427 -1 430 429 453 -1 456 432 431 -1 458 434 433 -1 460 436 435 -1 462 438 437 -1 440 439 463 -1 442 441 465 -1 468 444 443 -1 107 130 445 -1 109 108 423 -1 427 112 111 -1 429 114 113 -1 431 116 115 -1 433 118 117 -1 120 119 434 -1 437 122 121 -1 439 124 123 -1 441 126 125 -1 443 128 127 -1 445 130 129 -1 423 422 446 -1 449 425 424 -1 451 427 426 -1 453 429 428 -1 455 431 430 -1 433 432 456 -1 435 434 458 -1 461 437 436 -1 439 438 462 -1 441 440 464 -1 443 442 466 -1 469 445 444 -1 110 109 424 -1 446 469 493 -1 448 447 471 -1 449 448 472 -1 474 450 449 -1 451 450 474 -1 452 451 475 -1 453 452 476 -1 478 454 453 -1 479 455 454 -1 456 455 479 -1 457 456 480 -1 482 458 457 -1 483 459 458 -1 460 459 483 -1 461 460 484 -1 462 461 485 -1 487 463 462 -1 488 464 463 -1 465 464 488 -1 490 466 465 -1 491 467 466 -1 492 468 467 -1 469 468 492 -1 447 446 470 -1 494 470 493 -1 472 471 495 -1 497 473 472 -1 474 473 497 -1 475 474 498 -1 500 476 475 -1 477 476 500 -1 478 477 501 -1 479 478 502 -1 480 479 503 -1 505 481 480 -1 482 481 505 -1 507 483 482 -1 508 484 483 -1 509 485 484 -1 510 486 485 -1 487 486 510 -1 488 487 511 -1 513 489 488 -1 514 490 489 -1 515 491 490 -1 516 492 491 -1 493 492 516 -1 471 470 494 -1 518 494 517 -1 496 495 519 -1 497 496 520 -1 498 497 521 -1 523 499 498 -1 500 499 523 -1 525 501 500 -1 502 501 525 -1 527 503 502 -1 528 504 503 -1 505 504 528 -1 530 506 505 -1 507 506 530 -1 508 507 531 -1 533 509 508 -1 510 509 533 -1 511 510 534 -1 512 511 535 -1 513 512 536 -1 538 514 513 -1 539 515 514 -1 540 516 515 -1 517 516 540 -1 519 495 494 -1 518 541 565 -1 520 519 543 -1 545 521 520 -1 546 522 521 -1 523 522 546 -1 548 524 523 -1 549 525 524 -1 550 526 525 -1 527 526 550 -1 552 528 527 -1 553 529 528 -1 530 529 553 -1 531 530 554 -1 556 532 531 -1 533 532 556 -1 558 534 533 -1 535 534 558 -1 560 536 535 -1 537 536 560 -1 562 538 537 -1 563 539 538 -1 540 539 563 -1 565 541 540 -1 543 519 518 -1 542 565 589 -1 568 544 543 -1 545 544 568 -1 570 546 545 -1 547 546 570 -1 548 547 571 -1 549 548 572 -1 574 550 549 -1 575 551 550 -1 552 551 575 -1 553 552 576 -1 578 554 553 -1 579 555 554 -1 556 555 579 -1 557 556 580 -1 582 558 557 -1 559 558 582 -1 584 560 559 -1 561 560 584 -1 586 562 561 -1 563 562 586 -1 588 564 563 -1 589 565 564 -1 567 543 542 -1 566 589 613 -1 592 568 567 -1 569 568 592 -1 594 570 569 -1 571 570 594 -1 572 571 595 -1 597 573 572 -1 574 573 597 -1 575 574 598 -1 576 575 599 -1 601 577 576 -1 578 577 601 -1 603 579 578 -1 604 580 579 -1 581 580 604 -1 582 581 605 -1 607 583 582 -1 608 584 583 -1 609 585 584 -1 586 585 609 -1 587 586 610 -1 612 588 587 -1 613 589 588 -1 567 566 590 -1 590 613 637 -1 592 591 615 -1 617 593 592 -1 594 593 617 -1 619 595 594 -1 596 595 619 -1 621 597 596 -1 622 598 597 -1 599 598 622 -1 600 599 623 -1 625 601 600 -1 602 601 625 -1 603 602 626 -1 628 604 603 -1 605 604 628 -1 606 605 629 -1 631 607 606 -1 608 607 631 -1 633 609 608 -1 634 610 609 -1 635 611 610 -1 612 611 635 -1 637 613 612 -1 615 591 590 -1 638 614 637 -1 640 616 615 -1 617 616 640 -1 642 618 617 -1 643 619 618 -1 620 619 643 -1 645 621 620 -1 646 622 621 -1 623 622 646 -1 624 623 647 -1 625 624 648 -1 650 626 625 -1 651 627 626 -1 628 627 651 -1 629 628 652 -1 654 630 629 -1 655 631 630 -1 632 631 655 -1 657 633 632 -1 634 633 657 -1 635 634 658 -1 636 635 659 -1 661 637 636 -1 639 615 614 -1 638 661 673 -1 76 640 639 -1 641 640 76 -1 663 642 641 -1 73 643 642 -1 664 644 643 -1 665 645 644 -1 646 645 665 -1 647 646 666 -1 648 647 667 -1 649 648 71 -1 668 650 649 -1 669 651 650 -1 652 651 669 -1 671 653 652 -1 654 653 671 -1 655 654 67 -1 656 655 66 -1 672 657 656 -1 658 657 672 -1 659 658 82 -1 79 660 659 -1 673 661 660 -1 662 639 638 -1 ]
    }
}

# R-0207 Body
Shape {
    appearance Appearance {
        material USE CoatingBlue
    }
    geometry IndexedFaceSet {
        coord Coordinate {
            point [ -1.240157 0.000000 0.472441 1.240157 0.000000 0.472441 -1.240157 0.154763 0.472441 -0.925197 0.472441 0.472441 -1.224742 0.252931 0.472441 -1.180005 0.341489 0.472441 -1.110326 0.411770 0.472441 -1.022525 0.456893 0.472441 0.925197 0.472441 0.472441 1.240157 0.154763 0.472441 1.022525 0.456893 0.472441 1.110326 0.411770 0.472441 1.180005 0.341489 0.472441 1.224742 0.252931 0.472441 -0.925197 0.456343 0.350164 -1.240157 0.149489 0.432386 -1.022525 0.441324 0.354188 -1.110326 0.397739 0.365867 -1.180005 0.329853 0.384057 -1.224742 0.244312 0.406978 1.240157 0.149489 0.432385 0.925197 0.456343 0.350164 1.224742 0.244312 0.406978 1.180005 0.329853 0.384057 1.110326 0.397739 0.365867 1.022525 0.441324 0.354188 -0.925197 0.409146 0.236220 -1.240157 0.134028 0.395060 -1.022525 0.395681 0.243995 -1.110326 0.356603 0.266556 -1.180005 0.295738 0.301696 -1.224742 0.219044 0.345976 1.240157 0.134028 0.395060 0.925197 0.409146 0.236220 1.224742 0.219044 0.345976 1.180005 0.295738 0.301696 1.110326 0.356603 0.266556 1.022525 0.395681 0.243995 -0.925197 0.334066 0.138375 -1.240157 0.109434 0.363007 -1.022525 0.323072 0.149369 -1.110326 0.291165 0.181276 -1.180005 0.241469 0.230972 -1.224742 0.178849 0.293592 1.240157 0.109434 0.363007 0.925197 0.334066 0.138375 1.224742 0.178849 0.293592 1.180005 0.241469 0.230972 1.110326 0.291165 0.181276 1.022525 0.323072 0.149369 -0.925197 0.236220 0.063295 -1.240157 0.077381 0.338413 -1.022525 0.228446 0.076760 -1.110326 0.205885 0.115838 -1.180005 0.170745 0.176703 -1.224742 0.126465 0.253397 1.240157 0.077381 0.338413 0.925197 0.236220 0.063295 1.224742 0.126465 0.253397 1.180005 0.170745 0.176703 1.110326 0.205885 0.115838 1.022525 0.228446 0.076760 -0.925197 0.122277 0.016098 -1.240157 0.040056 0.322952 -1.022525 0.118253 0.031117 -1.110326 0.106574 0.074702 -1.180005 0.088384 0.142588 -1.224742 0.065463 0.228129 1.240157 0.040055 0.322952 0.925197 0.122277 0.016098 1.224742 0.065463 0.228129 1.180005 0.088384 0.142588 1.110326 0.106574 0.074702 1.022525 0.118253 0.031116 -0.925197 -0.000000 -0.000000 -1.240157 -0.000000 0.317678 -1.022525 -0.000000 0.015548 -1.110326 -0.000000 0.060671 -1.180005 -0.000000 0.130952 -1.224742 -0.000000 0.219510 1.240157 -0.000000 0.317678 0.925197 -0.000000 -0.000000 1.224742 -0.000000 0.219510 1.180005 -0.000000 0.130952 1.110326 -0.000000 0.060671 1.022525 -0.000000 0.015548 -0.925197 -0.122277 0.016098 -1.240157 -0.040056 0.322952 -1.022525 -0.118253 0.031117 -1.110326 -0.106574 0.074702 -1.180005 -0.088384 0.142588 -1.224742 -0.065463 0.228129 1.240157 -0.040055 0.322952 0.925197 -0.122277 0.016098 1.224742 -0.065463 0.228129 1.180005 -0.088384 0.142588 1.110326 -0.106574 0.074702 1.022525 -0.118253 0.031116 -0.925197 -0.236220 0.063295 -1.240157 -0.077381 0.338413 -1.022525 -0.228446 0.076760 -1.110326 -0.205885 0.115838 -1.180005 -0.170745 0.176703 -1.224742 -0.126465 0.253397 1.240157 -0.077381 0.338413 0.925197 -0.236220 0.063295 1.224742 -0.126465 0.253397 1.180005 -0.170745 0.176703 1.110326 -0.205885 0.115838 1.022525 -0.228446 0.076760 -0.925197 -0.334066 0.138375 -1.240157 -0.109434 0.363007 -1.022525 -0.323072 0.149369 -1.110326 -0.291165 0.181276 -1.180005 -0.241469 0.230972 -1.224742 -0.178849 0.293592 1.240157 -0.109434 0.363007 0.925197 -0.334066 0.138375 1.224742 -0.178849 0.293592 1.180005 -0.241469 0.230972 1.110326 -0.291165 0.181276 1.022525 -0.323072 0.149369 -0.925197 -0.409146 0.236220 -1.240157 -0.134028 0.395060 -1.022525 -0.395681 0.243995 -1.110326 -0.356603 0.266556 -1.180005 -0.295738 0.301696 -1.224742 -0.219044 0.345976 1.240157 -0.134028 0.395060 0.925197 -0.409146 0.236220 1.224742 -0.219044 0.345976 1.180005 -0.295738 0.301696 1.110326 -0.356603 0.266556 1.022525 -0.395681 0.243995 -0.925197 -0.456343 0.350164 -1.240157 -0.149489 0.432386 -1.022525 -0.441324 0.354188 -1.110326 -0.397739 0.365867 -1.180005 -0.329853 0.384057 -1.224742 -0.244312 0.406978 1.240157 -0.149489 0.432385 0.925197 -0.456343 0.350164 1.224742 -0.244312 0.406978 1.180005 -0.329853 0.384057 1.110326 -0.397739 0.365867 1.022525 -0.441324 0.354188 -0.925197 -0.472441 0.472441 -1.240157 -0.154763 0.472441 -1.022525 -0.456893 0.472441 -1.110326 -0.411770 0.472441 -1.180005 -0.341489 0.472441 -1.224742 -0.252931 0.472441 1.240157 -0.154763 0.472441 0.925197 -0.472441 0.472441 1.224742 -0.252931 0.472441 1.180005 -0.341489 0.472441 1.110326 -0.411770 0.472441 1.022525 -0.456893 0.472441 -0.925197 -0.456343 0.594718 -1.240157 -0.149489 0.512497 -1.022525 -0.441324 0.590694 -1.110326 -0.397739 0.579015 -1.180005 -0.329853 0.560825 -1.224742 -0.244312 0.537904 1.240157 -0.149489 0.512496 0.925197 -0.456343 0.594718 1.224742 -0.244312 0.537904 1.180005 -0.329853 0.560825 1.110326 -0.397739 0.579015 1.022525 -0.441324 0.590693 -0.925197 -0.409146 0.708661 -1.240157 -0.134028 0.549822 -1.022525 -0.395681 0.700887 -1.110326 -0.356603 0.678326 -1.180005 -0.295738 0.643186 -1.224742 -0.219044 0.598906 1.240157 -0.134028 0.549822 0.925197 -0.409146 0.708661 1.224742 -0.219044 0.598906 1.180005 -0.295738 0.643185 1.110326 -0.356603 0.678326 1.022525 -0.395681 0.700887 -0.925197 -0.334066 0.806507 -1.240157 -0.109434 0.581875 -1.022525 -0.323072 0.795513 -1.110326 -0.291165 0.763606 -1.180005 -0.241469 0.713910 -1.224742 -0.178849 0.651290 1.240157 -0.109434 0.581874 0.925197 -0.334066 0.806507 1.224742 -0.178849 0.651290 1.180005 -0.241469 0.713910 1.110326 -0.291165 0.763606 1.022525 -0.323072 0.795513 -0.925197 -0.236220 0.881587 -1.240157 -0.077381 0.606469 -1.022525 -0.228446 0.868122 -1.110326 -0.205885 0.829044 -1.180005 -0.170745 0.768179 -1.224742 -0.126465 0.691485 1.240157 -0.077381 0.606469 0.925197 -0.236220 0.881587 1.224742 -0.126465 0.691485 1.180005 -0.170745 0.768179 1.110326 -0.205885 0.829044 1.022525 -0.228446 0.868122 -0.925197 -0.122277 0.928784 -1.240157 -0.040055 0.621930 -1.022525 -0.118252 0.913765 -1.110326 -0.106574 0.870180 -1.180005 -0.088384 0.802294 -1.224742 -0.065463 0.716753 1.240157 -0.040055 0.621930 0.925197 -0.122277 0.928784 1.224742 -0.065463 0.716753 1.180005 -0.088384 0.802294 1.110326 -0.106574 0.870180 1.022525 -0.118252 0.913765 -0.925197 0.000000 0.944882 -1.240157 0.000000 0.627204 -1.022525 0.000000 0.929334 -1.110326 0.000000 0.884211 -1.180005 0.000000 0.813930 -1.224742 0.000000 0.725372 1.240157 0.000000 0.627203 0.925197 0.000000 0.944882 1.224742 0.000000 0.725371 1.180005 0.000000 0.813930 1.110326 0.000000 0.884211 1.022525 0.000000 0.929334 -0.925197 0.122277 0.928784 -1.240157 0.040055 0.621930 -1.022525 0.118253 0.913765 -1.110326 0.106574 0.870180 -1.180005 0.088384 0.802294 -1.224742 0.065463 0.716753 1.240157 0.040055 0.621930 0.925197 0.122277 0.928784 1.224742 0.065463 0.716753 1.180005 0.088384 0.802294 1.110326 0.106574 0.870180 1.022525 0.118253 0.913765 -0.925197 0.236220 0.881587 -1.240157 0.077381 0.606469 -1.022525 0.228446 0.868122 -1.110326 0.205885 0.829044 -1.180005 0.170745 0.768179 -1.224742 0.126465 0.691485 1.240157 0.077381 0.606469 0.925197 0.236220 0.881587 1.224742 0.126465 0.691485 1.180005 0.170745 0.768179 1.110326 0.205885 0.829044 1.022525 0.228446 0.868122 -0.925197 0.334066 0.806507 -1.240157 0.109434 0.581875 -1.022525 0.323072 0.795513 -1.110326 0.291165 0.763606 -1.180005 0.241469 0.713910 -1.224742 0.178849 0.651290 1.240157 0.109434 0.581874 0.925197 0.334066 0.806507 1.224742 0.178849 0.651290 1.180005 0.241469 0.713910 1.110326 0.291165 0.763606 1.022525 0.323072 0.795513 -0.925197 0.409146 0.708662 -1.240157 0.134028 0.549822 -1.022525 0.395681 0.700887 -1.110326 0.356603 0.678326 -1.180005 0.295738 0.643186 -1.224742 0.219044 0.598906 1.240157 0.134028 0.549822 0.925197 0.409146 0.708661 1.224742 0.219044 0.598906 1.180005 0.295738 0.643186 1.110326 0.356603 0.678326 1.022525 0.395681 0.700887 -0.925197 0.456343 0.594718 -1.240157 0.149489 0.512496 -1.022525 0.441324 0.590693 -1.110326 0.397739 0.579015 -1.180005 0.329853 0.560825 -1.224742 0.244312 0.537904 1.240157 0.149489 0.512496 0.925197 0.456343 0.594718 1.224742 0.244312 0.537904 1.180005 0.329853 0.560825 1.110326 0.397739 0.579015 1.022525 0.441324 0.590693 ]
        }
        coordIndex [ 8 14 3 -1 0 15 27 -1 285 3 278 -1 21 26 14 -1 0 27 39 -1 1 32 20 -1 33 38 26 -1 0 39 51 -1 1 44 32 -1 45 50 38 -1 0 51 63 -1 1 56 44 -1 50 69 62 -1 0 63 75 -1 1 68 56 -1 69 74 62 -1 0 75 87 -1 1 80 68 -1 81 86 74 -1 0 87 99 -1 1 92 80 -1 93 98 86 -1 0 99 111 -1 1 104 92 -1 105 110 98 -1 0 111 123 -1 1 116 104 -1 117 122 110 -1 0 123 135 -1 1 128 116 -1 129 134 122 -1 0 135 147 -1 1 140 128 -1 141 146 134 -1 0 147 159 -1 1 152 140 -1 153 158 146 -1 0 159 171 -1 1 164 152 -1 165 170 158 -1 0 171 183 -1 1 176 164 -1 177 182 170 -1 0 183 195 -1 1 188 176 -1 189 194 182 -1 0 195 207 -1 1 200 188 -1 194 213 206 -1 0 207 219 -1 1 212 200 -1 213 218 206 -1 0 219 231 -1 1 224 212 -1 225 230 218 -1 0 231 243 -1 1 236 224 -1 237 242 230 -1 0 243 255 -1 1 248 236 -1 242 261 254 -1 0 255 267 -1 1 260 248 -1 261 266 254 -1 0 267 279 -1 1 272 260 -1 266 285 278 -1 1 284 272 -1 0 2 15 -1 1 20 9 -1 1 9 284 -1 14 7 3 -1 16 6 7 -1 6 18 5 -1 5 19 4 -1 4 15 2 -1 21 10 25 -1 25 11 24 -1 11 23 24 -1 23 13 22 -1 22 9 20 -1 26 16 14 -1 28 17 16 -1 29 18 17 -1 30 19 18 -1 31 15 19 -1 33 25 37 -1 25 36 37 -1 24 35 36 -1 23 34 35 -1 22 32 34 -1 38 28 26 -1 28 41 29 -1 29 42 30 -1 30 43 31 -1 31 39 27 -1 45 37 49 -1 49 36 48 -1 48 35 47 -1 47 34 46 -1 46 32 44 -1 38 52 40 -1 52 41 40 -1 53 42 41 -1 42 55 43 -1 43 51 39 -1 45 61 57 -1 49 60 61 -1 48 59 60 -1 47 58 59 -1 46 56 58 -1 62 52 50 -1 64 53 52 -1 65 54 53 -1 66 55 54 -1 67 51 55 -1 69 61 73 -1 61 72 73 -1 60 71 72 -1 59 70 71 -1 58 68 70 -1 74 64 62 -1 64 77 65 -1 65 78 66 -1 78 67 66 -1 67 75 63 -1 81 73 85 -1 73 84 85 -1 84 71 83 -1 83 70 82 -1 70 80 82 -1 86 76 74 -1 88 77 76 -1 89 78 77 -1 90 79 78 -1 91 75 79 -1 81 97 93 -1 85 96 97 -1 96 83 95 -1 83 94 95 -1 82 92 94 -1 98 88 86 -1 88 101 89 -1 101 90 89 -1 90 103 91 -1 91 99 87 -1 93 109 105 -1 109 96 108 -1 96 107 108 -1 95 106 107 -1 106 92 104 -1 98 112 100 -1 112 101 100 -1 113 102 101 -1 102 115 103 -1 103 111 99 -1 105 121 117 -1 121 108 120 -1 120 107 119 -1 119 106 118 -1 118 104 116 -1 110 124 112 -1 124 113 112 -1 113 126 114 -1 126 115 114 -1 127 111 115 -1 117 133 129 -1 121 132 133 -1 120 131 132 -1 119 130 131 -1 118 128 130 -1 134 124 122 -1 136 125 124 -1 125 138 126 -1 126 139 127 -1 127 135 123 -1 129 145 141 -1 133 144 145 -1 144 131 143 -1 131 142 143 -1 142 128 140 -1 146 136 134 -1 148 137 136 -1 137 150 138 -1 150 139 138 -1 151 135 139 -1 141 157 153 -1 145 156 157 -1 144 155 156 -1 143 154 155 -1 142 152 154 -1 158 148 146 -1 160 149 148 -1 161 150 149 -1 162 151 150 -1 163 147 151 -1 165 157 169 -1 169 156 168 -1 168 155 167 -1 155 166 167 -1 154 164 166 -1 170 160 158 -1 172 161 160 -1 173 162 161 -1 174 163 162 -1 175 159 163 -1 177 169 181 -1 181 168 180 -1 180 167 179 -1 167 178 179 -1 178 164 176 -1 182 172 170 -1 184 173 172 -1 185 174 173 -1 186 175 174 -1 175 183 171 -1 189 181 193 -1 181 192 193 -1 192 179 191 -1 191 178 190 -1 190 176 188 -1 194 184 182 -1 184 197 185 -1 197 186 185 -1 198 187 186 -1 199 183 187 -1 201 193 205 -1 193 204 205 -1 192 203 204 -1 191 202 203 -1 190 200 202 -1 206 196 194 -1 208 197 196 -1 197 210 198 -1 198 211 199 -1 199 207 195 -1 213 205 217 -1 217 204 216 -1 216 203 215 -1 203 214 215 -1 202 212 214 -1 206 220 208 -1 220 209 208 -1 221 210 209 -1 222 211 210 -1 223 207 211 -1 213 229 225 -1 217 228 229 -1 216 227 228 -1 227 214 226 -1 214 224 226 -1 218 232 220 -1 220 233 221 -1 221 234 222 -1 222 235 223 -1 223 231 219 -1 225 241 237 -1 229 240 241 -1 240 227 239 -1 239 226 238 -1 238 224 236 -1 242 232 230 -1 244 233 232 -1 245 234 233 -1 246 235 234 -1 247 231 235 -1 237 253 249 -1 241 252 253 -1 240 251 252 -1 239 250 251 -1 238 248 250 -1 254 244 242 -1 256 245 244 -1 245 258 246 -1 246 259 247 -1 259 243 247 -1 249 265 261 -1 265 252 264 -1 264 251 263 -1 263 250 262 -1 250 260 262 -1 254 268 256 -1 268 257 256 -1 269 258 257 -1 270 259 258 -1 271 255 259 -1 261 277 273 -1 277 264 276 -1 276 263 275 -1 263 274 275 -1 262 272 274 -1 278 268 266 -1 280 269 268 -1 281 270 269 -1 270 283 271 -1 271 279 267 -1 285 277 289 -1 277 288 289 -1 288 275 287 -1 275 286 287 -1 286 272 284 -1 278 7 280 -1 280 6 281 -1 6 282 281 -1 282 4 283 -1 283 2 279 -1 285 10 8 -1 289 11 10 -1 288 12 11 -1 287 13 12 -1 286 9 13 -1 0 279 2 -1 8 21 14 -1 285 8 3 -1 21 33 26 -1 33 45 38 -1 45 57 50 -1 50 57 69 -1 69 81 74 -1 81 93 86 -1 93 105 98 -1 105 117 110 -1 117 129 122 -1 129 141 134 -1 141 153 146 -1 153 165 158 -1 165 177 170 -1 177 189 182 -1 189 201 194 -1 194 201 213 -1 213 225 218 -1 225 237 230 -1 237 249 242 -1 242 249 261 -1 261 273 266 -1 266 273 285 -1 14 16 7 -1 16 17 6 -1 6 17 18 -1 5 18 19 -1 4 19 15 -1 21 8 10 -1 25 10 11 -1 11 12 23 -1 23 12 13 -1 22 13 9 -1 26 28 16 -1 28 29 17 -1 29 30 18 -1 30 31 19 -1 31 27 15 -1 33 21 25 -1 25 24 36 -1 24 23 35 -1 23 22 34 -1 22 20 32 -1 38 40 28 -1 28 40 41 -1 29 41 42 -1 30 42 43 -1 31 43 39 -1 45 33 37 -1 49 37 36 -1 48 36 35 -1 47 35 34 -1 46 34 32 -1 38 50 52 -1 52 53 41 -1 53 54 42 -1 42 54 55 -1 43 55 51 -1 45 49 61 -1 49 48 60 -1 48 47 59 -1 47 46 58 -1 46 44 56 -1 62 64 52 -1 64 65 53 -1 65 66 54 -1 66 67 55 -1 67 63 51 -1 69 57 61 -1 61 60 72 -1 60 59 71 -1 59 58 70 -1 58 56 68 -1 74 76 64 -1 64 76 77 -1 65 77 78 -1 78 79 67 -1 67 79 75 -1 81 69 73 -1 73 72 84 -1 84 72 71 -1 83 71 70 -1 70 68 80 -1 86 88 76 -1 88 89 77 -1 89 90 78 -1 90 91 79 -1 91 87 75 -1 81 85 97 -1 85 84 96 -1 96 84 83 -1 83 82 94 -1 82 80 92 -1 98 100 88 -1 88 100 101 -1 101 102 90 -1 90 102 103 -1 91 103 99 -1 93 97 109 -1 109 97 96 -1 96 95 107 -1 95 94 106 -1 106 94 92 -1 98 110 112 -1 112 113 101 -1 113 114 102 -1 102 114 115 -1 103 115 111 -1 105 109 121 -1 121 109 108 -1 120 108 107 -1 119 107 106 -1 118 106 104 -1 110 122 124 -1 124 125 113 -1 113 125 126 -1 126 127 115 -1 127 123 111 -1 117 121 133 -1 121 120 132 -1 120 119 131 -1 119 118 130 -1 118 116 128 -1 134 136 124 -1 136 137 125 -1 125 137 138 -1 126 138 139 -1 127 139 135 -1 129 133 145 -1 133 132 144 -1 144 132 131 -1 131 130 142 -1 142 130 128 -1 146 148 136 -1 148 149 137 -1 137 149 150 -1 150 151 139 -1 151 147 135 -1 141 145 157 -1 145 144 156 -1 144 143 155 -1 143 142 154 -1 142 140 152 -1 158 160 148 -1 160 161 149 -1 161 162 150 -1 162 163 151 -1 163 159 147 -1 165 153 157 -1 169 157 156 -1 168 156 155 -1 155 154 166 -1 154 152 164 -1 170 172 160 -1 172 173 161 -1 173 174 162 -1 174 175 163 -1 175 171 159 -1 177 165 169 -1 181 169 168 -1 180 168 167 -1 167 166 178 -1 178 166 164 -1 182 184 172 -1 184 185 173 -1 185 186 174 -1 186 187 175 -1 175 187 183 -1 189 177 181 -1 181 180 192 -1 192 180 179 -1 191 179 178 -1 190 178 176 -1 194 196 184 -1 184 196 197 -1 197 198 186 -1 198 199 187 -1 199 195 183 -1 201 189 193 -1 193 192 204 -1 192 191 203 -1 191 190 202 -1 190 188 200 -1 206 208 196 -1 208 209 197 -1 197 209 210 -1 198 210 211 -1 199 211 207 -1 213 201 205 -1 217 205 204 -1 216 204 203 -1 203 202 214 -1 202 200 212 -1 206 218 220 -1 220 221 209 -1 221 222 210 -1 222 223 211 -1 223 219 207 -1 213 217 229 -1 217 216 228 -1 216 215 227 -1 227 215 214 -1 214 212 224 -1 218 230 232 -1 220 232 233 -1 221 233 234 -1 222 234 235 -1 223 235 231 -1 225 229 241 -1 229 228 240 -1 240 228 227 -1 239 227 226 -1 238 226 224 -1 242 244 232 -1 244 245 233 -1 245 246 234 -1 246 247 235 -1 247 243 231 -1 237 241 253 -1 241 240 252 -1 240 239 251 -1 239 238 250 -1 238 236 248 -1 254 256 244 -1 256 257 245 -1 245 257 258 -1 246 258 259 -1 259 255 243 -1 249 253 265 -1 265 253 252 -1 264 252 251 -1 263 251 250 -1 250 248 260 -1 254 266 268 -1 268 269 257 -1 269 270 258 -1 270 271 259 -1 271 267 255 -1 261 265 277 -1 277 265 264 -1 276 264 263 -1 263 262 274 -1 262 260 272 -1 278 280 268 -1 280 281 269 -1 281 282 270 -1 270 282 283 -1 271 283 279 -1 285 273 277 -1 277 276 288 -1 288 276 275 -1 275 274 286 -1 286 274 272 -1 278 3 7 -1 280 7 6 -1 6 5 282 -1 282 5 4 -1 283 4 2 -1 285 289 10 -1 289 288 11 -1 288 287 12 -1 287 286 13 -1 286 284 9 -1 ]
    }
}
