#VRML V2.0 utf8

# 'R-0805 Body'
Shape {
    appearance Appearance {
        material Material {
            ambientIntensity 0.179
            diffuseColor 0.995 0.991 0.913
            specularColor 0.103 0.088 0.076
            emissiveColor 0.0 0.0 0.0
            shininess 0.1
            transparency 0.0
        }
    }
    geometry IndexedFaceSet {
        coord Coordinate {
            point [ 0.383858 0.246063 0.187008 -0.383858 0.246063 0.187008
            -0.383858 -0.246063 0.187008 0.383858 -0.246063 0.187008 0.383858
            0.246063 0.009843 0.383858 -0.246063 0.009843 -0.383858 0.246063
            0.009843 -0.383858 -0.246063 0.009843 ]
        }
        coordIndex [ 7 4 5 -1 6 0 4 -1 7 3 2 -1 7 6 4 -1 6 1 0 -1 7 5 3 -1 ]
    }
}

# 'R-0805 Contacts'
Shape {
    appearance Appearance {
        material Material {
            ambientIntensity 0.271
            diffuseColor 0.824 0.820 0.781
            specularColor 0.328 0.258 0.172
            emissiveColor 0.0 0.0 0.0
            shininess 0.70
            transparency 0.0
        }
    }
    geometry IndexedFaceSet {
        coord Coordinate {
            point [ -0.383858 0.246063 0.000000 -0.255906 0.246063 0.000000
            -0.383858 -0.246063 -0.000000 -0.255906 -0.246063 -0.000000
            -0.255906 0.246063 0.009843 -0.255906 -0.246063 0.009843 -0.383858
            0.246063 0.009843 -0.383858 -0.246063 0.009843 -0.383858 0.246063
            0.187008 -0.383858 -0.246063 0.187008 -0.255906 0.246063 0.187008
            -0.255906 -0.246063 0.187008 -0.255906 0.246063 0.196850 -0.255906
            -0.246063 0.196850 -0.383858 0.246063 0.196850 -0.383858 -0.246063
            0.196850 -0.393454 0.246063 0.189198 -0.393701 0.246063 0.187008
            -0.393701 -0.246063 0.187008 -0.393454 -0.246063 0.189198 -0.392726
            0.246063 0.191278 -0.392726 -0.246063 0.191278 -0.391554 0.246063
            0.193145 -0.391554 -0.246063 0.193144 -0.389995 0.246063 0.194703
            -0.389995 -0.246063 0.194703 -0.388129 0.246063 0.195876 -0.388129
            -0.246063 0.195876 -0.386048 0.246063 0.196604 -0.386048 -0.246063
            0.196604 -0.393701 0.246063 0.009843 -0.393701 -0.246063 0.009843
            -0.386048 0.246063 0.000247 -0.386048 -0.246063 0.000247 -0.388129
            0.246063 0.000975 -0.388129 -0.246063 0.000975 -0.389995 0.246063
            0.002147 -0.389995 -0.246063 0.002147 -0.391554 0.246063 0.003706
            -0.391554 -0.246063 0.003706 -0.392726 0.246063 0.005572 -0.392726
            -0.246063 0.005572 -0.393454 0.246063 0.007652 -0.393454 -0.246063
            0.007652 0.383858 0.246063 0.000000 0.255906 0.246063 0.000000
            0.383858 -0.246063 -0.000000 0.255906 -0.246063 -0.000000 0.255906
            0.246063 0.009843 0.255906 -0.246063 0.009843 0.383858 0.246063
            0.009843 0.383858 -0.246063 0.009843 0.383858 0.246063 0.187008
            0.383858 -0.246063 0.187008 0.255906 0.246063 0.187008 0.255906
            -0.246063 0.187008 0.255906 0.246063 0.196850 0.255906 -0.246063
            0.196850 0.383858 0.246063 0.196850 0.383858 -0.246063 0.196850
            0.393454 0.246063 0.189198 0.393701 0.246063 0.187008 0.393701
            -0.246063 0.187008 0.393454 -0.246063 0.189198 0.392726 0.246063
            0.191278 0.392726 -0.246063 0.191278 0.391554 0.246063 0.193145
            0.391554 -0.246063 0.193144 0.389995 0.246063 0.194703 0.389995
            -0.246063 0.194703 0.388129 0.246063 0.195876 0.388129 -0.246063
            0.195876 0.386048 0.246063 0.196604 0.386048 -0.246063 0.196604
            0.393701 0.246063 0.009843 0.393701 -0.246063 0.009843 0.386048
            0.246063 0.000247 0.386048 -0.246063 0.000247 0.388129 0.246063
            0.000975 0.388129 -0.246063 0.000975 0.389995 0.246063 0.002147
            0.389995 -0.246063 0.002147 0.391554 0.246063 0.003706 0.391554
            -0.246063 0.003706 0.392726 0.246063 0.005572 0.392726 -0.246063
            0.005572 0.393454 0.246063 0.007652 0.393454 -0.246063 0.007652 ]
        }
        coordIndex [ 33 0 2 -1 3 0 1 -1 22 25 24 -1 16 21 20 -1 7 3 5 -1 6 17 8
        -1 31 17 30 -1 5 1 4 -1 15 11 13 -1 38 41 40 -1 34 37 36 -1 42 31 30 -1
        71 68 70 -1 40 43 42 -1 36 39 38 -1 26 29 28 -1 4 0 6 -1 20 23 22 -1 12
        8 14 -1 28 15 14 -1 32 6 0 -1 34 6 32 -1 36 6 34 -1 38 6 36 -1 40 6 38
        -1 42 6 40 -1 30 6 42 -1 32 35 34 -1 16 8 17 -1 20 8 16 -1 22 8 20 -1 22
        24 8 -1 24 26 8 -1 26 28 8 -1 28 14 8 -1 7 33 2 -1 7 35 33 -1 7 37 35 -1
        7 39 37 -1 7 41 39 -1 7 43 41 -1 7 31 43 -1 15 12 14 -1 9 19 18 -1 9 21
        19 -1 9 23 21 -1 19 17 18 -1 25 23 9 -1 27 25 9 -1 29 27 9 -1 15 29 9 -1
        7 18 31 -1 44 77 46 -1 44 47 45 -1 69 66 68 -1 65 60 64 -1 47 51 49 -1
        61 50 52 -1 61 75 74 -1 45 49 48 -1 55 59 57 -1 85 82 84 -1 81 78 80 -1
        75 86 74 -1 87 84 86 -1 83 80 82 -1 73 70 72 -1 44 48 50 -1 67 64 66 -1
        52 56 58 -1 59 72 58 -1 76 44 50 -1 78 76 50 -1 80 78 50 -1 82 80 50 -1
        84 82 50 -1 86 84 50 -1 74 86 50 -1 79 76 78 -1 60 61 52 -1 64 60 52 -1
        66 64 52 -1 66 52 68 -1 68 52 70 -1 70 52 72 -1 72 52 58 -1 51 46 77 -1
        51 77 79 -1 51 79 81 -1 51 81 83 -1 51 83 85 -1 51 85 87 -1 51 87 75 -1
        56 59 58 -1 53 62 63 -1 53 63 65 -1 53 65 67 -1 61 63 62 -1 69 53 67 -1
        71 53 69 -1 73 53 71 -1 59 53 73 -1 62 51 75 -1 24 27 26 -1 33 32 0 -1 3
        2 0 -1 22 23 25 -1 16 19 21 -1 7 2 3 -1 6 30 17 -1 31 18 17 -1 5 3 1 -1
        15 9 11 -1 38 39 41 -1 34 35 37 -1 42 43 31 -1 71 69 68 -1 40 41 43 -1
        36 37 39 -1 26 27 29 -1 4 1 0 -1 20 21 23 -1 12 10 8 -1 28 29 15 -1 32
        33 35 -1 15 13 12 -1 19 16 17 -1 7 9 18 -1 44 76 77 -1 44 46 47 -1 69 67
        66 -1 65 63 60 -1 47 46 51 -1 61 74 50 -1 61 62 75 -1 45 47 49 -1 55 53
        59 -1 85 83 82 -1 81 79 78 -1 75 87 86 -1 87 85 84 -1 83 81 80 -1 73 71
        70 -1 44 45 48 -1 67 65 64 -1 52 54 56 -1 59 73 72 -1 79 77 76 -1 56 57
        59 -1 61 60 63 -1 62 53 51 -1 24 25 27 -1 ]
    }
}

# 'R-0805 Coat'
Shape {
    appearance Appearance {
        material Material {
            diffuseColor 0.082 0.086 0.094
            emissiveColor 0.000 0.000 0.000
            specularColor 0.066 0.063 0.063
            ambientIntensity 0.638
            transparency 0.0
            shininess 0.3
        }
    }
    geometry IndexedFaceSet {
        coord Coordinate {
            point [ 0.255906 0.246063 0.196850 -0.255906 0.246063 0.196850
            0.255906 -0.246063 0.196850 -0.255906 -0.246063 0.196850 -0.255906
            0.246063 0.187008 -0.255906 -0.246063 0.187008 0.255906 0.246063
            0.187008 0.255906 -0.246063 0.187008 ]
        }
        coordIndex [ 3 0 1 -1 6 1 0 -1 7 3 5 -1 3 2 0 -1 6 4 1 -1 7 2 3 -1 ]
    }
}
