#VRML V2.0 utf8

# 'SOT-23-6 Marking'
Shape {
    appearance Appearance {
        material Material {
            ambientIntensity 0.082
            diffuseColor 0.691 0.664 0.598
            specularColor 0.000 0.000 0.000
            emissiveColor 0.0 0.0 0.0
            shininess 0.01
            transparency 0.0
        }
    }
    geometry IndexedFaceSet {
        coord Coordinate {
            point [ -0.393701 -0.059055 0.476378 -0.413283 -0.061529 0.476378
            -0.431634 -0.068795 0.476378 -0.447602 -0.080396 0.476378 -0.460183
            -0.095604 0.476378 -0.468587 -0.113463 0.476378 -0.472286 -0.132851
            0.476378 -0.471046 -0.152550 0.476378 -0.464947 -0.171321 0.476378
            -0.454371 -0.187986 0.476378 -0.439983 -0.201497 0.476378 -0.422687
            -0.211006 0.476378 -0.403569 -0.215915 0.476378 -0.383832 -0.215915
            0.476378 -0.364715 -0.211006 0.476378 -0.347418 -0.201497 0.476378
            -0.333030 -0.187986 0.476378 -0.322455 -0.171321 0.476378 -0.316355
            -0.152550 0.476378 -0.315116 -0.132851 0.476378 -0.318814 -0.113463
            0.476378 -0.327218 -0.095604 0.476378 -0.339799 -0.080396 0.476378
            -0.355768 -0.068795 0.476378 -0.374119 -0.061529 0.476378 -0.393701
            -0.137795 0.476378 ]
        }
        coordIndex [ 8 25 7 -1 23 25 22 -1 1 25 0 -1 16 25 15 -1 9 25 8 -1 24 25
        23 -1 2 25 1 -1 17 25 16 -1 10 25 9 -1 0 25 24 -1 3 25 2 -1 18 25 17 -1
        11 25 10 -1 4 25 3 -1 19 25 18 -1 12 25 11 -1 5 25 4 -1 20 25 19 -1 13
        25 12 -1 6 25 5 -1 21 25 20 -1 14 25 13 -1 7 25 6 -1 22 25 21 -1 15 25
        14 -1 ]
    }
}

# 'SOT-23-6 Contacts'
Shape {
    appearance Appearance {
        material Material {
            ambientIntensity 0.271
            diffuseColor 0.824 0.820 0.781
            specularColor 0.328 0.258 0.172
            emissiveColor 0.0 0.0 0.0
            shininess 0.70
            transparency 0.0
        }
    }
    geometry IndexedFaceSet {
        coord Coordinate {
            point [ -0.295276 0.324803 0.354331 -0.452756 0.314961 0.295276
            -0.295276 0.314961 0.295276 -0.452756 0.324803 0.295276 -0.295276
            0.324803 0.295276 -0.452756 0.333232 0.294363 -0.295276 0.348545
            0.287311 -0.452756 0.354719 0.281500 -0.452756 0.362681 0.266640
            -0.295276 0.362681 0.266640 -0.295276 0.364102 0.258281 -0.295276
            0.374123 0.092487 -0.295276 0.472369 0.000000 -0.295276 0.451296
            0.002282 -0.452756 0.397580 0.034440 -0.452756 0.385615 0.051937
            -0.452756 0.377673 0.071589 -0.452756 0.551181 0.000000 -0.452756
            0.448627 0.067020 -0.452756 0.442454 0.072831 -0.452756 0.437667
            0.079830 -0.452756 0.434491 0.087691 -0.295276 0.434491 0.087691
            -0.295276 0.433071 0.096050 -0.452756 0.345876 0.352048 -0.295276
            0.345876 0.352048 -0.452756 0.365972 0.345307 -0.295276 0.365972
            0.345307 -0.452756 0.384159 0.334419 -0.295276 0.384159 0.334419
            -0.452756 0.399593 0.319891 -0.295276 0.399593 0.319891 -0.295276
            0.411558 0.302394 -0.452756 0.419499 0.282741 -0.295276 0.419499
            0.282741 -0.452756 0.463940 0.059968 -0.452756 0.472369 0.000000
            -0.452756 0.451296 0.002282 -0.452756 0.472369 0.059055 -0.452756
            0.551181 0.059055 -0.452756 0.324803 0.354331 -0.452756 0.314961
            0.354331 -0.452756 0.341271 0.291666 -0.452756 0.348545 0.287311
            -0.452756 0.359505 0.274501 -0.452756 0.411558 0.302394 -0.452756
            0.364102 0.258281 -0.452756 0.423049 0.261844 -0.452756 0.374123
            0.092487 -0.452756 0.433071 0.096050 -0.452756 0.413013 0.019911
            -0.452756 0.455902 0.062665 -0.452756 0.431200 0.009024 -0.295276
            0.472369 0.059055 -0.295276 0.551181 0.000000 -0.295276 0.551181
            0.059055 -0.295276 0.314961 0.354331 -0.295276 0.333232 0.294363
            -0.295276 0.341271 0.291666 -0.295276 0.354719 0.281500 -0.295276
            0.359505 0.274501 -0.295276 0.423049 0.261844 -0.295276 0.377673
            0.071589 -0.295276 0.385615 0.051937 -0.295276 0.437667 0.079830
            -0.295276 0.397580 0.034440 -0.295276 0.442454 0.072831 -0.295276
            0.413013 0.019911 -0.295276 0.448627 0.067020 -0.295276 0.431200
            0.009024 -0.295276 0.455902 0.062665 -0.295276 0.463940 0.059968
            -0.078740 0.324803 0.354331 -0.078740 0.314961 0.354331 -0.078740
            0.314961 0.295276 0.078740 0.314961 0.295276 0.078740 0.324803
            0.295276 -0.078740 0.333232 0.294363 0.078740 0.333232 0.294363
            -0.078740 0.341271 0.291666 0.078740 0.341271 0.291666 0.078740
            0.359505 0.274501 0.078740 0.362681 0.266640 -0.078740 0.364102
            0.258281 -0.078740 0.451296 0.002282 0.078740 0.472369 0.000000
            -0.078740 0.431200 0.009024 0.078740 0.413013 0.019911 0.078740
            0.385615 0.051937 -0.078740 0.377673 0.071589 -0.078740 0.551181
            0.000000 0.078740 0.551181 0.000000 -0.078740 0.551181 0.059055
            0.078740 0.551181 0.059055 -0.078740 0.472369 0.059055 0.078740
            0.472369 0.059055 0.078740 0.463940 0.059968 -0.078740 0.455902
            0.062665 -0.078740 0.448627 0.067020 0.078740 0.448627 0.067020
            -0.078740 0.442454 0.072831 0.078740 0.442454 0.072831 -0.078740
            0.423049 0.261844 0.078740 0.423049 0.261844 -0.078740 0.365972
            0.345307 0.078740 0.384159 0.334419 -0.078740 0.399593 0.319891
            -0.078740 0.411558 0.302394 0.078740 0.419499 0.282741 -0.078740
            0.463940 0.059968 -0.078740 0.472369 0.000000 -0.078740 0.324803
            0.295276 -0.078740 0.345876 0.352048 -0.078740 0.384159 0.334419
            -0.078740 0.348545 0.287311 -0.078740 0.354719 0.281500 -0.078740
            0.359505 0.274501 -0.078740 0.362681 0.266640 -0.078740 0.419499
            0.282741 -0.078740 0.374123 0.092487 -0.078740 0.433071 0.096050
            -0.078740 0.434491 0.087691 -0.078740 0.385615 0.051937 -0.078740
            0.437667 0.079830 -0.078740 0.397580 0.034440 -0.078740 0.413013
            0.019911 0.078740 0.451296 0.002282 0.078740 0.324803 0.354331
            0.078740 0.314961 0.354331 0.078740 0.345876 0.352048 0.078740
            0.365972 0.345307 0.078740 0.348545 0.287311 0.078740 0.354719
            0.281500 0.078740 0.399593 0.319891 0.078740 0.411558 0.302394
            0.078740 0.364102 0.258281 0.078740 0.374123 0.092487 0.078740
            0.433071 0.096050 0.078740 0.377673 0.071589 0.078740 0.434491
            0.087691 0.078740 0.437667 0.079830 0.078740 0.397580 0.034440
            0.078740 0.431200 0.009024 0.078740 0.455902 0.062665 0.295276
            0.324803 0.354331 0.295276 0.314961 0.354331 0.452756 0.324803
            0.354331 0.452756 0.314961 0.354331 0.295276 0.324803 0.295276
            0.295276 0.333232 0.294363 0.452756 0.333232 0.294363 0.295276
            0.341271 0.291666 0.452756 0.354719 0.281500 0.452756 0.359505
            0.274501 0.295276 0.374123 0.092487 0.452756 0.472369 0.000000
            0.452756 0.451296 0.002282 0.295276 0.431200 0.009024 0.452756
            0.431200 0.009024 0.295276 0.413013 0.019911 0.452756 0.413013
            0.019911 0.295276 0.397580 0.034440 0.452756 0.397580 0.034440
            0.452756 0.385615 0.051937 0.295276 0.551181 0.000000 0.452756
            0.551181 0.059055 0.452756 0.472369 0.059055 0.452756 0.463940
            0.059968 0.295276 0.455902 0.062665 0.295276 0.448627 0.067020
            0.452756 0.448627 0.067020 0.295276 0.442454 0.072831 0.452756
            0.442454 0.072831 0.452756 0.433071 0.096050 0.295276 0.423049
            0.261844 0.295276 0.345876 0.352048 0.452756 0.345876 0.352048
            0.452756 0.365972 0.345307 0.295276 0.399593 0.319891 0.452756
            0.411558 0.302394 0.295276 0.419499 0.282741 0.295276 0.463940
            0.059968 0.295276 0.472369 0.000000 0.295276 0.451296 0.002282
            0.295276 0.472369 0.059055 0.295276 0.551181 0.059055 0.295276
            0.314961 0.295276 0.295276 0.365972 0.345307 0.295276 0.384159
            0.334419 0.295276 0.348545 0.287311 0.295276 0.354719 0.281500
            0.295276 0.359505 0.274501 0.295276 0.411558 0.302394 0.295276
            0.362681 0.266640 0.295276 0.364102 0.258281 0.295276 0.433071
            0.096050 0.295276 0.377673 0.071589 0.295276 0.434491 0.087691
            0.295276 0.385615 0.051937 0.295276 0.437667 0.079830 0.452756
            0.551181 0.000000 0.452756 0.324803 0.295276 0.452756 0.314961
            0.295276 0.452756 0.341271 0.291666 0.452756 0.348545 0.287311
            0.452756 0.384159 0.334419 0.452756 0.399593 0.319891 0.452756
            0.362681 0.266640 0.452756 0.419499 0.282741 0.452756 0.364102
            0.258281 0.452756 0.423049 0.261844 0.452756 0.374123 0.092487
            0.452756 0.377673 0.071589 0.452756 0.434491 0.087691 0.452756
            0.437667 0.079830 0.452756 0.455902 0.062665 -0.295276 -0.324803
            0.354331 -0.452756 -0.314961 0.295276 -0.295276 -0.314961 0.295276
            -0.452756 -0.324803 0.295276 -0.295276 -0.324803 0.295276 -0.452756
            -0.333232 0.294363 -0.295276 -0.348545 0.287311 -0.452756 -0.354719
            0.281500 -0.452756 -0.362681 0.266640 -0.295276 -0.362681 0.266640
            -0.295276 -0.364102 0.258281 -0.295276 -0.374123 0.092487 -0.295276
            -0.472369 0.000000 -0.295276 -0.451296 0.002282 -0.452756 -0.397580
            0.034440 -0.452756 -0.385615 0.051937 -0.452756 -0.377673 0.071589
            -0.452756 -0.551181 0.000000 -0.452756 -0.448627 0.067020 -0.452756
            -0.442454 0.072831 -0.452756 -0.437667 0.079830 -0.452756 -0.434491
            0.087691 -0.295276 -0.434491 0.087691 -0.295276 -0.433071 0.096050
            -0.452756 -0.345876 0.352048 -0.295276 -0.345876 0.352048 -0.452756
            -0.365972 0.345307 -0.295276 -0.365972 0.345307 -0.452756 -0.384159
            0.334419 -0.295276 -0.384159 0.334419 -0.452756 -0.399593 0.319891
            -0.295276 -0.399593 0.319891 -0.295276 -0.411558 0.302394 -0.452756
            -0.419499 0.282741 -0.295276 -0.419499 0.282741 -0.452756 -0.463940
            0.059968 -0.452756 -0.472369 0.000000 -0.452756 -0.451296 0.002282
            -0.452756 -0.472369 0.059055 -0.452756 -0.551181 0.059055 -0.452756
            -0.324803 0.354331 -0.452756 -0.314961 0.354331 -0.452756 -0.341271
            0.291666 -0.452756 -0.348545 0.287311 -0.452756 -0.359505 0.274501
            -0.452756 -0.411558 0.302394 -0.452756 -0.364102 0.258281 -0.452756
            -0.423049 0.261844 -0.452756 -0.374123 0.092487 -0.452756 -0.433071
            0.096050 -0.452756 -0.413013 0.019911 -0.452756 -0.455902 0.062665
            -0.452756 -0.431200 0.009024 -0.295276 -0.472369 0.059055 -0.295276
            -0.551181 0.000000 -0.295276 -0.551181 0.059055 -0.295276 -0.314961
            0.354331 -0.295276 -0.333232 0.294363 -0.295276 -0.341271 0.291666
            -0.295276 -0.354719 0.281500 -0.295276 -0.359505 0.274501 -0.295276
            -0.423049 0.261844 -0.295276 -0.377673 0.071589 -0.295276 -0.385615
            0.051937 -0.295276 -0.437667 0.079830 -0.295276 -0.397580 0.034440
            -0.295276 -0.442454 0.072831 -0.295276 -0.413013 0.019911 -0.295276
            -0.448627 0.067020 -0.295276 -0.431200 0.009024 -0.295276 -0.455902
            0.062665 -0.295276 -0.463940 0.059968 -0.078740 -0.324803 0.354331
            -0.078740 -0.314961 0.354331 -0.078740 -0.314961 0.295276 0.078740
            -0.314961 0.295276 0.078740 -0.324803 0.295276 -0.078740 -0.333232
            0.294363 0.078740 -0.333232 0.294363 -0.078740 -0.341271 0.291666
            0.078740 -0.341271 0.291666 0.078740 -0.359505 0.274501 0.078740
            -0.362681 0.266640 -0.078740 -0.364102 0.258281 -0.078740 -0.451296
            0.002282 0.078740 -0.472369 0.000000 -0.078740 -0.431200 0.009024
            0.078740 -0.413013 0.019911 0.078740 -0.385615 0.051937 -0.078740
            -0.377673 0.071589 -0.078740 -0.551181 0.000000 0.078740 -0.551181
            0.000000 -0.078740 -0.551181 0.059055 0.078740 -0.551181 0.059055
            -0.078740 -0.472369 0.059055 0.078740 -0.472369 0.059055 0.078740
            -0.463940 0.059968 -0.078740 -0.455902 0.062665 -0.078740 -0.448627
            0.067020 0.078740 -0.448627 0.067020 -0.078740 -0.442454 0.072831
            0.078740 -0.442454 0.072831 -0.078740 -0.423049 0.261844 0.078740
            -0.423049 0.261844 -0.078740 -0.365972 0.345307 0.078740 -0.384159
            0.334419 -0.078740 -0.399593 0.319891 -0.078740 -0.411558 0.302394
            0.078740 -0.419499 0.282741 -0.078740 -0.463940 0.059968 -0.078740
            -0.472369 0.000000 -0.078740 -0.324803 0.295276 -0.078740 -0.345876
            0.352048 -0.078740 -0.384159 0.334419 -0.078740 -0.348545 0.287311
            -0.078740 -0.354719 0.281500 -0.078740 -0.359505 0.274501 -0.078740
            -0.362681 0.266640 -0.078740 -0.419499 0.282741 -0.078740 -0.374123
            0.092487 -0.078740 -0.433071 0.096050 -0.078740 -0.434491 0.087691
            -0.078740 -0.385615 0.051937 -0.078740 -0.437667 0.079830 -0.078740
            -0.397580 0.034440 -0.078740 -0.413013 0.019911 0.078740 -0.451296
            0.002282 0.078740 -0.324803 0.354331 0.078740 -0.314961 0.354331
            0.078740 -0.345876 0.352048 0.078740 -0.365972 0.345307 0.078740
            -0.348545 0.287311 0.078740 -0.354719 0.281500 0.078740 -0.399593
            0.319891 0.078740 -0.411558 0.302394 0.078740 -0.364102 0.258281
            0.078740 -0.374123 0.092487 0.078740 -0.433071 0.096050 0.078740
            -0.377673 0.071589 0.078740 -0.434491 0.087691 0.078740 -0.437667
            0.079830 0.078740 -0.397580 0.034440 0.078740 -0.431200 0.009024
            0.078740 -0.455902 0.062665 0.295276 -0.324803 0.354331 0.295276
            -0.314961 0.354331 0.452756 -0.324803 0.354331 0.452756 -0.314961
            0.354331 0.295276 -0.324803 0.295276 0.295276 -0.333232 0.294363
            0.452756 -0.333232 0.294363 0.295276 -0.341271 0.291666 0.452756
            -0.354719 0.281500 0.452756 -0.359505 0.274501 0.295276 -0.374123
            0.092487 0.452756 -0.472369 0.000000 0.452756 -0.451296 0.002282
            0.295276 -0.431200 0.009024 0.452756 -0.431200 0.009024 0.295276
            -0.413013 0.019911 0.452756 -0.413013 0.019911 0.295276 -0.397580
            0.034440 0.452756 -0.397580 0.034440 0.452756 -0.385615 0.051937
            0.295276 -0.551181 0.000000 0.452756 -0.551181 0.059055 0.452756
            -0.472369 0.059055 0.452756 -0.463940 0.059968 0.295276 -0.455902
            0.062665 0.295276 -0.448627 0.067020 0.452756 -0.448627 0.067020
            0.295276 -0.442454 0.072831 0.452756 -0.442454 0.072831 0.452756
            -0.433071 0.096050 0.295276 -0.423049 0.261844 0.295276 -0.345876
            0.352048 0.452756 -0.345876 0.352048 0.452756 -0.365972 0.345307
            0.295276 -0.399593 0.319891 0.452756 -0.411558 0.302394 0.295276
            -0.419499 0.282741 0.295276 -0.463940 0.059968 0.295276 -0.472369
            0.000000 0.295276 -0.451296 0.002282 0.295276 -0.472369 0.059055
            0.295276 -0.551181 0.059055 0.295276 -0.314961 0.295276 0.295276
            -0.365972 0.345307 0.295276 -0.384159 0.334419 0.295276 -0.348545
            0.287311 0.295276 -0.354719 0.281500 0.295276 -0.359505 0.274501
            0.295276 -0.411558 0.302394 0.295276 -0.362681 0.266640 0.295276
            -0.364102 0.258281 0.295276 -0.433071 0.096050 0.295276 -0.377673
            0.071589 0.295276 -0.434491 0.087691 0.295276 -0.385615 0.051937
            0.295276 -0.437667 0.079830 0.452756 -0.551181 0.000000 0.452756
            -0.324803 0.295276 0.452756 -0.314961 0.295276 0.452756 -0.341271
            0.291666 0.452756 -0.348545 0.287311 0.452756 -0.384159 0.334419
            0.452756 -0.399593 0.319891 0.452756 -0.362681 0.266640 0.452756
            -0.419499 0.282741 0.452756 -0.364102 0.258281 0.452756 -0.423049
            0.261844 0.452756 -0.374123 0.092487 0.452756 -0.377673 0.071589
            0.452756 -0.434491 0.087691 0.452756 -0.437667 0.079830 0.452756
            -0.455902 0.062665 ]
        }
        coordIndex [ 124 88 122 -1 51 71 35 -1 19 68 18 -1 165 184 166 -1 71 38
        35 -1 85 90 91 -1 104 105 113 -1 112 130 104 -1 191 152 190 -1 84 142 86
        -1 36 39 17 -1 107 108 118 -1 43 58 42 -1 136 83 119 -1 159 162 161 -1 8
        60 44 -1 118 103 102 -1 86 87 125 -1 168 167 181 -1 28 31 30 -1 106 134
        107 -1 96 94 109 -1 120 139 121 -1 171 170 169 -1 98 143 97 -1 176 144
        146 -1 2 0 56 -1 175 177 187 -1 37 69 52 -1 55 38 53 -1 211 194 154 -1
        74 72 111 -1 114 80 79 -1 151 150 149 -1 115 131 114 -1 71 12 53 -1 16
        11 48 -1 178 179 192 -1 146 150 176 -1 79 112 104 -1 79 113 114 -1 188
        190 189 -1 31 60 32 -1 125 97 86 -1 108 135 103 -1 36 35 38 -1 120 89
        119 -1 199 196 197 -1 101 88 141 -1 161 169 159 -1 159 168 157 -1 215
        156 167 -1 85 96 126 -1 117 81 116 -1 155 164 200 -1 77 72 112 -1 129 80
        130 -1 203 205 177 -1 58 29 27 -1 178 191 190 -1 108 81 82 -1 118 83 117
        -1 174 154 194 -1 49 16 48 -1 123 89 121 -1 100 122 123 -1 141 99 101 -1
        42 24 26 -1 143 126 96 -1 129 72 127 -1 11 46 48 -1 200 185 165 -1 75
        127 128 -1 137 102 103 -1 12 17 54 -1 85 93 95 -1 125 141 124 -1 180 210
        174 -1 187 205 188 -1 194 207 193 -1 190 204 189 -1 147 144 145 -1 183
        158 157 -1 14 63 15 -1 15 62 16 -1 155 165 166 -1 113 133 106 -1 78 111
        77 -1 13 36 12 -1 30 32 45 -1 192 208 180 -1 128 72 73 -1 61 11 23 -1 79
        78 77 -1 91 92 93 -1 97 96 109 -1 25 40 0 -1 46 9 8 -1 116 132 115 -1 23
        47 61 -1 83 82 117 -1 202 146 147 -1 126 110 85 -1 195 213 197 -1 214
        212 163 -1 20 66 19 -1 93 94 95 -1 127 78 129 -1 176 203 177 -1 80 105
        130 -1 29 59 31 -1 133 81 134 -1 180 191 192 -1 33 46 8 -1 210 211 173
        -1 34 10 61 -1 34 60 9 -1 19 15 20 -1 14 18 50 -1 50 51 52 -1 70 13 71
        -1 182 181 184 -1 196 211 154 -1 156 182 155 -1 5 40 24 -1 105 132 133
        -1 124 98 125 -1 205 152 206 -1 206 153 179 -1 118 116 107 -1 180 194
        193 -1 102 119 83 -1 173 212 213 -1 64 62 63 -1 195 196 154 -1 149 144
        175 -1 160 215 170 -1 52 35 37 -1 193 153 191 -1 52 67 50 -1 50 65 14 -1
        161 163 198 -1 169 215 168 -1 173 174 210 -1 55 12 54 -1 89 136 119 -1
        157 160 159 -1 182 185 164 -1 150 148 149 -1 4 1 3 -1 7 6 43 -1 44 59 7
        -1 42 57 5 -1 57 3 5 -1 167 184 181 -1 54 39 55 -1 199 172 171 -1 1 40 3
        -1 26 29 28 -1 24 27 26 -1 123 101 100 -1 100 99 98 -1 49 22 21 -1 21 64
        20 -1 110 92 90 -1 198 212 196 -1 189 203 151 -1 76 74 111 -1 122 138 89
        -1 45 34 33 -1 121 140 123 -1 33 61 47 -1 56 40 41 -1 155 167 156 -1 201
        186 148 -1 197 214 199 -1 0 57 25 -1 25 58 27 -1 42 28 43 -1 113 115 114
        -1 106 116 115 -1 208 153 207 -1 208 209 210 -1 103 136 137 -1 137 138
        139 -1 140 138 88 -1 172 163 162 -1 162 170 172 -1 87 143 99 -1 86 109
        84 -1 110 109 94 -1 186 144 148 -1 188 206 178 -1 30 44 7 -1 151 175 187
        -1 151 188 189 -1 28 7 43 -1 171 198 199 -1 33 44 45 -1 157 181 183 -1
        47 48 46 -1 23 62 22 -1 20 16 21 -1 66 63 65 -1 65 68 66 -1 67 70 68 -1
        18 70 51 -1 304 340 338 -1 287 267 251 -1 284 235 234 -1 400 381 382 -1
        254 287 251 -1 306 301 307 -1 321 320 329 -1 346 328 320 -1 368 407 406
        -1 358 300 302 -1 255 252 233 -1 324 323 334 -1 274 259 258 -1 299 352
        335 -1 378 375 377 -1 276 224 260 -1 319 334 318 -1 303 302 341 -1 383
        384 397 -1 247 244 246 -1 350 322 323 -1 310 312 325 -1 355 336 337 -1
        386 387 385 -1 359 314 313 -1 360 392 362 -1 216 218 272 -1 393 391 403
        -1 285 253 268 -1 254 271 269 -1 410 427 370 -1 288 290 327 -1 296 330
        295 -1 366 367 365 -1 347 331 330 -1 228 287 269 -1 227 232 264 -1 395
        394 408 -1 362 366 417 -1 295 328 293 -1 329 295 330 -1 404 406 394 -1
        276 247 248 -1 313 341 302 -1 351 324 319 -1 251 252 254 -1 336 305 337
        -1 412 415 413 -1 357 356 317 -1 385 377 375 -1 384 375 373 -1 431 372
        374 -1 301 312 311 -1 297 333 332 -1 380 371 416 -1 293 288 327 -1 345
        296 294 -1 421 419 393 -1 245 274 243 -1 394 407 408 -1 324 297 350 -1
        334 299 318 -1 390 370 411 -1 265 232 237 -1 305 339 337 -1 338 316 339
        -1 315 357 317 -1 258 240 221 -1 359 342 358 -1 288 345 343 -1 262 227
        264 -1 401 416 381 -1 343 291 344 -1 318 353 319 -1 233 228 270 -1 309
        301 311 -1 357 341 340 -1 426 396 390 -1 421 403 404 -1 423 410 409 -1
        420 406 405 -1 360 363 361 -1 374 399 373 -1 279 230 231 -1 278 231 232
        -1 381 371 382 -1 349 329 322 -1 327 294 293 -1 252 229 228 -1 248 246
        261 -1 424 408 396 -1 288 344 289 -1 227 277 239 -1 294 295 293 -1 308
        307 309 -1 312 313 325 -1 256 241 216 -1 225 262 224 -1 348 332 331 -1
        263 239 277 -1 298 299 333 -1 362 418 363 -1 326 342 301 -1 429 411 413
        -1 430 428 429 -1 282 236 235 -1 310 309 311 -1 343 294 292 -1 392 419
        366 -1 321 296 346 -1 275 245 247 -1 297 349 350 -1 407 396 408 -1 249
        262 263 -1 427 426 389 -1 226 250 277 -1 250 276 248 -1 231 235 236 -1
        234 230 266 -1 267 266 268 -1 286 229 285 -1 397 398 400 -1 427 412 370
        -1 398 372 371 -1 221 256 219 -1 348 321 349 -1 314 340 341 -1 368 421
        422 -1 369 422 395 -1 332 334 323 -1 396 410 390 -1 318 335 336 -1 428
        389 429 -1 280 278 238 -1 411 412 413 -1 365 360 364 -1 431 376 386 -1
        253 267 268 -1 369 409 407 -1 283 268 266 -1 281 266 230 -1 379 377 414
        -1 431 385 384 -1 390 389 426 -1 228 271 270 -1 352 305 335 -1 376 373
        375 -1 401 398 380 -1 364 366 365 -1 217 220 219 -1 222 223 259 -1 275
        260 223 -1 273 258 221 -1 219 273 221 -1 400 383 397 -1 255 270 271 -1
        388 415 387 -1 256 217 219 -1 245 242 244 -1 243 240 242 -1 317 339 316
        -1 315 316 314 -1 238 265 237 -1 280 237 236 -1 308 326 306 -1 428 414
        412 -1 419 405 367 -1 290 292 327 -1 354 338 305 -1 250 261 249 -1 356
        337 339 -1 277 249 263 -1 256 272 257 -1 371 383 382 -1 402 417 364 -1
        430 413 415 -1 216 273 220 -1 241 274 273 -1 244 258 259 -1 329 331 322
        -1 322 332 323 -1 424 369 395 -1 425 424 426 -1 352 319 353 -1 354 353
        355 -1 356 354 355 -1 378 430 388 -1 386 378 388 -1 359 303 315 -1 300
        313 302 -1 325 326 310 -1 360 402 364 -1 422 404 394 -1 246 260 261 -1
        367 391 365 -1 404 367 405 -1 244 223 246 -1 414 387 415 -1 260 249 261
        -1 399 384 373 -1 263 264 265 -1 278 239 238 -1 232 236 237 -1 281 280
        282 -1 284 281 282 -1 286 283 284 -1 286 234 267 -1 124 141 88 -1 51 70
        71 -1 19 66 68 -1 165 185 184 -1 71 53 38 -1 85 110 90 -1 104 130 105 -1
        112 129 130 -1 191 153 152 -1 84 126 142 -1 36 38 39 -1 107 134 108 -1
        43 6 58 -1 136 135 83 -1 159 160 162 -1 8 9 60 -1 118 108 103 -1 86 142
        87 -1 168 215 167 -1 28 29 31 -1 106 133 134 -1 96 95 94 -1 120 137 139
        -1 171 172 170 -1 98 99 143 -1 176 175 144 -1 2 4 0 -1 175 176 177 -1 37
        13 69 -1 55 39 38 -1 211 209 194 -1 74 73 72 -1 114 131 80 -1 151 203
        150 -1 115 132 131 -1 71 13 12 -1 16 62 11 -1 178 206 179 -1 146 201 150
        -1 79 77 112 -1 79 104 113 -1 188 178 190 -1 31 59 60 -1 125 98 97 -1
        108 82 135 -1 36 37 35 -1 120 121 89 -1 199 198 196 -1 101 140 88 -1 161
        171 169 -1 159 169 168 -1 215 158 156 -1 85 95 96 -1 117 82 81 -1 155
        182 164 -1 77 111 72 -1 129 78 80 -1 203 204 205 -1 58 6 29 -1 178 192
        191 -1 108 134 81 -1 118 102 83 -1 174 195 154 -1 49 21 16 -1 123 122 89
        -1 100 124 122 -1 141 87 99 -1 42 5 24 -1 143 142 126 -1 129 112 72 -1
        11 10 46 -1 200 164 185 -1 75 76 127 -1 137 120 102 -1 12 36 17 -1 85 91
        93 -1 125 87 141 -1 180 208 210 -1 187 177 205 -1 194 209 207 -1 190 152
        204 -1 147 146 144 -1 183 156 158 -1 14 65 63 -1 15 63 62 -1 155 200 165
        -1 113 105 133 -1 78 76 111 -1 13 37 36 -1 30 31 32 -1 192 179 208 -1
        128 127 72 -1 61 10 11 -1 79 80 78 -1 91 90 92 -1 97 143 96 -1 25 24 40
        -1 46 10 9 -1 116 81 132 -1 23 49 47 -1 83 135 82 -1 202 201 146 -1 126
        84 110 -1 195 173 213 -1 214 213 212 -1 20 64 66 -1 93 92 94 -1 127 76
        78 -1 176 150 203 -1 80 131 105 -1 29 6 59 -1 133 132 81 -1 180 193 191
        -1 33 47 46 -1 210 209 211 -1 34 9 10 -1 34 32 60 -1 19 14 15 -1 14 19
        18 -1 50 18 51 -1 70 69 13 -1 182 183 181 -1 196 212 211 -1 156 183 182
        -1 5 3 40 -1 105 131 132 -1 124 100 98 -1 205 204 152 -1 206 152 153 -1
        118 117 116 -1 180 174 194 -1 102 120 119 -1 173 211 212 -1 64 22 62 -1
        195 197 196 -1 149 148 144 -1 160 158 215 -1 52 51 35 -1 193 207 153 -1
        52 69 67 -1 50 67 65 -1 161 162 163 -1 169 170 215 -1 173 195 174 -1 55
        53 12 -1 89 138 136 -1 157 158 160 -1 182 184 185 -1 150 201 148 -1 4 2
        1 -1 7 59 6 -1 44 60 59 -1 42 58 57 -1 57 4 3 -1 167 166 184 -1 54 17 39
        -1 199 214 172 -1 1 41 40 -1 26 27 29 -1 24 25 27 -1 123 140 101 -1 100
        101 99 -1 49 23 22 -1 21 22 64 -1 110 94 92 -1 198 163 212 -1 189 204
        203 -1 76 75 74 -1 122 88 138 -1 45 32 34 -1 121 139 140 -1 33 34 61 -1
        56 0 40 -1 155 166 167 -1 201 202 186 -1 197 213 214 -1 0 4 57 -1 25 57
        58 -1 42 26 28 -1 113 106 115 -1 106 107 116 -1 208 179 153 -1 208 207
        209 -1 103 135 136 -1 137 136 138 -1 140 139 138 -1 172 214 163 -1 162
        160 170 -1 87 142 143 -1 86 97 109 -1 110 84 109 -1 186 145 144 -1 188
        205 206 -1 30 45 44 -1 151 149 175 -1 151 187 188 -1 28 30 7 -1 171 161
        198 -1 33 8 44 -1 157 168 181 -1 47 49 48 -1 23 11 62 -1 20 15 16 -1 66
        64 63 -1 65 67 68 -1 67 69 70 -1 18 68 70 -1 304 357 340 -1 287 286 267
        -1 284 282 235 -1 400 401 381 -1 254 269 287 -1 306 326 301 -1 321 346
        320 -1 346 345 328 -1 368 369 407 -1 358 342 300 -1 255 254 252 -1 324
        350 323 -1 274 222 259 -1 299 351 352 -1 378 376 375 -1 276 225 224 -1
        319 324 334 -1 303 358 302 -1 383 431 384 -1 247 245 244 -1 350 349 322
        -1 310 311 312 -1 355 353 336 -1 386 388 387 -1 359 315 314 -1 360 391
        392 -1 216 220 218 -1 393 392 391 -1 285 229 253 -1 254 255 271 -1 410
        425 427 -1 288 289 290 -1 296 347 330 -1 366 419 367 -1 347 348 331 -1
        228 229 287 -1 227 278 232 -1 395 422 394 -1 362 392 366 -1 295 320 328
        -1 329 320 295 -1 404 405 406 -1 276 275 247 -1 313 314 341 -1 351 298
        324 -1 251 253 252 -1 336 335 305 -1 412 414 415 -1 357 304 356 -1 385
        387 377 -1 384 385 375 -1 431 383 372 -1 301 342 312 -1 297 298 333 -1
        380 398 371 -1 293 328 288 -1 345 346 296 -1 421 420 419 -1 245 222 274
        -1 394 406 407 -1 324 298 297 -1 334 333 299 -1 390 410 370 -1 265 264
        232 -1 305 338 339 -1 338 340 316 -1 315 303 357 -1 258 242 240 -1 359
        312 342 -1 288 328 345 -1 262 226 227 -1 401 380 416 -1 343 292 291 -1
        318 336 353 -1 233 252 228 -1 309 307 301 -1 357 303 341 -1 426 424 396
        -1 421 393 403 -1 423 425 410 -1 420 368 406 -1 360 362 363 -1 374 372
        399 -1 279 281 230 -1 278 279 231 -1 381 416 371 -1 349 321 329 -1 327
        292 294 -1 252 253 229 -1 248 247 246 -1 424 395 408 -1 288 343 344 -1
        227 226 277 -1 294 296 295 -1 308 306 307 -1 312 359 313 -1 256 240 241
        -1 225 226 262 -1 348 297 332 -1 263 265 239 -1 298 351 299 -1 362 417
        418 -1 326 300 342 -1 429 389 411 -1 430 379 428 -1 282 280 236 -1 310
        308 309 -1 343 345 294 -1 392 393 419 -1 321 347 296 -1 275 222 245 -1
        297 348 349 -1 407 409 396 -1 249 224 262 -1 427 425 426 -1 226 225 250
        -1 250 225 276 -1 231 230 235 -1 234 235 230 -1 267 234 266 -1 286 287
        229 -1 397 399 398 -1 427 428 412 -1 398 399 372 -1 221 240 256 -1 348
        347 321 -1 314 316 340 -1 368 420 421 -1 369 368 422 -1 332 333 334 -1
        396 409 410 -1 318 299 335 -1 428 427 389 -1 280 279 278 -1 411 370 412
        -1 365 391 360 -1 431 374 376 -1 253 251 267 -1 369 423 409 -1 283 285
        268 -1 281 283 266 -1 379 378 377 -1 431 386 385 -1 390 411 389 -1 228
        269 271 -1 352 354 305 -1 376 374 373 -1 401 400 398 -1 364 417 366 -1
        217 218 220 -1 222 275 223 -1 275 276 260 -1 273 274 258 -1 219 220 273
        -1 400 382 383 -1 255 233 270 -1 388 430 415 -1 256 257 217 -1 245 243
        242 -1 243 241 240 -1 317 356 339 -1 315 317 316 -1 238 239 265 -1 280
        238 237 -1 308 310 326 -1 428 379 414 -1 419 420 405 -1 290 291 292 -1
        354 304 338 -1 250 248 261 -1 356 355 337 -1 277 250 249 -1 256 216 272
        -1 371 372 383 -1 402 418 417 -1 430 429 413 -1 216 241 273 -1 241 243
        274 -1 244 242 258 -1 329 330 331 -1 322 331 332 -1 424 423 369 -1 425
        423 424 -1 352 351 319 -1 354 352 353 -1 356 304 354 -1 378 379 430 -1
        386 376 378 -1 359 358 303 -1 300 325 313 -1 325 300 326 -1 360 361 402
        -1 422 421 404 -1 246 223 260 -1 367 403 391 -1 404 403 367 -1 244 259
        223 -1 414 377 387 -1 260 224 249 -1 399 397 384 -1 263 262 264 -1 278
        227 239 -1 232 231 236 -1 281 279 280 -1 284 283 281 -1 286 285 283 -1
        286 284 234 -1 ]
    }
}

# 'SOT-23-6 Body'
Shape {
    appearance Appearance {
        material Material {
            ambientIntensity 0.293
            diffuseColor 0.148 0.145 0.145
            specularColor 0.180 0.168 0.160
            emissiveColor 0.0 0.0 0.0
            shininess 0.35
            transparency 0.0
        }
    }
    geometry IndexedFaceSet {
        coord Coordinate {
            point [ -0.550040 -0.294135 0.472441 0.550040 -0.294135 0.472441
            0.550040 0.294135 0.472441 -0.550040 0.294135 0.472441 -0.570866
            0.314961 0.354331 -0.570866 -0.314961 0.354331 0.570866 0.314961
            0.354331 0.570866 -0.314961 0.354331 -0.570866 -0.314961 0.295276
            -0.570866 0.314961 0.295276 0.570866 0.314961 0.295276 0.570866
            -0.314961 0.295276 -0.525743 0.269837 0.039370 -0.525743 -0.269837
            0.039370 0.525743 0.269837 0.039370 0.525743 -0.269837 0.039370 ]
        }
        coordIndex [ 5 9 8 -1 7 2 1 -1 11 13 15 -1 1 5 7 -1 6 3 2 -1 4 10 9 -1 0
        4 5 -1 7 8 11 -1 0 2 3 -1 14 9 10 -1 8 12 13 -1 11 14 10 -1 11 6 7 -1 12
        15 13 -1 5 4 9 -1 7 6 2 -1 11 8 13 -1 1 0 5 -1 6 4 3 -1 4 6 10 -1 0 3 4
        -1 7 5 8 -1 0 1 2 -1 14 12 9 -1 8 9 12 -1 11 15 14 -1 11 10 6 -1 12 14
        15 -1 ]
    }
}
