#VRML V2.0 utf8

# 'TO-220 Contacts'
Shape {
    appearance Appearance {
        material Material {
            ambientIntensity 0.271
            diffuseColor 0.824 0.820 0.781
            specularColor 0.328 0.258 0.172
            emissiveColor 0.0 0.0 0.0
            shininess 0.70
            transparency 0.0
        }
    }
    geometry IndexedFaceSet {
        coord Coordinate {
            point [ 2.007874 1.122047 8.346457 -2.007874 1.122047 8.346457
            2.007874 1.122047 5.826772 2.007874 0.620079 5.826772 1.338583
            1.122047 5.826772 1.338583 0.620079 5.826772 1.338583 1.122047
            3.464567 -1.338583 1.122047 3.464567 -1.338583 1.122047 5.826772
            -2.007874 1.122047 5.826772 -2.007874 0.620079 5.826772 -0.090165
            1.122047 6.501517 -0.265256 0.620079 6.544672 -0.090165 0.620079
            6.501517 0.090165 1.122047 6.501517 0.090165 0.620079 6.501517
            0.726295 1.122047 7.423110 0.748031 1.122047 7.244094 0.748031
            0.620079 7.244094 0.265256 1.122047 6.544672 0.265256 0.620079
            6.544672 0.424930 1.122047 6.628477 0.662349 1.122047 7.591722
            0.559909 1.122047 6.748057 0.559909 0.620079 6.748057 0.559909
            1.122047 7.740131 0.662349 1.122047 6.896467 0.662349 0.620079
            6.896467 0.424930 1.122047 7.859712 0.424930 0.620079 7.859712
            0.726295 1.122047 7.065078 0.726295 0.620079 7.065078 0.265256
            1.122047 7.943516 0.090165 1.122047 7.986671 0.090165 0.620079
            7.986671 -0.090165 1.122047 7.986671 -0.265256 1.122047 7.943516
            -0.424930 1.122047 7.859712 -0.559909 1.122047 7.740131 -0.662349
            1.122047 7.591722 -0.662349 0.620079 7.591722 -0.726295 1.122047
            7.423110 -0.748031 1.122047 7.244094 -0.748031 0.620079 7.244094
            -0.726295 1.122047 7.065078 -0.662349 1.122047 6.896467 -0.559909
            1.122047 6.748057 -0.424930 1.122047 6.628477 -0.424930 0.620079
            6.628477 -0.265256 1.122047 6.544672 2.007874 0.620079 8.346457
            0.726295 0.620079 7.423110 0.662349 0.620079 7.591722 0.559909
            0.620079 7.740131 0.265256 0.620079 7.943516 -2.007874 0.620079
            8.346457 -1.338583 0.620079 5.826772 -0.559909 0.620079 6.748057
            -0.662349 0.620079 6.896467 -0.726295 0.620079 7.065078 -0.726295
            0.620079 7.423110 0.424930 0.620079 6.628477 -0.559909 0.620079
            7.740131 -0.424930 0.620079 7.859712 -0.265256 0.620079 7.943516
            -0.090165 0.620079 7.986671 -1.265748 0.118110 2.244094 -1.265748
            0.118110 0.787402 -1.265748 -0.118110 0.787402 -1.265748 -0.118110
            2.244094 -0.734252 0.118110 2.244094 -0.734252 -0.118110 2.244094
            -0.734252 0.118110 0.787402 -0.734252 -0.118110 0.787402 -0.852362
            0.118110 0.787402 -0.852362 -0.118110 0.787402 -0.852362 0.118110
            -1.023622 -0.852362 -0.118110 -1.023622 -1.147638 0.118110 -1.023622
            -1.147638 -0.118110 -1.023622 -1.147638 0.118110 0.787402 -1.147638
            -0.118110 0.787402 -0.265748 0.118110 2.244094 -0.265748 -0.118110
            0.787402 -0.265748 -0.118110 2.244094 0.265748 0.118110 2.244094
            0.265748 -0.118110 2.244094 0.265748 -0.118110 0.787402 0.147638
            -0.118110 0.787402 0.147638 0.118110 -1.023622 0.147638 -0.118110
            -1.023622 -0.147638 0.118110 -1.023622 -0.147638 -0.118110 -1.023622
            -0.147638 0.118110 0.787402 -0.147638 -0.118110 0.787402 0.147638
            0.118110 0.787402 -0.265748 0.118110 0.787402 0.265748 0.118110
            0.787402 0.734252 0.118110 2.244094 0.734252 -0.118110 0.787402
            0.734252 -0.118110 2.244094 1.265748 0.118110 2.244094 1.265748
            -0.118110 2.244094 1.265748 0.118110 0.787402 1.265748 -0.118110
            0.787402 1.147638 -0.118110 0.787402 1.147638 0.118110 -1.023622
            1.147638 -0.118110 -1.023622 0.852362 0.118110 -1.023622 0.852362
            -0.118110 -1.023622 0.852362 -0.118110 0.787402 1.147638 0.118110
            0.787402 0.852362 0.118110 0.787402 0.734252 0.118110 0.787402 ]
        }
        coordIndex [ 32 34 33 -1 50 1 55 -1 27 23 24 -1 8 6 7 -1 35 64 36 -1 25
        29 28 -1 12 47 48 -1 65 33 34 -1 22 53 25 -1 61 19 20 -1 49 13 11 -1 30
        18 17 -1 36 63 37 -1 60 39 40 -1 48 46 57 -1 20 14 15 -1 55 9 10 -1 21
        24 23 -1 37 62 38 -1 43 41 60 -1 57 45 58 -1 16 52 22 -1 59 42 43 -1 58
        44 59 -1 51 17 18 -1 3 0 50 -1 40 38 62 -1 26 31 30 -1 0 17 16 -1 0 16
        22 -1 0 22 25 -1 0 25 28 -1 0 28 32 -1 0 32 33 -1 0 33 35 -1 0 35 1 -1 0
        2 17 -1 47 8 46 -1 45 46 8 -1 49 8 47 -1 44 8 9 -1 44 45 8 -1 11 8 49 -1
        42 9 1 -1 42 44 9 -1 14 8 11 -1 41 42 1 -1 39 41 1 -1 15 11 13 -1 4 14
        19 -1 4 19 21 -1 4 8 14 -1 38 39 1 -1 23 4 21 -1 37 38 1 -1 26 4 23 -1
        36 37 1 -1 30 4 26 -1 2 4 30 -1 35 36 1 -1 17 2 30 -1 18 50 51 -1 51 50
        52 -1 52 50 53 -1 53 50 29 -1 29 50 54 -1 54 50 34 -1 3 50 18 -1 34 50
        55 -1 56 48 57 -1 57 58 56 -1 56 12 48 -1 56 59 10 -1 58 59 56 -1 56 13
        12 -1 10 43 55 -1 59 43 10 -1 56 15 13 -1 43 60 55 -1 60 40 55 -1 15 5
        20 -1 20 5 61 -1 56 5 15 -1 40 62 55 -1 5 24 61 -1 62 63 55 -1 5 27 24
        -1 63 64 55 -1 5 31 27 -1 5 3 31 -1 64 65 55 -1 3 18 31 -1 65 34 55 -1
        54 28 29 -1 88 97 87 -1 69 67 68 -1 112 106 108 -1 83 93 94 -1 77 74 75
        -1 84 96 83 -1 95 82 85 -1 105 103 104 -1 66 80 67 -1 70 72 74 -1 111 98
        101 -1 94 91 92 -1 81 69 68 -1 73 71 75 -1 102 110 105 -1 110 107 105 -1
        94 90 88 -1 109 106 107 -1 68 80 81 -1 107 111 105 -1 100 113 99 -1 75
        72 73 -1 80 76 78 -1 99 112 110 -1 82 93 96 -1 85 97 95 -1 86 94 88 -1
        93 89 91 -1 94 84 83 -1 87 86 88 -1 71 81 75 -1 104 101 102 -1 92 89 90
        -1 79 76 77 -1 81 78 79 -1 90 95 88 -1 81 77 75 -1 110 108 109 -1 98 112
        113 -1 101 103 111 -1 73 70 71 -1 110 100 99 -1 104 102 105 -1 74 66 70
        -1 87 85 86 -1 32 54 34 -1 50 0 1 -1 27 26 23 -1 8 4 6 -1 35 65 64 -1 25
        53 29 -1 12 49 47 -1 65 35 33 -1 22 52 53 -1 61 21 19 -1 49 12 13 -1 30
        31 18 -1 36 64 63 -1 60 41 39 -1 48 47 46 -1 20 19 14 -1 55 1 9 -1 21 61
        24 -1 37 63 62 -1 43 42 41 -1 57 46 45 -1 16 51 52 -1 59 44 42 -1 58 45
        44 -1 51 16 17 -1 3 2 0 -1 40 39 38 -1 26 27 31 -1 15 14 11 -1 54 32 28
        -1 88 95 97 -1 69 66 67 -1 112 111 106 -1 83 96 93 -1 77 76 74 -1 84 82
        96 -1 95 93 82 -1 105 111 103 -1 111 112 98 -1 94 93 91 -1 102 100 110
        -1 110 109 107 -1 94 92 90 -1 109 108 106 -1 68 67 80 -1 107 106 111 -1
        100 98 113 -1 75 74 72 -1 80 74 76 -1 99 113 112 -1 86 84 94 -1 93 95 89
        -1 71 69 81 -1 104 103 101 -1 92 91 89 -1 79 78 76 -1 81 80 78 -1 90 89
        95 -1 81 79 77 -1 110 112 108 -1 73 72 70 -1 74 80 66 -1 87 97 85 -1 ]
    }
}

# 'TO-220 Body'
Shape {
    appearance Appearance {
        material Material {
            ambientIntensity 0.293
            diffuseColor 0.148 0.145 0.145
            specularColor 0.180 0.168 0.160
            emissiveColor 0.0 0.0 0.0
            shininess 0.35
            transparency 0.0
        }
    }
    geometry IndexedFaceSet {
        coord Coordinate {
            point [ -1.338583 0.622047 5.826772 -2.007874 0.620079 5.826772
            2.007874 1.122047 5.826772 1.338583 0.622047 5.826772 2.007874
            0.620079 5.826772 -2.007874 1.122047 5.826772 -1.338583 1.122047
            3.464567 -2.007874 1.122047 2.337811 -1.338583 1.122047 5.826772
            1.338583 1.122047 3.464567 2.007874 1.122047 2.337811 1.338583
            1.122047 5.826772 -2.007874 0.620079 2.290953 1.896791 -0.649606
            5.602891 -1.896791 -0.649606 5.602891 2.007874 0.620079 2.290953
            1.963957 0.118110 2.244094 -1.963957 0.118110 2.244094 -1.943291
            -0.118110 2.244094 -1.896791 -0.649606 2.337811 1.943291 -0.118110
            2.244094 1.896791 -0.649606 2.337811 ]
        }
        coordIndex [ 10 4 15 -1 1 4 3 -1 1 3 0 -1 5 6 7 -1 8 6 5 -1 2 9 11 -1 2
        10 9 -1 14 4 1 -1 18 21 19 -1 7 1 5 -1 16 18 17 -1 13 19 21 -1 14 18 19
        -1 14 17 18 -1 6 10 7 -1 20 13 21 -1 16 13 20 -1 14 12 17 -1 7 15 12 -1
        13 15 4 -1 12 16 17 -1 10 2 4 -1 14 13 4 -1 18 20 21 -1 7 12 1 -1 16 20
        18 -1 13 14 19 -1 6 9 10 -1 14 1 12 -1 7 10 15 -1 13 16 15 -1 12 15 16
        -1 ]
    }
}
