#VRML V2.0 utf8

DEF Tin Material {
    ambientIntensity 0.271
    diffuseColor 0.824 0.820 0.781
    specularColor 0.328 0.258 0.172
    emissiveColor 0.0 0.0 0.0
    shininess 0.70
    transparency 0.0
}

DEF EpoxyBlack Material {
    ambientIntensity 0.293
    diffuseColor 0.148 0.145 0.145
    specularColor 0.180 0.168 0.160
    emissiveColor 0.0 0.0 0.0
    shininess 0.35
    transparency 0.0
}

# TO-247 Body
Shape {
    appearance Appearance {
        material USE EpoxyBlack
    }
    geometry IndexedFaceSet {
        coord Coordinate {
            point [ -3.011811 -0.905512 4.409449 -3.011811 -0.905512 12.125985 -3.051181 1.062992 4.370079 -3.051181 1.062992 12.165355 3.011811 -0.905512 4.409449 3.011811 -0.905512 12.125985 3.051181 1.062992 4.370079 3.051181 1.062992 12.165355 0.000000 1.062992 10.748033 0.000000 -0.905512 10.748033 0.183415 1.062992 10.723886 0.183415 -0.905512 10.723885 0.354331 1.062992 10.653090 0.354331 -0.905512 10.653090 0.501099 1.062992 10.540470 0.501099 -0.905512 10.540470 0.613719 1.062992 10.393702 0.613719 -0.905512 10.393702 0.684514 1.062992 10.222786 0.684514 -0.905512 10.222786 0.708661 1.062992 10.039371 0.708661 -0.905512 10.039371 0.684514 1.062992 9.855956 0.684514 -0.905512 9.855956 0.613719 1.062992 9.685040 0.613719 -0.905512 9.685040 0.501099 1.062992 9.538271 0.501099 -0.905512 9.538271 0.354331 1.062992 9.425653 0.354331 -0.905512 9.425653 0.183415 1.062992 9.354857 0.183415 -0.905512 9.354856 0.000000 1.062992 9.330709 0.000000 -0.905512 9.330709 -0.183415 1.062992 9.354857 -0.183415 -0.905512 9.354856 -0.354331 1.062992 9.425653 -0.354331 -0.905512 9.425653 -0.501099 1.062992 9.538271 -0.501099 -0.905512 9.538271 -0.613719 1.062992 9.685040 -0.613719 -0.905512 9.685040 -0.684514 1.062992 9.855956 -0.684514 -0.905512 9.855956 -0.708661 1.062992 10.039371 -0.708661 -0.905512 10.039371 -0.684514 1.062992 10.222786 -0.684514 -0.905512 10.222786 -0.613719 1.062992 10.393702 -0.613719 -0.905512 10.393702 -0.501099 1.062992 10.540470 -0.501099 -0.905512 10.540470 -0.354331 1.062992 10.653090 -0.354331 -0.905512 10.653090 -0.183415 1.062992 10.723886 -0.183415 -0.905512 10.723885 3.090551 0.590551 11.023623 2.898533 0.590551 11.004711 2.713894 0.590551 10.948701 2.543730 0.590551 10.857746 2.394580 0.590551 10.735342 2.272176 0.590551 10.586192 2.181221 0.590551 10.416028 2.125211 0.590551 10.231389 2.106299 0.590551 10.039371 2.125211 0.590551 9.847353 2.181221 0.590551 9.662714 2.272176 0.590551 9.492550 2.394580 0.590551 9.343400 2.543730 0.590551 9.220995 2.713894 0.590551 9.130040 2.898533 0.590551 9.074031 3.090551 0.590551 9.055119 -3.090551 0.590551 11.023623 -3.090551 0.590551 9.055119 -2.898533 0.590551 9.074031 -2.713894 0.590551 9.130040 -2.543730 0.590551 9.220995 -2.394579 0.590551 9.343400 -2.272176 0.590551 9.492550 -2.181221 0.590551 9.662714 -2.125211 0.590551 9.847353 -2.106299 0.590551 10.039371 -2.125211 0.590551 10.231389 -2.181221 0.590551 10.416028 -2.272176 0.590551 10.586192 -2.394579 0.590551 10.735342 -2.543730 0.590551 10.857746 -2.713894 0.590551 10.948701 -2.898533 0.590551 11.004711 3.011811 -0.905512 11.102509 2.883143 -0.905512 11.082081 2.683706 -0.905512 11.021583 2.499904 -0.905512 10.923337 2.338799 -0.905512 10.791122 2.206585 -0.905512 10.630019 2.108340 -0.905512 10.446217 2.047841 -0.905512 10.246779 2.027414 -0.905512 10.039371 2.047841 -0.905512 9.831963 2.108340 -0.905512 9.632525 2.206585 -0.905512 9.448723 2.338799 -0.905512 9.287620 2.499904 -0.905512 9.155405 2.683706 -0.905512 9.057159 2.883143 -0.905512 8.996661 3.011811 -0.905512 8.976233 -3.011811 -0.905512 11.102387 -3.011811 -0.905512 8.976355 -2.883167 -0.905512 8.996780 -2.683752 -0.905512 9.057272 -2.499971 -0.905512 9.155505 -2.338885 -0.905512 9.287704 -2.206685 -0.905512 9.448791 -2.108452 -0.905512 9.632572 -2.047960 -0.905512 9.831987 -2.027534 -0.905512 10.039371 -2.047960 -0.905512 10.246755 -2.108452 -0.905512 10.446169 -2.206685 -0.905512 10.629951 -2.338885 -0.905512 10.791038 -2.499971 -0.905512 10.923237 -2.683752 -0.905512 11.021470 -2.883167 -0.905512 11.081962 -3.090551 0.590551 4.330709 -3.090551 0.590551 12.204725 3.090551 0.590551 4.330709 3.090551 0.590551 12.204725 -2.559055 1.062992 5.314961 2.559055 1.062992 5.314961 -2.559939 1.062992 10.433071 2.559939 1.062992 10.433071 0.000000 1.062992 11.418207 -0.356869 1.062992 11.371226 -0.689419 1.062992 11.233479 -0.974985 1.062992 11.014356 -1.194108 1.062992 10.728789 -1.331854 1.062992 10.396239 -1.378837 1.062992 10.039371 -1.331854 1.062992 9.682503 -1.194108 1.062992 9.349953 -0.974985 1.062992 9.064386 -0.689419 1.062992 8.845263 -0.356869 1.062992 8.707516 0.000000 1.062992 8.660534 0.356869 1.062992 8.707516 0.689419 1.062992 8.845263 0.974985 1.062992 9.064386 1.194108 1.062992 9.349953 1.331854 1.062992 9.682503 1.378837 1.062992 10.039371 1.331854 1.062992 10.396239 1.194108 1.062992 10.728789 0.974985 1.062992 11.014356 0.689419 1.062992 11.233479 0.356869 1.062992 11.371226 2.559055 1.062992 8.267717 -2.559055 1.062992 8.267717 -1.181102 1.062992 11.811908 -1.537972 1.062992 11.764926 -1.870521 1.062992 11.627178 -2.156087 1.062992 11.408056 -2.375210 1.062992 11.122490 -2.512957 1.062992 10.789940 1.181102 1.062992 11.811908 2.512957 1.062992 10.789940 2.375210 1.062992 11.122490 2.156087 1.062992 11.408056 1.870521 1.062992 11.627178 1.537972 1.062992 11.764926 -2.559055 1.062992 5.905512 2.559055 1.062992 5.905512 -2.165354 1.062992 8.267717 -2.165354 1.062992 5.905512 2.165354 1.062992 8.267717 2.165354 1.062992 5.905512 ]
        }
        coordIndex [ 125 2 124 -1 106 126 72 -1 90 127 5 -1 108 124 0 -1 126 0 124 -1 125 5 127 -1 10 9 8 -1 12 11 10 -1 14 13 12 -1 16 15 14 -1 18 17 16 -1 20 19 18 -1 22 21 20 -1 24 23 22 -1 26 25 24 -1 28 27 26 -1 30 29 28 -1 32 31 30 -1 34 33 32 -1 36 35 34 -1 38 37 36 -1 40 39 38 -1 42 41 40 -1 44 43 42 -1 46 45 44 -1 48 47 46 -1 50 49 48 -1 52 51 50 -1 54 53 52 -1 8 55 54 -1 60 93 94 -1 88 123 89 -1 76 109 110 -1 61 94 95 -1 89 107 73 -1 77 110 111 -1 62 95 96 -1 78 111 112 -1 63 96 97 -1 79 112 113 -1 64 97 98 -1 80 113 114 -1 64 99 65 -1 81 114 115 -1 65 100 66 -1 82 115 116 -1 66 101 67 -1 82 117 83 -1 67 102 68 -1 83 118 84 -1 68 103 69 -1 84 119 85 -1 69 104 70 -1 57 90 91 -1 85 120 86 -1 70 105 71 -1 58 91 92 -1 86 121 87 -1 71 106 72 -1 59 92 93 -1 87 122 88 -1 75 108 109 -1 3 127 7 -1 6 124 2 -1 7 126 6 -1 125 107 1 -1 88 89 76 -1 70 71 58 -1 106 105 4 -1 103 29 4 -1 91 90 5 -1 108 0 109 -1 104 103 4 -1 109 0 110 -1 0 4 33 -1 110 0 111 -1 29 31 4 -1 93 5 94 -1 112 111 37 -1 33 35 0 -1 35 37 0 -1 37 111 0 -1 119 118 49 -1 112 37 39 -1 120 119 51 -1 29 102 27 -1 113 112 39 -1 100 25 101 -1 39 41 113 -1 43 115 114 -1 95 15 17 -1 99 23 100 -1 41 43 114 -1 96 17 19 -1 118 117 47 -1 98 21 99 -1 43 45 115 -1 21 23 99 -1 97 21 98 -1 97 19 21 -1 47 117 45 -1 45 116 115 -1 97 96 19 -1 49 118 47 -1 23 25 100 -1 117 116 45 -1 96 95 17 -1 51 119 49 -1 41 114 113 -1 25 27 101 -1 95 94 15 -1 53 120 51 -1 94 13 15 -1 102 101 27 -1 94 5 13 -1 55 1 53 -1 31 33 4 -1 9 1 55 -1 105 104 4 -1 103 102 29 -1 92 5 93 -1 5 11 13 -1 1 121 120 -1 92 91 5 -1 5 1 9 -1 1 123 122 -1 5 9 11 -1 1 107 123 -1 1 122 121 -1 1 120 53 -1 129 171 6 -1 129 6 2 -1 129 2 128 -1 6 171 156 -1 2 3 157 -1 143 34 144 -1 7 6 156 -1 156 171 175 -1 156 175 174 -1 172 173 170 -1 172 170 157 -1 170 2 157 -1 7 156 131 -1 130 157 3 -1 7 131 165 -1 163 130 3 -1 7 165 166 -1 162 163 3 -1 7 166 167 -1 161 162 3 -1 7 167 168 -1 160 161 3 -1 7 168 169 -1 159 160 3 -1 7 169 164 -1 158 159 3 -1 7 164 158 -1 7 158 3 -1 170 128 2 -1 142 36 143 -1 32 30 144 -1 141 38 142 -1 149 22 20 -1 136 48 46 -1 140 40 141 -1 30 28 145 -1 30 145 144 -1 52 134 133 -1 14 12 154 -1 28 26 146 -1 139 138 44 -1 50 135 134 -1 139 42 140 -1 28 146 145 -1 36 34 143 -1 24 22 148 -1 151 150 20 -1 42 40 140 -1 26 147 146 -1 10 8 132 -1 42 139 44 -1 150 149 20 -1 137 44 138 -1 137 46 44 -1 18 151 20 -1 137 136 46 -1 16 152 18 -1 152 151 18 -1 48 136 135 -1 22 149 148 -1 26 24 147 -1 50 48 135 -1 16 14 153 -1 24 148 147 -1 152 16 153 -1 52 50 134 -1 54 133 132 -1 12 10 155 -1 54 52 133 -1 38 36 142 -1 40 38 141 -1 153 14 154 -1 8 54 132 -1 154 12 155 -1 155 10 132 -1 34 32 144 -1 125 3 2 -1 106 4 126 -1 90 56 127 -1 108 74 124 -1 126 4 0 -1 125 1 5 -1 10 11 9 -1 12 13 11 -1 14 15 13 -1 16 17 15 -1 18 19 17 -1 20 21 19 -1 22 23 21 -1 24 25 23 -1 26 27 25 -1 28 29 27 -1 30 31 29 -1 32 33 31 -1 34 35 33 -1 36 37 35 -1 38 39 37 -1 40 41 39 -1 42 43 41 -1 44 45 43 -1 46 47 45 -1 48 49 47 -1 50 51 49 -1 52 53 51 -1 54 55 53 -1 8 9 55 -1 60 59 93 -1 88 122 123 -1 76 75 109 -1 61 60 94 -1 89 123 107 -1 77 76 110 -1 62 61 95 -1 78 77 111 -1 63 62 96 -1 79 78 112 -1 64 63 97 -1 80 79 113 -1 64 98 99 -1 81 80 114 -1 65 99 100 -1 82 81 115 -1 66 100 101 -1 82 116 117 -1 67 101 102 -1 83 117 118 -1 68 102 103 -1 84 118 119 -1 69 103 104 -1 57 56 90 -1 85 119 120 -1 70 104 105 -1 58 57 91 -1 86 120 121 -1 71 105 106 -1 59 58 92 -1 87 121 122 -1 75 74 108 -1 3 125 127 -1 6 126 124 -1 7 127 126 -1 125 73 107 -1 74 75 73 -1 75 76 89 -1 73 75 89 -1 76 77 87 -1 77 78 86 -1 78 79 85 -1 79 80 84 -1 80 81 83 -1 81 82 83 -1 83 84 80 -1 84 85 79 -1 85 86 78 -1 86 87 77 -1 87 88 76 -1 56 57 72 -1 57 58 71 -1 72 57 71 -1 58 59 69 -1 59 60 68 -1 60 61 67 -1 61 62 66 -1 62 63 66 -1 63 64 65 -1 66 63 65 -1 66 67 61 -1 67 68 60 -1 68 69 59 -1 69 70 58 -1 ]
    }
}

# TO-247 Back
Shape {
    appearance Appearance {
        material USE Tin
    }
    geometry IndexedFaceSet {
        coord Coordinate {
            point [ -2.559055 1.062992 5.314961 2.559055 1.062992 5.314961 -2.559939 1.062992 10.433071 2.559939 1.062992 10.433071 0.000000 1.062992 11.418207 -0.356869 1.062992 11.371226 -0.689419 1.062992 11.233479 -0.974985 1.062992 11.014356 -1.194108 1.062992 10.728789 -1.331854 1.062992 10.396239 -1.378837 1.062992 10.039371 -1.331854 1.062992 9.682503 -1.194108 1.062992 9.349953 -0.974985 1.062992 9.064386 -0.689419 1.062992 8.845263 -0.356869 1.062992 8.707516 0.000000 1.062992 8.660534 0.356869 1.062992 8.707516 0.689419 1.062992 8.845263 0.974985 1.062992 9.064386 1.194108 1.062992 9.349953 1.331854 1.062992 9.682503 1.378837 1.062992 10.039371 1.331854 1.062992 10.396239 1.194108 1.062992 10.728789 0.974985 1.062992 11.014356 0.689419 1.062992 11.233479 0.356869 1.062992 11.371226 2.559055 1.062992 8.267717 -2.559055 1.062992 8.267717 -1.181102 1.062992 11.811908 -1.537972 1.062992 11.764926 -1.870521 1.062992 11.627178 -2.156087 1.062992 11.408056 -2.375210 1.062992 11.122490 -2.512957 1.062992 10.789940 1.181102 1.062992 11.811908 2.512957 1.062992 10.789940 2.375210 1.062992 11.122490 2.156087 1.062992 11.408056 1.870521 1.062992 11.627178 1.537972 1.062992 11.764926 -2.559055 1.062992 5.905512 2.559055 1.062992 5.905512 -2.165354 1.062992 8.267717 -2.165354 1.062992 5.905512 2.165354 1.062992 8.267717 2.165354 1.062992 5.905512 ]
        }
        coordIndex [ 47 43 1 -1 0 47 1 -1 45 16 47 -1 0 42 45 -1 47 0 45 -1 44 14 45 -1 3 28 46 -1 19 20 46 -1 19 46 18 -1 46 47 18 -1 16 17 47 -1 15 16 45 -1 14 15 45 -1 44 29 2 -1 14 44 13 -1 38 23 39 -1 13 44 12 -1 31 7 8 -1 3 46 21 -1 12 44 11 -1 3 21 22 -1 10 11 2 -1 3 22 23 -1 9 10 2 -1 23 24 39 -1 2 35 9 -1 9 34 33 -1 9 35 34 -1 41 40 24 -1 47 17 18 -1 25 41 24 -1 8 9 33 -1 26 36 25 -1 33 32 8 -1 31 30 7 -1 37 23 38 -1 27 36 26 -1 32 31 8 -1 27 4 36 -1 37 3 23 -1 40 39 24 -1 30 6 7 -1 46 20 21 -1 30 5 6 -1 4 5 30 -1 36 41 25 -1 36 4 30 -1 11 44 2 -1 ]
    }
}

# Cube
Shape {
    appearance Appearance {
        material USE Tin
    }
    geometry IndexedFaceSet {
        coord Coordinate {
            point [ -0.038353 -0.118110 -1.377953 -0.236220 -0.118110 4.330709 -0.038353 0.118110 -1.377953 -0.236220 0.118110 4.330709 0.038353 -0.118110 -1.377953 0.236220 -0.118110 4.330709 0.038353 0.118110 -1.377953 0.236220 0.118110 4.330709 -0.236220 -0.118110 2.755905 -0.236220 0.118110 2.755905 0.236220 0.118110 2.755905 0.236220 -0.118110 2.755905 -0.236220 0.118110 -1.062310 0.236220 0.118110 -1.062310 0.236220 -0.118110 -1.062310 -0.236220 -0.118110 -1.062310 0.629921 0.118110 4.330709 0.629921 -0.118110 4.330709 0.629921 0.118110 2.755905 0.629921 -0.118110 2.755905 -0.629921 -0.118110 2.755905 -0.629921 -0.118110 4.330709 -0.629921 0.118110 4.330709 -0.629921 0.118110 2.755905 2.107316 -0.118110 -1.377953 1.909449 -0.118110 4.330709 2.107316 0.118110 -1.377953 1.909449 0.118110 4.330709 2.184022 -0.118110 -1.377953 2.381890 -0.118110 4.330709 2.184022 0.118110 -1.377953 2.381890 0.118110 4.330709 1.909449 -0.118110 2.755905 1.909449 0.118110 2.755905 2.381890 0.118110 2.755905 1.909449 0.118110 -1.062310 2.381890 0.118110 -1.062310 2.381890 -0.118110 -1.062310 1.909449 -0.118110 -1.062310 2.381890 -0.118110 2.755905 1.515748 -0.118110 2.755905 1.515748 -0.118110 4.330709 1.515748 0.118110 4.330709 1.515748 0.118110 2.755905 -2.184022 -0.118110 -1.377953 -2.184022 0.118110 -1.377953 -2.381890 0.118110 4.330709 -2.107316 -0.118110 -1.377953 -1.909449 -0.118110 4.330709 -2.107316 0.118110 -1.377953 -1.909449 0.118110 4.330709 -1.909449 0.118110 2.755905 -1.909449 -0.118110 2.755905 -2.381890 0.118110 -1.062310 -1.909449 0.118110 -1.062310 -1.909449 -0.118110 -1.062310 -2.381890 -0.118110 -1.062310 -1.515748 0.118110 4.330709 -1.515748 -0.118110 4.330709 -1.515748 0.118110 2.755905 -1.515748 -0.118110 2.755905 -2.381890 -0.118110 2.755905 -2.381890 -0.118110 4.330709 -2.381890 0.118110 2.755905 ]
        }
        coordIndex [ 1 20 8 -1 3 10 9 -1 7 18 10 -1 5 8 11 -1 6 0 2 -1 11 15 14 -1 10 14 13 -1 9 13 12 -1 8 12 15 -1 15 2 0 -1 12 6 2 -1 13 4 6 -1 14 0 4 -1 16 19 18 -1 5 16 7 -1 10 19 11 -1 5 19 17 -1 21 23 20 -1 8 23 9 -1 3 21 1 -1 3 23 22 -1 25 40 32 -1 27 34 33 -1 29 32 39 -1 30 24 26 -1 39 38 37 -1 34 37 36 -1 33 36 35 -1 32 35 38 -1 38 26 24 -1 35 30 26 -1 36 28 30 -1 37 24 28 -1 31 39 34 -1 41 43 40 -1 32 43 33 -1 27 41 25 -1 27 43 42 -1 46 51 63 -1 50 59 51 -1 48 61 52 -1 49 44 45 -1 52 56 55 -1 51 55 54 -1 63 54 53 -1 61 53 56 -1 56 45 44 -1 53 49 45 -1 54 47 49 -1 55 44 47 -1 57 60 59 -1 48 57 50 -1 51 60 52 -1 48 60 58 -1 62 63 61 -1 1 21 20 -1 3 7 10 -1 7 16 18 -1 5 1 8 -1 6 4 0 -1 11 8 15 -1 10 11 14 -1 9 10 13 -1 8 9 12 -1 15 12 2 -1 12 13 6 -1 13 14 4 -1 14 15 0 -1 16 17 19 -1 5 17 16 -1 10 18 19 -1 5 11 19 -1 21 22 23 -1 8 20 23 -1 3 22 21 -1 3 9 23 -1 25 41 40 -1 27 31 34 -1 29 25 32 -1 30 28 24 -1 39 32 38 -1 34 39 37 -1 33 34 36 -1 32 33 35 -1 38 35 26 -1 35 36 30 -1 36 37 28 -1 37 38 24 -1 31 29 39 -1 41 42 43 -1 32 40 43 -1 27 42 41 -1 27 33 43 -1 46 50 51 -1 50 57 59 -1 48 62 61 -1 49 47 44 -1 52 61 56 -1 51 52 55 -1 63 51 54 -1 61 63 53 -1 56 53 45 -1 53 54 49 -1 54 55 47 -1 55 56 44 -1 57 58 60 -1 48 58 57 -1 51 59 60 -1 48 52 60 -1 62 46 63 -1 ]
    }
}
