(module "744612" (layer F.Cu) (tedit 5D2220EC)
  (solder_mask_margin 0.05)
  (solder_paste_margin -0.05)
  (clearance 0.1)
  (fp_text reference "REF**" (at 0 -7.4) (layer F.SilkS)
    (effects (font (size 0.6 0.6) (thickness 0.15)))
  )
  (fp_text value "744612" (at 0 7.5) (layer F.Fab)
    (effects (font (size 0.6 0.6) (thickness 0.15)))
  )
  (fp_line (start 9.25 -5.75) (end 9.25 5.75) (layer F.SilkS) (width 0.15))
  (fp_line (start -9.25 -5.75) (end -9.25 5.75) (layer F.SilkS) (width 0.15))
  (fp_line (start -8.25 -6.75) (end 8.25 -6.75) (layer F.SilkS) (width 0.15))
  (fp_line (start -8.25 6.75) (end 8.25 6.75) (layer F.SilkS) (width 0.15))
  (fp_arc (start 8.25 -5.75) (end 9.25 -5.75) (angle -90) (layer F.SilkS) (width 0.15))
  (fp_arc (start 8.25 5.75) (end 8.25 6.75) (angle -90) (layer F.SilkS) (width 0.15))
  (fp_arc (start -8.25 5.75) (end -9.25 5.75) (angle -90) (layer F.SilkS) (width 0.15))
  (fp_arc (start -8.25 -5.75) (end -8.25 -6.75) (angle -90) (layer F.SilkS) (width 0.15))
  (fp_line (start -9.5 -7) (end 9.5 -7) (layer F.CrtYd) (width 0.05))
  (fp_line (start 9.5 -7) (end 9.5 7) (layer F.CrtYd) (width 0.05))
  (fp_line (start 9.5 7) (end -9.5 7) (layer F.CrtYd) (width 0.05))
  (fp_line (start -9.5 7) (end -9.5 -7) (layer F.CrtYd) (width 0.05))
  (pad "1" thru_hole circle (at 7.5 -5) (size 1.9 1.9) (drill 1.1) (layers *.Cu *.Mask))
  (pad "2" thru_hole circle (at 7.5 5) (size 1.9 1.9) (drill 1.1) (layers *.Cu *.Mask))
  (pad "3" thru_hole circle (at -7.5 5) (size 1.9 1.9) (drill 1.1) (layers *.Cu *.Mask))
  (pad "4" thru_hole circle (at -7.5 -5) (size 1.9 1.9) (drill 1.1) (layers *.Cu *.Mask))
)
