(kicad_symbol_lib (version 20211014) (generator kicad_symbol_editor)
  (symbol "VB-2.0-1" (pin_names hide) (in_bom yes) (on_board yes)
    (property "Reference" "T" (id 0) (at 0 7.62 0)
      (effects (font (size 1.27 1.27)))
    )
    (property "Value" "VB-2.0-1" (id 1) (at 0 5.715 0)
      (effects (font (size 1.27 1.27)))
    )
    (property "Footprint" "block:VB-2.0-1" (id 2) (at 0 0 0)
      (effects (font (size 0.508 0.508)) hide)
    )
    (property "Datasheet" "" (id 3) (at 0 -3.81 0)
      (effects (font (size 1.27 1.27)) hide)
    )
    (property "ki_description" "Short circuit proof PCB transformer VB Range" (id 4) (at 0 0 0)
      (effects (font (size 1.27 1.27)) hide)
    )
    (symbol "VB-2.0-1_0_1"
      (arc (start -1.27 1.016) (mid -0.762 1.524) (end -1.27 2.032)
        (stroke (width 0.254) (type default) (color 0 0 0 0))
        (fill (type none))
      )
      (circle (center -1.27 1.524) (radius 0.0762)
        (stroke (width 0.1524) (type default) (color 0 0 0 0))
        (fill (type none))
      )
      (polyline
        (pts
          (xy 0 2.54)
          (xy 0 -2.54)
        )
        (stroke (width 0.254) (type default) (color 0 0 0 0))
        (fill (type none))
      )
      (circle (center 1.27 1.524) (radius 0.0762)
        (stroke (width 0.1524) (type default) (color 0 0 0 0))
        (fill (type none))
      )
      (arc (start 1.27 2.032) (mid 0.762 1.524) (end 1.27 1.016)
        (stroke (width 0.254) (type default) (color 0 0 0 0))
        (fill (type none))
      )
    )
    (symbol "VB-2.0-1_1_1"
      (arc (start -1.27 -2.032) (mid -0.762 -1.524) (end -1.27 -1.016)
        (stroke (width 0.254) (type default) (color 0 0 0 0))
        (fill (type none))
      )
      (arc (start -1.27 -1.016) (mid -0.762 -0.508) (end -1.27 0)
        (stroke (width 0.254) (type default) (color 0 0 0 0))
        (fill (type none))
      )
      (arc (start -1.27 0) (mid -0.762 0.508) (end -1.27 1.016)
        (stroke (width 0.254) (type default) (color 0 0 0 0))
        (fill (type none))
      )
      (polyline
        (pts
          (xy -1.27 -2.54)
          (xy -1.27 -2.032)
        )
        (stroke (width 0) (type default) (color 0 0 0 0))
        (fill (type none))
      )
      (polyline
        (pts
          (xy -1.27 2.54)
          (xy -1.27 2.032)
        )
        (stroke (width 0) (type default) (color 0 0 0 0))
        (fill (type none))
      )
      (polyline
        (pts
          (xy 1.27 -2.54)
          (xy 1.27 -2.032)
        )
        (stroke (width 0) (type default) (color 0 0 0 0))
        (fill (type none))
      )
      (polyline
        (pts
          (xy 1.27 2.54)
          (xy 1.27 2.032)
        )
        (stroke (width 0) (type default) (color 0 0 0 0))
        (fill (type none))
      )
      (arc (start 1.27 -1.016) (mid 0.762 -1.524) (end 1.27 -2.032)
        (stroke (width 0.254) (type default) (color 0 0 0 0))
        (fill (type none))
      )
      (arc (start 1.27 0) (mid 0.762 -0.508) (end 1.27 -1.016)
        (stroke (width 0.254) (type default) (color 0 0 0 0))
        (fill (type none))
      )
      (arc (start 1.27 1.016) (mid 0.762 0.508) (end 1.27 0)
        (stroke (width 0.254) (type default) (color 0 0 0 0))
        (fill (type none))
      )
      (pin passive line (at -3.81 2.54 0) (length 2.54)
        (name "1" (effects (font (size 1.27 1.27))))
        (number "1" (effects (font (size 1.27 1.27))))
      )
      (pin passive line (at -3.81 -2.54 0) (length 2.54)
        (name "2" (effects (font (size 1.27 1.27))))
        (number "2" (effects (font (size 1.27 1.27))))
      )
      (pin passive line (at 3.81 2.54 180) (length 2.54)
        (name "3" (effects (font (size 1.27 1.27))))
        (number "3" (effects (font (size 1.27 1.27))))
      )
      (pin passive line (at 3.81 -2.54 180) (length 2.54)
        (name "4" (effects (font (size 1.27 1.27))))
        (number "4" (effects (font (size 1.27 1.27))))
      )
    )
  )
  (symbol "VC-10-2" (pin_names hide) (in_bom yes) (on_board yes)
    (property "Reference" "U" (id 0) (at 0 11.43 0)
      (effects (font (size 1.27 1.27)))
    )
    (property "Value" "VC-10-2" (id 1) (at 0 9.525 0)
      (effects (font (size 1.27 1.27)))
    )
    (property "Footprint" "" (id 2) (at 0 0 0)
      (effects (font (size 1.27 1.27)) hide)
    )
    (property "Datasheet" "" (id 3) (at 0 0 0)
      (effects (font (size 1.27 1.27)) hide)
    )
    (symbol "VC-10-2_0_1"
      (arc (start -1.27 4.572) (mid -0.762 5.08) (end -1.27 5.588)
        (stroke (width 0.254) (type default) (color 0 0 0 0))
        (fill (type none))
      )
      (polyline
        (pts
          (xy 0 6.35)
          (xy 0 -6.35)
        )
        (stroke (width 0.254) (type default) (color 0 0 0 0))
        (fill (type none))
      )
      (circle (center 1.27 -2.286) (radius 0.0762)
        (stroke (width 0.1524) (type default) (color 0 0 0 0))
        (fill (type none))
      )
      (circle (center 1.27 5.334) (radius 0.0762)
        (stroke (width 0.1524) (type default) (color 0 0 0 0))
        (fill (type none))
      )
      (arc (start 1.27 5.842) (mid 0.762 5.334) (end 1.27 4.826)
        (stroke (width 0.254) (type default) (color 0 0 0 0))
        (fill (type none))
      )
    )
    (symbol "VC-10-2_1_1"
      (arc (start -1.27 -5.588) (mid -0.762 -5.08) (end -1.27 -4.572)
        (stroke (width 0.254) (type default) (color 0 0 0 0))
        (fill (type none))
      )
      (arc (start -1.27 -4.572) (mid -0.762 -4.064) (end -1.27 -3.556)
        (stroke (width 0.254) (type default) (color 0 0 0 0))
        (fill (type none))
      )
      (arc (start -1.27 -3.556) (mid -0.762 -3.048) (end -1.27 -2.54)
        (stroke (width 0.254) (type default) (color 0 0 0 0))
        (fill (type none))
      )
      (arc (start -1.27 -2.54) (mid -0.762 -2.032) (end -1.27 -1.524)
        (stroke (width 0.254) (type default) (color 0 0 0 0))
        (fill (type none))
      )
      (arc (start -1.27 -1.524) (mid -0.762 -1.016) (end -1.27 -0.508)
        (stroke (width 0.254) (type default) (color 0 0 0 0))
        (fill (type none))
      )
      (arc (start -1.27 -0.508) (mid -0.762 0) (end -1.27 0.508)
        (stroke (width 0.254) (type default) (color 0 0 0 0))
        (fill (type none))
      )
      (arc (start -1.27 0.508) (mid -0.762 1.016) (end -1.27 1.524)
        (stroke (width 0.254) (type default) (color 0 0 0 0))
        (fill (type none))
      )
      (arc (start -1.27 1.524) (mid -0.762 2.032) (end -1.27 2.54)
        (stroke (width 0.254) (type default) (color 0 0 0 0))
        (fill (type none))
      )
      (arc (start -1.27 2.54) (mid -0.762 3.048) (end -1.27 3.556)
        (stroke (width 0.254) (type default) (color 0 0 0 0))
        (fill (type none))
      )
      (arc (start -1.27 3.556) (mid -0.762 4.064) (end -1.27 4.572)
        (stroke (width 0.254) (type default) (color 0 0 0 0))
        (fill (type none))
      )
      (circle (center -1.27 5.08) (radius 0.0762)
        (stroke (width 0.1524) (type default) (color 0 0 0 0))
        (fill (type none))
      )
      (polyline
        (pts
          (xy -1.27 -6.35)
          (xy -1.27 -5.588)
        )
        (stroke (width 0) (type default) (color 0 0 0 0))
        (fill (type none))
      )
      (polyline
        (pts
          (xy -1.27 6.35)
          (xy -1.27 5.588)
        )
        (stroke (width 0) (type default) (color 0 0 0 0))
        (fill (type none))
      )
      (polyline
        (pts
          (xy 1.27 -6.35)
          (xy 1.27 -5.842)
        )
        (stroke (width 0) (type default) (color 0 0 0 0))
        (fill (type none))
      )
      (polyline
        (pts
          (xy 1.27 -1.27)
          (xy 1.27 -1.778)
        )
        (stroke (width 0) (type default) (color 0 0 0 0))
        (fill (type none))
      )
      (polyline
        (pts
          (xy 1.27 1.27)
          (xy 1.27 1.778)
        )
        (stroke (width 0) (type default) (color 0 0 0 0))
        (fill (type none))
      )
      (polyline
        (pts
          (xy 1.27 6.35)
          (xy 1.27 5.842)
        )
        (stroke (width 0) (type default) (color 0 0 0 0))
        (fill (type none))
      )
      (arc (start 1.27 -4.826) (mid 0.762 -5.334) (end 1.27 -5.842)
        (stroke (width 0.254) (type default) (color 0 0 0 0))
        (fill (type none))
      )
      (arc (start 1.27 -3.81) (mid 0.762 -4.318) (end 1.27 -4.826)
        (stroke (width 0.254) (type default) (color 0 0 0 0))
        (fill (type none))
      )
      (arc (start 1.27 -2.794) (mid 0.762 -3.302) (end 1.27 -3.81)
        (stroke (width 0.254) (type default) (color 0 0 0 0))
        (fill (type none))
      )
      (arc (start 1.27 -1.778) (mid 0.762 -2.286) (end 1.27 -2.794)
        (stroke (width 0.254) (type default) (color 0 0 0 0))
        (fill (type none))
      )
      (arc (start 1.27 2.794) (mid 0.762 2.286) (end 1.27 1.778)
        (stroke (width 0.254) (type default) (color 0 0 0 0))
        (fill (type none))
      )
      (arc (start 1.27 3.81) (mid 0.762 3.302) (end 1.27 2.794)
        (stroke (width 0.254) (type default) (color 0 0 0 0))
        (fill (type none))
      )
      (arc (start 1.27 4.826) (mid 0.762 4.318) (end 1.27 3.81)
        (stroke (width 0.254) (type default) (color 0 0 0 0))
        (fill (type none))
      )
      (pin passive line (at -3.81 6.35 0) (length 2.54)
        (name "1" (effects (font (size 1.27 1.27))))
        (number "1" (effects (font (size 1.27 1.27))))
      )
      (pin passive line (at -3.81 -6.35 0) (length 2.54)
        (name "2" (effects (font (size 1.27 1.27))))
        (number "2" (effects (font (size 1.27 1.27))))
      )
      (pin passive line (at 3.81 6.35 180) (length 2.54)
        (name "3" (effects (font (size 1.27 1.27))))
        (number "3" (effects (font (size 1.27 1.27))))
      )
      (pin passive line (at 3.81 1.27 180) (length 2.54)
        (name "4" (effects (font (size 1.27 1.27))))
        (number "4" (effects (font (size 1.27 1.27))))
      )
      (pin passive line (at 3.81 -1.27 180) (length 2.54)
        (name "5" (effects (font (size 1.27 1.27))))
        (number "5" (effects (font (size 1.27 1.27))))
      )
      (pin passive line (at 3.81 -6.35 180) (length 2.54)
        (name "6" (effects (font (size 1.27 1.27))))
        (number "6" (effects (font (size 1.27 1.27))))
      )
    )
  )
  (symbol "VC-16-2" (pin_names hide) (in_bom yes) (on_board yes)
    (property "Reference" "U" (id 0) (at 0 11.43 0)
      (effects (font (size 1.27 1.27)))
    )
    (property "Value" "VC-16-2" (id 1) (at 0 9.525 0)
      (effects (font (size 1.27 1.27)))
    )
    (property "Footprint" "block:VC-16-2" (id 2) (at 0 0 0)
      (effects (font (size 0.508 0.508)) hide)
    )
    (property "Datasheet" "" (id 3) (at 0 0 0)
      (effects (font (size 1.27 1.27)) hide)
    )
    (symbol "VC-16-2_0_1"
      (arc (start -1.27 4.572) (mid -0.762 5.08) (end -1.27 5.588)
        (stroke (width 0.254) (type default) (color 0 0 0 0))
        (fill (type none))
      )
      (polyline
        (pts
          (xy 0 6.35)
          (xy 0 -6.35)
        )
        (stroke (width 0.254) (type default) (color 0 0 0 0))
        (fill (type none))
      )
      (circle (center 1.27 -2.286) (radius 0.0762)
        (stroke (width 0.1524) (type default) (color 0 0 0 0))
        (fill (type none))
      )
      (circle (center 1.27 5.334) (radius 0.0762)
        (stroke (width 0.1524) (type default) (color 0 0 0 0))
        (fill (type none))
      )
      (arc (start 1.27 5.842) (mid 0.762 5.334) (end 1.27 4.826)
        (stroke (width 0.254) (type default) (color 0 0 0 0))
        (fill (type none))
      )
    )
    (symbol "VC-16-2_1_1"
      (arc (start -1.27 -5.588) (mid -0.762 -5.08) (end -1.27 -4.572)
        (stroke (width 0.254) (type default) (color 0 0 0 0))
        (fill (type none))
      )
      (arc (start -1.27 -4.572) (mid -0.762 -4.064) (end -1.27 -3.556)
        (stroke (width 0.254) (type default) (color 0 0 0 0))
        (fill (type none))
      )
      (arc (start -1.27 -3.556) (mid -0.762 -3.048) (end -1.27 -2.54)
        (stroke (width 0.254) (type default) (color 0 0 0 0))
        (fill (type none))
      )
      (arc (start -1.27 -2.54) (mid -0.762 -2.032) (end -1.27 -1.524)
        (stroke (width 0.254) (type default) (color 0 0 0 0))
        (fill (type none))
      )
      (arc (start -1.27 -1.524) (mid -0.762 -1.016) (end -1.27 -0.508)
        (stroke (width 0.254) (type default) (color 0 0 0 0))
        (fill (type none))
      )
      (arc (start -1.27 -0.508) (mid -0.762 0) (end -1.27 0.508)
        (stroke (width 0.254) (type default) (color 0 0 0 0))
        (fill (type none))
      )
      (arc (start -1.27 0.508) (mid -0.762 1.016) (end -1.27 1.524)
        (stroke (width 0.254) (type default) (color 0 0 0 0))
        (fill (type none))
      )
      (arc (start -1.27 1.524) (mid -0.762 2.032) (end -1.27 2.54)
        (stroke (width 0.254) (type default) (color 0 0 0 0))
        (fill (type none))
      )
      (arc (start -1.27 2.54) (mid -0.762 3.048) (end -1.27 3.556)
        (stroke (width 0.254) (type default) (color 0 0 0 0))
        (fill (type none))
      )
      (arc (start -1.27 3.556) (mid -0.762 4.064) (end -1.27 4.572)
        (stroke (width 0.254) (type default) (color 0 0 0 0))
        (fill (type none))
      )
      (circle (center -1.27 5.08) (radius 0.0762)
        (stroke (width 0.1524) (type default) (color 0 0 0 0))
        (fill (type none))
      )
      (polyline
        (pts
          (xy -1.27 -6.35)
          (xy -1.27 -5.588)
        )
        (stroke (width 0) (type default) (color 0 0 0 0))
        (fill (type none))
      )
      (polyline
        (pts
          (xy -1.27 6.35)
          (xy -1.27 5.588)
        )
        (stroke (width 0) (type default) (color 0 0 0 0))
        (fill (type none))
      )
      (polyline
        (pts
          (xy 1.27 -6.35)
          (xy 1.27 -5.842)
        )
        (stroke (width 0) (type default) (color 0 0 0 0))
        (fill (type none))
      )
      (polyline
        (pts
          (xy 1.27 -1.27)
          (xy 1.27 -1.778)
        )
        (stroke (width 0) (type default) (color 0 0 0 0))
        (fill (type none))
      )
      (polyline
        (pts
          (xy 1.27 1.27)
          (xy 1.27 1.778)
        )
        (stroke (width 0) (type default) (color 0 0 0 0))
        (fill (type none))
      )
      (polyline
        (pts
          (xy 1.27 6.35)
          (xy 1.27 5.842)
        )
        (stroke (width 0) (type default) (color 0 0 0 0))
        (fill (type none))
      )
      (arc (start 1.27 -4.826) (mid 0.762 -5.334) (end 1.27 -5.842)
        (stroke (width 0.254) (type default) (color 0 0 0 0))
        (fill (type none))
      )
      (arc (start 1.27 -3.81) (mid 0.762 -4.318) (end 1.27 -4.826)
        (stroke (width 0.254) (type default) (color 0 0 0 0))
        (fill (type none))
      )
      (arc (start 1.27 -2.794) (mid 0.762 -3.302) (end 1.27 -3.81)
        (stroke (width 0.254) (type default) (color 0 0 0 0))
        (fill (type none))
      )
      (arc (start 1.27 -1.778) (mid 0.762 -2.286) (end 1.27 -2.794)
        (stroke (width 0.254) (type default) (color 0 0 0 0))
        (fill (type none))
      )
      (arc (start 1.27 2.794) (mid 0.762 2.286) (end 1.27 1.778)
        (stroke (width 0.254) (type default) (color 0 0 0 0))
        (fill (type none))
      )
      (arc (start 1.27 3.81) (mid 0.762 3.302) (end 1.27 2.794)
        (stroke (width 0.254) (type default) (color 0 0 0 0))
        (fill (type none))
      )
      (arc (start 1.27 4.826) (mid 0.762 4.318) (end 1.27 3.81)
        (stroke (width 0.254) (type default) (color 0 0 0 0))
        (fill (type none))
      )
      (pin passive line (at -3.81 6.35 0) (length 2.54)
        (name "1" (effects (font (size 1.27 1.27))))
        (number "1" (effects (font (size 1.27 1.27))))
      )
      (pin passive line (at -3.81 -6.35 0) (length 2.54)
        (name "2" (effects (font (size 1.27 1.27))))
        (number "2" (effects (font (size 1.27 1.27))))
      )
      (pin passive line (at 3.81 6.35 180) (length 2.54)
        (name "3" (effects (font (size 1.27 1.27))))
        (number "3" (effects (font (size 1.27 1.27))))
      )
      (pin passive line (at 3.81 1.27 180) (length 2.54)
        (name "4" (effects (font (size 1.27 1.27))))
        (number "4" (effects (font (size 1.27 1.27))))
      )
      (pin passive line (at 3.81 -1.27 180) (length 2.54)
        (name "5" (effects (font (size 1.27 1.27))))
        (number "5" (effects (font (size 1.27 1.27))))
      )
      (pin passive line (at 3.81 -6.35 180) (length 2.54)
        (name "6" (effects (font (size 1.27 1.27))))
        (number "6" (effects (font (size 1.27 1.27))))
      )
    )
  )
  (symbol "VCM-36-2" (pin_names hide) (in_bom yes) (on_board yes)
    (property "Reference" "T" (id 0) (at 0 11.43 0)
      (effects (font (size 1.27 1.27)))
    )
    (property "Value" "VCM-36-2" (id 1) (at 0 8.89 0)
      (effects (font (size 1.27 1.27)))
    )
    (property "Footprint" "block:VCM-36-2" (id 2) (at 0 0 0)
      (effects (font (size 0.508 0.508)) hide)
    )
    (property "Datasheet" "" (id 3) (at 0 8.89 0)
      (effects (font (size 1.27 1.27)) hide)
    )
    (property "ki_description" "PCB transformer VCM Range, with mounting brackets" (id 4) (at 0 0 0)
      (effects (font (size 1.27 1.27)) hide)
    )
    (symbol "VCM-36-2_0_1"
      (arc (start -1.27 4.572) (mid -0.762 5.08) (end -1.27 5.588)
        (stroke (width 0.254) (type default) (color 0 0 0 0))
        (fill (type none))
      )
      (polyline
        (pts
          (xy 0 6.35)
          (xy 0 -6.35)
        )
        (stroke (width 0.254) (type default) (color 0 0 0 0))
        (fill (type none))
      )
      (circle (center 1.27 -2.286) (radius 0.0762)
        (stroke (width 0.1524) (type default) (color 0 0 0 0))
        (fill (type none))
      )
      (circle (center 1.27 5.334) (radius 0.0762)
        (stroke (width 0.1524) (type default) (color 0 0 0 0))
        (fill (type none))
      )
      (arc (start 1.27 5.842) (mid 0.762 5.334) (end 1.27 4.826)
        (stroke (width 0.254) (type default) (color 0 0 0 0))
        (fill (type none))
      )
    )
    (symbol "VCM-36-2_1_1"
      (arc (start -1.27 -5.588) (mid -0.762 -5.08) (end -1.27 -4.572)
        (stroke (width 0.254) (type default) (color 0 0 0 0))
        (fill (type none))
      )
      (arc (start -1.27 -4.572) (mid -0.762 -4.064) (end -1.27 -3.556)
        (stroke (width 0.254) (type default) (color 0 0 0 0))
        (fill (type none))
      )
      (arc (start -1.27 -3.556) (mid -0.762 -3.048) (end -1.27 -2.54)
        (stroke (width 0.254) (type default) (color 0 0 0 0))
        (fill (type none))
      )
      (arc (start -1.27 -2.54) (mid -0.762 -2.032) (end -1.27 -1.524)
        (stroke (width 0.254) (type default) (color 0 0 0 0))
        (fill (type none))
      )
      (arc (start -1.27 -1.524) (mid -0.762 -1.016) (end -1.27 -0.508)
        (stroke (width 0.254) (type default) (color 0 0 0 0))
        (fill (type none))
      )
      (arc (start -1.27 -0.508) (mid -0.762 0) (end -1.27 0.508)
        (stroke (width 0.254) (type default) (color 0 0 0 0))
        (fill (type none))
      )
      (arc (start -1.27 0.508) (mid -0.762 1.016) (end -1.27 1.524)
        (stroke (width 0.254) (type default) (color 0 0 0 0))
        (fill (type none))
      )
      (arc (start -1.27 1.524) (mid -0.762 2.032) (end -1.27 2.54)
        (stroke (width 0.254) (type default) (color 0 0 0 0))
        (fill (type none))
      )
      (arc (start -1.27 2.54) (mid -0.762 3.048) (end -1.27 3.556)
        (stroke (width 0.254) (type default) (color 0 0 0 0))
        (fill (type none))
      )
      (arc (start -1.27 3.556) (mid -0.762 4.064) (end -1.27 4.572)
        (stroke (width 0.254) (type default) (color 0 0 0 0))
        (fill (type none))
      )
      (circle (center -1.27 5.08) (radius 0.0762)
        (stroke (width 0.1524) (type default) (color 0 0 0 0))
        (fill (type none))
      )
      (polyline
        (pts
          (xy -1.27 -6.35)
          (xy -1.27 -5.588)
        )
        (stroke (width 0) (type default) (color 0 0 0 0))
        (fill (type none))
      )
      (polyline
        (pts
          (xy -1.27 6.35)
          (xy -1.27 5.588)
        )
        (stroke (width 0) (type default) (color 0 0 0 0))
        (fill (type none))
      )
      (polyline
        (pts
          (xy 1.27 -6.35)
          (xy 1.27 -5.842)
        )
        (stroke (width 0) (type default) (color 0 0 0 0))
        (fill (type none))
      )
      (polyline
        (pts
          (xy 1.27 -1.27)
          (xy 1.27 -1.778)
        )
        (stroke (width 0) (type default) (color 0 0 0 0))
        (fill (type none))
      )
      (polyline
        (pts
          (xy 1.27 1.27)
          (xy 1.27 1.778)
        )
        (stroke (width 0) (type default) (color 0 0 0 0))
        (fill (type none))
      )
      (polyline
        (pts
          (xy 1.27 6.35)
          (xy 1.27 5.842)
        )
        (stroke (width 0) (type default) (color 0 0 0 0))
        (fill (type none))
      )
      (arc (start 1.27 -4.826) (mid 0.762 -5.334) (end 1.27 -5.842)
        (stroke (width 0.254) (type default) (color 0 0 0 0))
        (fill (type none))
      )
      (arc (start 1.27 -3.81) (mid 0.762 -4.318) (end 1.27 -4.826)
        (stroke (width 0.254) (type default) (color 0 0 0 0))
        (fill (type none))
      )
      (arc (start 1.27 -2.794) (mid 0.762 -3.302) (end 1.27 -3.81)
        (stroke (width 0.254) (type default) (color 0 0 0 0))
        (fill (type none))
      )
      (arc (start 1.27 -1.778) (mid 0.762 -2.286) (end 1.27 -2.794)
        (stroke (width 0.254) (type default) (color 0 0 0 0))
        (fill (type none))
      )
      (arc (start 1.27 2.794) (mid 0.762 2.286) (end 1.27 1.778)
        (stroke (width 0.254) (type default) (color 0 0 0 0))
        (fill (type none))
      )
      (arc (start 1.27 3.81) (mid 0.762 3.302) (end 1.27 2.794)
        (stroke (width 0.254) (type default) (color 0 0 0 0))
        (fill (type none))
      )
      (arc (start 1.27 4.826) (mid 0.762 4.318) (end 1.27 3.81)
        (stroke (width 0.254) (type default) (color 0 0 0 0))
        (fill (type none))
      )
      (pin passive line (at -3.81 6.35 0) (length 2.54)
        (name "1" (effects (font (size 1.27 1.27))))
        (number "1" (effects (font (size 1.27 1.27))))
      )
      (pin passive line (at -3.81 -6.35 0) (length 2.54)
        (name "2" (effects (font (size 1.27 1.27))))
        (number "2" (effects (font (size 1.27 1.27))))
      )
      (pin passive line (at 3.81 6.35 180) (length 2.54)
        (name "3" (effects (font (size 1.27 1.27))))
        (number "3" (effects (font (size 1.27 1.27))))
      )
      (pin passive line (at 3.81 1.27 180) (length 2.54)
        (name "4" (effects (font (size 1.27 1.27))))
        (number "4" (effects (font (size 1.27 1.27))))
      )
      (pin passive line (at 3.81 -1.27 180) (length 2.54)
        (name "5" (effects (font (size 1.27 1.27))))
        (number "5" (effects (font (size 1.27 1.27))))
      )
      (pin passive line (at 3.81 -6.35 180) (length 2.54)
        (name "6" (effects (font (size 1.27 1.27))))
        (number "6" (effects (font (size 1.27 1.27))))
      )
    )
  )
)
