(kicad_symbol_lib (version 20220914) (generator kicad_symbol_editor)
  (symbol "24LC01" (pin_names (offset 1.016)) (in_bom yes) (on_board yes)
    (property "Reference" "U" (at 0 8.89 0)
      (effects (font (size 1.27 1.27)))
    )
    (property "Value" "24LC01" (at 0 6.35 0)
      (effects (font (size 1.27 1.27)))
    )
    (property "Footprint" "generic:SOT-23-5" (at 0 0 0)
      (effects (font (size 0.508 0.508)) hide)
    )
    (property "Datasheet" "" (at 0 10.16 0)
      (effects (font (size 1.27 1.27)) hide)
    )
    (property "ki_description" "1K I²C Serial EEPROM" (at 0 0 0)
      (effects (font (size 1.27 1.27)) hide)
    )
    (symbol "24LC01_0_1"
      (rectangle (start -6.35 5.08) (end 6.35 -5.08)
        (stroke (width 0.254) (type solid))
        (fill (type background))
      )
    )
    (symbol "24LC01_1_1"
      (pin input line (at 8.89 2.54 180) (length 2.54)
        (name "SCL" (effects (font (size 1.27 1.27))))
        (number "1" (effects (font (size 1.27 1.27))))
      )
      (pin passive line (at -8.89 -2.54 0) (length 2.54)
        (name "GND" (effects (font (size 1.27 1.27))))
        (number "2" (effects (font (size 1.27 1.27))))
      )
      (pin bidirectional line (at 8.89 0 180) (length 2.54)
        (name "SDA" (effects (font (size 1.27 1.27))))
        (number "3" (effects (font (size 1.27 1.27))))
      )
      (pin power_in line (at -8.89 2.54 0) (length 2.54)
        (name "VCC" (effects (font (size 1.27 1.27))))
        (number "4" (effects (font (size 1.27 1.27))))
      )
      (pin input line (at 8.89 -2.54 180) (length 2.54)
        (name "WP" (effects (font (size 1.27 1.27))))
        (number "5" (effects (font (size 1.27 1.27))))
      )
    )
  )
  (symbol "ATTINY404" (in_bom yes) (on_board yes)
    (property "Reference" "U" (at 0 13.97 0)
      (effects (font (size 1.27 1.27)))
    )
    (property "Value" "ATTINY404" (at 0 11.43 0)
      (effects (font (size 1.27 1.27)))
    )
    (property "Footprint" "generic:SO-16" (at 0 0 0)
      (effects (font (size 0.508 0.508)) hide)
    )
    (property "Datasheet" "" (at 0 11.43 0)
      (effects (font (size 1.27 1.27)) hide)
    )
    (property "ki_description" "tinyAVR 0-series of microcontroller, 20 MHz, 4 KB Flash, 256 B SRAM, 128 B EEPROM" (at 0 0 0)
      (effects (font (size 1.27 1.27)) hide)
    )
    (symbol "ATTINY404_1_1"
      (rectangle (start -15.24 10.16) (end 15.24 -10.16)
        (stroke (width 0.254) (type default))
        (fill (type background))
      )
      (pin power_in line (at -17.78 7.62 0) (length 2.54)
        (name "VDD" (effects (font (size 1.27 1.27))))
        (number "1" (effects (font (size 1.27 1.27))))
      )
      (pin bidirectional line (at 17.78 -2.54 180) (length 2.54)
        (name "PA0/~{RST}/UPDI" (effects (font (size 1.27 1.27))))
        (number "10" (effects (font (size 1.27 1.27))))
      )
      (pin bidirectional line (at 17.78 0 180) (length 2.54)
        (name "PA1" (effects (font (size 1.27 1.27))))
        (number "11" (effects (font (size 1.27 1.27))))
      )
      (pin bidirectional line (at 17.78 2.54 180) (length 2.54)
        (name "PA2" (effects (font (size 1.27 1.27))))
        (number "12" (effects (font (size 1.27 1.27))))
      )
      (pin bidirectional line (at 17.78 5.08 180) (length 2.54)
        (name "PA3/EXTCLK" (effects (font (size 1.27 1.27))))
        (number "13" (effects (font (size 1.27 1.27))))
      )
      (pin passive line (at 17.78 7.62 180) (length 2.54)
        (name "GND" (effects (font (size 1.27 1.27))))
        (number "14" (effects (font (size 1.27 1.27))))
      )
      (pin bidirectional line (at -17.78 5.08 0) (length 2.54)
        (name "PA4" (effects (font (size 1.27 1.27))))
        (number "2" (effects (font (size 1.27 1.27))))
      )
      (pin bidirectional line (at -17.78 2.54 0) (length 2.54)
        (name "PA5" (effects (font (size 1.27 1.27))))
        (number "3" (effects (font (size 1.27 1.27))))
      )
      (pin bidirectional line (at -17.78 0 0) (length 2.54)
        (name "PA6" (effects (font (size 1.27 1.27))))
        (number "4" (effects (font (size 1.27 1.27))))
      )
      (pin bidirectional line (at -17.78 -2.54 0) (length 2.54)
        (name "PA7" (effects (font (size 1.27 1.27))))
        (number "5" (effects (font (size 1.27 1.27))))
      )
      (pin bidirectional line (at -17.78 -5.08 0) (length 2.54)
        (name "PB3" (effects (font (size 1.27 1.27))))
        (number "6" (effects (font (size 1.27 1.27))))
      )
      (pin bidirectional line (at -17.78 -7.62 0) (length 2.54)
        (name "PB2" (effects (font (size 1.27 1.27))))
        (number "7" (effects (font (size 1.27 1.27))))
      )
      (pin bidirectional line (at 17.78 -7.62 180) (length 2.54)
        (name "PB1" (effects (font (size 1.27 1.27))))
        (number "8" (effects (font (size 1.27 1.27))))
      )
      (pin bidirectional line (at 17.78 -5.08 180) (length 2.54)
        (name "PB0" (effects (font (size 1.27 1.27))))
        (number "9" (effects (font (size 1.27 1.27))))
      )
    )
  )
  (symbol "MCP4725" (pin_names (offset 1.016)) (in_bom yes) (on_board yes)
    (property "Reference" "U" (at 0 8.89 0)
      (effects (font (size 1.27 1.27)))
    )
    (property "Value" "MCP4725" (at 0 6.35 0)
      (effects (font (size 1.27 1.27)))
    )
    (property "Footprint" "generic:SOT-23-6" (at 0 0 0)
      (effects (font (size 0.508 0.508)) hide)
    )
    (property "Datasheet" "" (at 0 0 0)
      (effects (font (size 1.27 1.27)) hide)
    )
    (property "ki_description" "12-Bit Digital-to-Analog Converter with EEPROM Memory" (at 0 0 0)
      (effects (font (size 1.27 1.27)) hide)
    )
    (symbol "MCP4725_0_1"
      (rectangle (start -6.35 5.08) (end 6.35 -5.08)
        (stroke (width 0.254) (type solid))
        (fill (type background))
      )
    )
    (symbol "MCP4725_1_1"
      (pin output line (at -8.89 2.54 0) (length 2.54)
        (name "VOUT" (effects (font (size 1.27 1.27))))
        (number "1" (effects (font (size 1.27 1.27))))
      )
      (pin passive line (at -8.89 0 0) (length 2.54)
        (name "VSS" (effects (font (size 1.27 1.27))))
        (number "2" (effects (font (size 1.27 1.27))))
      )
      (pin power_in line (at -8.89 -2.54 0) (length 2.54)
        (name "VDD" (effects (font (size 1.27 1.27))))
        (number "3" (effects (font (size 1.27 1.27))))
      )
      (pin input line (at 8.89 -2.54 180) (length 2.54)
        (name "SDA" (effects (font (size 1.27 1.27))))
        (number "4" (effects (font (size 1.27 1.27))))
      )
      (pin input line (at 8.89 0 180) (length 2.54)
        (name "SCL" (effects (font (size 1.27 1.27))))
        (number "5" (effects (font (size 1.27 1.27))))
      )
      (pin input line (at 8.89 2.54 180) (length 2.54)
        (name "A0" (effects (font (size 1.27 1.27))))
        (number "6" (effects (font (size 1.27 1.27))))
      )
    )
  )
  (symbol "MCP9600" (pin_names (offset 1.016)) (in_bom yes) (on_board yes)
    (property "Reference" "U" (at 0 1.27 0)
      (effects (font (size 1.27 1.27)))
    )
    (property "Value" "MCP9600" (at 0 -1.27 0)
      (effects (font (size 1.27 1.27)))
    )
    (property "Footprint" "microchip:MQFN-20" (at 0 0 0)
      (effects (font (size 0.508 0.508)) hide)
    )
    (property "Datasheet" "" (at 0 0 0)
      (effects (font (size 1.27 1.27)) hide)
    )
    (property "ki_description" "Thermocouple EMF to Temperature Converter, ±1.5°C Maximum Accuracy" (at 0 0 0)
      (effects (font (size 1.27 1.27)) hide)
    )
    (symbol "MCP9600_0_1"
      (rectangle (start -11.43 17.78) (end 11.43 -17.78)
        (stroke (width 0.254) (type solid))
        (fill (type background))
      )
    )
    (symbol "MCP9600_1_1"
      (pin passive line (at 13.97 7.62 180) (length 2.54)
        (name "GND" (effects (font (size 1.27 1.27))))
        (number "1" (effects (font (size 1.27 1.27))))
      )
      (pin passive line (at 13.97 -7.62 180) (length 2.54)
        (name "GND" (effects (font (size 1.27 1.27))))
        (number "10" (effects (font (size 1.27 1.27))))
      )
      (pin output line (at -13.97 -7.62 0) (length 2.54)
        (name "ALERT1" (effects (font (size 1.27 1.27))))
        (number "11" (effects (font (size 1.27 1.27))))
      )
      (pin output line (at -13.97 -10.16 0) (length 2.54)
        (name "ALERT2" (effects (font (size 1.27 1.27))))
        (number "12" (effects (font (size 1.27 1.27))))
      )
      (pin passive line (at 13.97 -10.16 180) (length 2.54)
        (name "GND" (effects (font (size 1.27 1.27))))
        (number "13" (effects (font (size 1.27 1.27))))
      )
      (pin output line (at -13.97 -12.7 0) (length 2.54)
        (name "ALERT3" (effects (font (size 1.27 1.27))))
        (number "14" (effects (font (size 1.27 1.27))))
      )
      (pin output line (at -13.97 -15.24 0) (length 2.54)
        (name "ALERT4" (effects (font (size 1.27 1.27))))
        (number "15" (effects (font (size 1.27 1.27))))
      )
      (pin input line (at -13.97 -2.54 0) (length 2.54)
        (name "ADDR" (effects (font (size 1.27 1.27))))
        (number "16" (effects (font (size 1.27 1.27))))
      )
      (pin passive line (at 13.97 -12.7 180) (length 2.54)
        (name "GND" (effects (font (size 1.27 1.27))))
        (number "17" (effects (font (size 1.27 1.27))))
      )
      (pin passive line (at 13.97 -15.24 180) (length 2.54)
        (name "GND" (effects (font (size 1.27 1.27))))
        (number "18" (effects (font (size 1.27 1.27))))
      )
      (pin input line (at -13.97 2.54 0) (length 2.54)
        (name "SCL" (effects (font (size 1.27 1.27))))
        (number "19" (effects (font (size 1.27 1.27))))
      )
      (pin input line (at -13.97 15.24 0) (length 2.54)
        (name "VIN+" (effects (font (size 1.27 1.27))))
        (number "2" (effects (font (size 1.27 1.27))))
      )
      (pin input line (at -13.97 0 0) (length 2.54)
        (name "SDA" (effects (font (size 1.27 1.27))))
        (number "20" (effects (font (size 1.27 1.27))))
      )
      (pin passive line (at 13.97 5.08 180) (length 2.54)
        (name "GND" (effects (font (size 1.27 1.27))))
        (number "3" (effects (font (size 1.27 1.27))))
      )
      (pin input line (at -13.97 12.7 0) (length 2.54)
        (name "VIN-" (effects (font (size 1.27 1.27))))
        (number "4" (effects (font (size 1.27 1.27))))
      )
      (pin passive line (at 13.97 2.54 180) (length 2.54)
        (name "GND" (effects (font (size 1.27 1.27))))
        (number "5" (effects (font (size 1.27 1.27))))
      )
      (pin passive line (at 13.97 0 180) (length 2.54)
        (name "GND" (effects (font (size 1.27 1.27))))
        (number "6" (effects (font (size 1.27 1.27))))
      )
      (pin passive line (at 13.97 -2.54 180) (length 2.54)
        (name "GND" (effects (font (size 1.27 1.27))))
        (number "7" (effects (font (size 1.27 1.27))))
      )
      (pin power_in line (at 13.97 15.24 180) (length 2.54)
        (name "VDD" (effects (font (size 1.27 1.27))))
        (number "8" (effects (font (size 1.27 1.27))))
      )
      (pin passive line (at 13.97 -5.08 180) (length 2.54)
        (name "GND" (effects (font (size 1.27 1.27))))
        (number "9" (effects (font (size 1.27 1.27))))
      )
    )
  )
)
