(kicad_symbol_lib (version 20211014) (generator kicad_symbol_editor)
  (symbol "CA" (pin_names hide) (in_bom yes) (on_board yes)
    (property "Reference" "L" (id 0) (at 3.81 1.27 0)
      (effects (font (size 1.27 1.27)) (justify left))
    )
    (property "Value" "CA" (id 1) (at 3.81 -1.27 0)
      (effects (font (size 1.27 1.27)) (justify left))
    )
    (property "Footprint" "" (id 2) (at 0 0 0)
      (effects (font (size 1.27 1.27)) hide)
    )
    (property "Datasheet" "" (id 3) (at 0 0 0)
      (effects (font (size 1.27 1.27)) hide)
    )
    (property "ki_description" "Common Mode Toroidal Chokes" (id 4) (at 0 0 0)
      (effects (font (size 1.27 1.27)) hide)
    )
    (property "ki_fp_filters" "CAF*" (id 5) (at 0 0 0)
      (effects (font (size 1.27 1.27)) hide)
    )
    (symbol "CA_0_1"
      (arc (start -2.032 1.27) (mid -1.524 0.762) (end -1.016 1.27)
        (stroke (width 0.254) (type default) (color 0 0 0 0))
        (fill (type none))
      )
      (circle (center -1.524 -1.27) (radius 0.0762)
        (stroke (width 0.1524) (type default) (color 0 0 0 0))
        (fill (type none))
      )
      (circle (center -1.524 1.27) (radius 0.0762)
        (stroke (width 0.1524) (type default) (color 0 0 0 0))
        (fill (type none))
      )
      (polyline
        (pts
          (xy -2.54 0)
          (xy 2.54 0)
        )
        (stroke (width 0.254) (type default) (color 0 0 0 0))
        (fill (type none))
      )
      (arc (start 2.032 -1.27) (mid 1.524 -0.762) (end 1.016 -1.27)
        (stroke (width 0.254) (type default) (color 0 0 0 0))
        (fill (type none))
      )
    )
    (symbol "CA_1_1"
      (arc (start -1.016 -1.27) (mid -1.524 -0.762) (end -2.032 -1.27)
        (stroke (width 0.254) (type default) (color 0 0 0 0))
        (fill (type none))
      )
      (arc (start -1.016 1.27) (mid -0.508 0.762) (end 0 1.27)
        (stroke (width 0.254) (type default) (color 0 0 0 0))
        (fill (type none))
      )
      (arc (start 0 -1.27) (mid -0.508 -0.762) (end -1.016 -1.27)
        (stroke (width 0.254) (type default) (color 0 0 0 0))
        (fill (type none))
      )
      (polyline
        (pts
          (xy -2.54 -1.27)
          (xy -2.032 -1.27)
        )
        (stroke (width 0) (type default) (color 0 0 0 0))
        (fill (type none))
      )
      (polyline
        (pts
          (xy -2.54 1.27)
          (xy -2.032 1.27)
        )
        (stroke (width 0) (type default) (color 0 0 0 0))
        (fill (type none))
      )
      (polyline
        (pts
          (xy 2.54 -1.27)
          (xy 2.032 -1.27)
        )
        (stroke (width 0) (type default) (color 0 0 0 0))
        (fill (type none))
      )
      (polyline
        (pts
          (xy 2.54 1.27)
          (xy 2.032 1.27)
        )
        (stroke (width 0) (type default) (color 0 0 0 0))
        (fill (type none))
      )
      (arc (start 0 1.27) (mid 0.508 0.762) (end 1.016 1.27)
        (stroke (width 0.254) (type default) (color 0 0 0 0))
        (fill (type none))
      )
      (arc (start 1.016 -1.27) (mid 0.508 -0.762) (end 0 -1.27)
        (stroke (width 0.254) (type default) (color 0 0 0 0))
        (fill (type none))
      )
      (arc (start 1.016 1.27) (mid 1.524 0.762) (end 2.032 1.27)
        (stroke (width 0.254) (type default) (color 0 0 0 0))
        (fill (type none))
      )
      (pin passive line (at -2.54 3.81 270) (length 2.54)
        (name "1" (effects (font (size 1.27 1.27))))
        (number "1" (effects (font (size 1.27 1.27))))
      )
      (pin passive line (at -2.54 -3.81 90) (length 2.54)
        (name "2" (effects (font (size 1.27 1.27))))
        (number "2" (effects (font (size 1.27 1.27))))
      )
      (pin passive line (at 2.54 -3.81 90) (length 2.54)
        (name "3" (effects (font (size 1.27 1.27))))
        (number "3" (effects (font (size 1.27 1.27))))
      )
      (pin passive line (at 2.54 3.81 270) (length 2.54)
        (name "4" (effects (font (size 1.27 1.27))))
        (number "4" (effects (font (size 1.27 1.27))))
      )
    )
  )
)
