(kicad_symbol_lib (version 20211014) (generator kicad_symbol_editor)
  (symbol "FKP02" (pin_numbers hide) (pin_names (offset 1.016) hide) (in_bom yes) (on_board yes)
    (property "Reference" "C" (id 0) (at 0 3.81 0)
      (effects (font (size 1.27 1.27)))
    )
    (property "Value" "FKP02" (id 1) (at 0 -3.81 0)
      (effects (font (size 1.27 1.27)))
    )
    (property "Footprint" "" (id 2) (at 0 0 0)
      (effects (font (size 1.27 1.27)) hide)
    )
    (property "Datasheet" "" (id 3) (at 0 0 0)
      (effects (font (size 1.27 1.27)) hide)
    )
    (symbol "FKP02_1_1"
      (polyline
        (pts
          (xy -0.508 1.778)
          (xy -0.508 -1.778)
        )
        (stroke (width 0.3048) (type default) (color 0 0 0 0))
        (fill (type none))
      )
      (polyline
        (pts
          (xy 0.508 1.778)
          (xy 0.508 -1.778)
        )
        (stroke (width 0.3048) (type default) (color 0 0 0 0))
        (fill (type none))
      )
      (pin passive line (at -2.54 0 0) (length 2.032)
        (name "1" (effects (font (size 1.27 1.27))))
        (number "1" (effects (font (size 1.27 1.27))))
      )
      (pin passive line (at 2.54 0 180) (length 2.032)
        (name "2" (effects (font (size 1.27 1.27))))
        (number "2" (effects (font (size 1.27 1.27))))
      )
    )
  )
  (symbol "MKP-X2" (pin_numbers hide) (pin_names hide) (in_bom yes) (on_board yes)
    (property "Reference" "C" (id 0) (at 0 3.81 0)
      (effects (font (size 1.27 1.27)))
    )
    (property "Value" "MKP-X2" (id 1) (at 0 -3.81 0)
      (effects (font (size 1.27 1.27)))
    )
    (property "Footprint" "" (id 2) (at 0 0 0)
      (effects (font (size 1.27 1.27)) hide)
    )
    (property "Datasheet" "" (id 3) (at 0 0 0)
      (effects (font (size 1.27 1.27)) hide)
    )
    (property "ki_description" "Metallized Polypropylene (PP) RFI-Capacitors Class X2" (id 4) (at 0 0 0)
      (effects (font (size 1.27 1.27)) hide)
    )
    (symbol "MKP-X2_1_1"
      (polyline
        (pts
          (xy -0.508 1.778)
          (xy -0.508 -1.778)
        )
        (stroke (width 0.3048) (type default) (color 0 0 0 0))
        (fill (type none))
      )
      (polyline
        (pts
          (xy 0.508 1.778)
          (xy 0.508 -1.778)
        )
        (stroke (width 0.3048) (type default) (color 0 0 0 0))
        (fill (type none))
      )
      (pin passive line (at -2.54 0 0) (length 2.032)
        (name "1" (effects (font (size 1.27 1.27))))
        (number "1" (effects (font (size 1.27 1.27))))
      )
      (pin passive line (at 2.54 0 180) (length 2.032)
        (name "2" (effects (font (size 1.27 1.27))))
        (number "2" (effects (font (size 1.27 1.27))))
      )
    )
  )
  (symbol "MKP-Y2" (pin_numbers hide) (pin_names hide) (in_bom yes) (on_board yes)
    (property "Reference" "C" (id 0) (at 0 3.81 0)
      (effects (font (size 1.27 1.27)))
    )
    (property "Value" "MKP-Y2" (id 1) (at 0 -3.81 0)
      (effects (font (size 1.27 1.27)))
    )
    (property "Footprint" "" (id 2) (at 0 0 0)
      (effects (font (size 1.27 1.27)) hide)
    )
    (property "Datasheet" "" (id 3) (at 0 0 0)
      (effects (font (size 1.27 1.27)) hide)
    )
    (property "ki_description" "Metallized Polypropylene (PP) RFI-Capacitors Class Y2" (id 4) (at 0 0 0)
      (effects (font (size 1.27 1.27)) hide)
    )
    (symbol "MKP-Y2_1_1"
      (polyline
        (pts
          (xy -0.508 1.778)
          (xy -0.508 -1.778)
        )
        (stroke (width 0.3048) (type default) (color 0 0 0 0))
        (fill (type none))
      )
      (polyline
        (pts
          (xy 0.508 1.778)
          (xy 0.508 -1.778)
        )
        (stroke (width 0.3048) (type default) (color 0 0 0 0))
        (fill (type none))
      )
      (pin passive line (at -2.54 0 0) (length 2.032)
        (name "1" (effects (font (size 1.27 1.27))))
        (number "1" (effects (font (size 1.27 1.27))))
      )
      (pin passive line (at 2.54 0 180) (length 2.032)
        (name "2" (effects (font (size 1.27 1.27))))
        (number "2" (effects (font (size 1.27 1.27))))
      )
    )
  )
  (symbol "MKS02" (pin_numbers hide) (pin_names (offset 1.016) hide) (in_bom yes) (on_board yes)
    (property "Reference" "C" (id 0) (at 0 3.81 0)
      (effects (font (size 1.27 1.27)))
    )
    (property "Value" "MKS02" (id 1) (at 0 -3.81 0)
      (effects (font (size 1.27 1.27)))
    )
    (property "Footprint" "" (id 2) (at 0 0 0)
      (effects (font (size 1.27 1.27)) hide)
    )
    (property "Datasheet" "" (id 3) (at 0 0 0)
      (effects (font (size 1.27 1.27)) hide)
    )
    (symbol "MKS02_1_1"
      (polyline
        (pts
          (xy -0.508 1.778)
          (xy -0.508 -1.778)
        )
        (stroke (width 0.3048) (type default) (color 0 0 0 0))
        (fill (type none))
      )
      (polyline
        (pts
          (xy 0.508 1.778)
          (xy 0.508 -1.778)
        )
        (stroke (width 0.3048) (type default) (color 0 0 0 0))
        (fill (type none))
      )
      (pin passive line (at -2.54 0 0) (length 2.032)
        (name "1" (effects (font (size 1.27 1.27))))
        (number "1" (effects (font (size 1.27 1.27))))
      )
      (pin passive line (at 2.54 0 180) (length 2.032)
        (name "2" (effects (font (size 1.27 1.27))))
        (number "2" (effects (font (size 1.27 1.27))))
      )
    )
  )
  (symbol "MKS2" (pin_numbers hide) (pin_names (offset 1.016) hide) (in_bom yes) (on_board yes)
    (property "Reference" "C" (id 0) (at 0 3.81 0)
      (effects (font (size 1.27 1.27)))
    )
    (property "Value" "MKS2" (id 1) (at 0 -3.81 0)
      (effects (font (size 1.27 1.27)))
    )
    (property "Footprint" "" (id 2) (at 0 0 0)
      (effects (font (size 1.27 1.27)) hide)
    )
    (property "Datasheet" "" (id 3) (at 0 0 0)
      (effects (font (size 1.27 1.27)) hide)
    )
    (symbol "MKS2_1_1"
      (polyline
        (pts
          (xy -0.508 1.778)
          (xy -0.508 -1.778)
        )
        (stroke (width 0.3048) (type default) (color 0 0 0 0))
        (fill (type none))
      )
      (polyline
        (pts
          (xy 0.508 1.778)
          (xy 0.508 -1.778)
        )
        (stroke (width 0.3048) (type default) (color 0 0 0 0))
        (fill (type none))
      )
      (pin passive line (at -2.54 0 0) (length 2.032)
        (name "1" (effects (font (size 1.27 1.27))))
        (number "1" (effects (font (size 1.27 1.27))))
      )
      (pin passive line (at 2.54 0 180) (length 2.032)
        (name "2" (effects (font (size 1.27 1.27))))
        (number "2" (effects (font (size 1.27 1.27))))
      )
    )
  )
)
