EESchema Schematic File Version 4
EELAYER 29 0
EELAYER END
$Descr A4 11693 8268
encoding utf-8
Sheet 1 1
Title "Project title"
Date "2019-01-02"
Rev "0"
Comp "Author name"
Comment1 "XX??"
Comment2 "PCB???"
Comment3 "Creative Commons Attribution-ShareAlike 4.0 International (CC BY-SA 4.0)"
Comment4 "no"
$EndDescr
$EndSCHEMATC
