(module C-0805 (layer F.Cu) (tedit 5C28DF65)
  (solder_mask_margin 0.05)
  (clearance 0.1)
  (attr smd)
  (fp_text reference REF** (at 0 -1.3) (layer F.SilkS)
    (effects (font (size 0.6 0.6) (thickness 0.15)))
  )
  (fp_text value C-0805 (at 0 1.4) (layer F.Fab)
    (effects (font (size 0.6 0.6) (thickness 0.15)))
  )
  (fp_line (start -0.55 -0.65) (end -0.55 0.65) (layer F.Fab) (width 0.1))
  (fp_line (start 1 -0.65) (end 1 0.65) (layer F.Fab) (width 0.1))
  (fp_line (start 1 0.65) (end -1 0.65) (layer F.Fab) (width 0.1))
  (fp_line (start -1 0.65) (end -1 -0.65) (layer F.Fab) (width 0.1))
  (fp_line (start -1 -0.65) (end 1 -0.65) (layer F.Fab) (width 0.1))
  (fp_line (start 0.55 -0.65) (end 0.55 0.65) (layer F.Fab) (width 0.1))
  (fp_line (start -0.325 -0.7) (end 0.325 -0.7) (layer F.SilkS) (width 0.15))
  (fp_line (start -0.325 0.7) (end 0.325 0.7) (layer F.SilkS) (width 0.15))
  (fp_line (start -1.4 -0.8) (end 1.4 -0.8) (layer F.CrtYd) (width 0.05))
  (fp_line (start 1.4 -0.8) (end 1.4 0.8) (layer F.CrtYd) (width 0.05))
  (fp_line (start 1.4 0.8) (end -1.4 0.8) (layer F.CrtYd) (width 0.05))
  (fp_line (start -1.4 0.8) (end -1.4 -0.8) (layer F.CrtYd) (width 0.05))
  (pad 1 smd rect (at -0.9 0) (size 0.8 1.4) (layers F.Cu F.Paste F.Mask))
  (pad 2 smd rect (at 0.9 0) (size 0.8 1.4) (layers F.Cu F.Paste F.Mask))
  (model ${PARTS}/models/generic/C-0805.wrl
    (at (xyz 0 0 0))
    (scale (xyz 1 1 1))
    (rotate (xyz 0 0 0))
  )
)
