(module C-1210 (layer F.Cu) (tedit 5C1C112C)
  (solder_mask_margin 0.05)
  (solder_paste_margin -0.05)
  (clearance 0.1)
  (attr smd)
  (fp_text reference REF** (at 0 -1.9) (layer F.SilkS)
    (effects (font (size 0.6 0.6) (thickness 0.15)))
  )
  (fp_text value C-1210 (at 0 1.9) (layer F.Fab)
    (effects (font (size 0.6 0.6) (thickness 0.15)))
  )
  (fp_line (start -1.15 -1.25) (end -1.15 1.25) (layer F.Fab) (width 0.1))
  (fp_line (start 1.15 -1.25) (end 1.15 1.25) (layer F.Fab) (width 0.1))
  (fp_line (start 1.55 -1.25) (end 1.55 1.25) (layer F.Fab) (width 0.1))
  (fp_line (start 1.55 1.25) (end -1.55 1.25) (layer F.Fab) (width 0.1))
  (fp_line (start -1.55 1.25) (end -1.55 -1.25) (layer F.Fab) (width 0.1))
  (fp_line (start -1.55 -1.25) (end 1.55 -1.25) (layer F.Fab) (width 0.1))
  (fp_line (start -0.825 -1.3) (end 0.825 -1.3) (layer F.SilkS) (width 0.15))
  (fp_line (start -0.825 1.3) (end 0.825 1.3) (layer F.SilkS) (width 0.15))
  (fp_line (start -2 -1.4) (end 2 -1.4) (layer F.CrtYd) (width 0.05))
  (fp_line (start 2 -1.4) (end 2 1.4) (layer F.CrtYd) (width 0.05))
  (fp_line (start 2 1.4) (end -2 1.4) (layer F.CrtYd) (width 0.05))
  (fp_line (start -2 1.4) (end -2 -1.4) (layer F.CrtYd) (width 0.05))
  (pad 1 smd rect (at -1.45 0) (size 0.9 2.5) (layers F.Cu F.Paste F.Mask))
  (pad 2 smd rect (at 1.45 0) (size 0.9 2.5) (layers F.Cu F.Paste F.Mask))
  (model ${PARTS}/models/generic/C-1210.wrl
    (at (xyz 0 0 0))
    (scale (xyz 1 1 1))
    (rotate (xyz 0 0 0))
  )
)
