(module FD-C (layer F.Cu) (tedit 5B7164C5)
  (descr "Feducial Circle")
  (attr virtual)
  (fp_text reference REF** (at 0 -2) (layer F.Fab)
    (effects (font (size 0.6 0.6) (thickness 0.15)))
  )
  (fp_text value FD-C (at 0 2) (layer F.Fab)
    (effects (font (size 0.6 0.6) (thickness 0.15)))
  )
  (fp_circle (center 0 0) (end 1.5 0) (layer F.CrtYd) (width 0.05))
  (pad 1 smd circle (at 0 0) (size 1 1) (layers F.Cu F.Mask)
    (solder_mask_margin 0.5) (clearance 1))
)
