(footprint "GBU" (version 20211014) (generator pcbnew)
  (layer "F.Cu")
  (tedit 5D0B7CF8)
  (attr through_hole)
  (fp_text reference "REF**" (at 0 -3) (layer "F.SilkS")
    (effects (font (size 0.6 0.6) (thickness 0.15)))
    (tstamp 4ffb80bc-1d2c-4c71-96b9-e28b6241e878)
  )
  (fp_text value "GBU" (at 0 1.7) (layer "F.Fab")
    (effects (font (size 0.6 0.6) (thickness 0.15)))
    (tstamp 79c957c3-a0a9-4dec-95a0-2ae8742e9f4b)
  )
  (fp_line (start -10.75 -2.45) (end 10.75 -2.45) (layer "F.SilkS") (width 0.15) (tstamp 18121c4d-5e05-48ac-832a-70072a153b4c))
  (fp_line (start 6.8 1) (end 3.35 1) (layer "F.SilkS") (width 0.15) (tstamp 1cc5e19d-b551-4bf6-993e-a00e10492edb))
  (fp_line (start -10.75 1) (end -10.75 -2.45) (layer "F.SilkS") (width 0.15) (tstamp 244ce443-5dff-46ab-9198-7c2ae5dcb8e6))
  (fp_line (start 10.75 1) (end 8.45 1) (layer "F.SilkS") (width 0.15) (tstamp 32cd453f-23c4-4e54-921e-dd3628275da9))
  (fp_line (start -8.45 1) (end -10.75 1) (layer "F.SilkS") (width 0.15) (tstamp 3563dd3c-a14d-4cc3-a275-549d4acac4c3))
  (fp_line (start 1.725 1) (end -1.725 1) (layer "F.SilkS") (width 0.15) (tstamp 4e3cc1e4-e3a6-4e30-a482-27b9e5188482))
  (fp_line (start 10.75 -2.45) (end 10.75 1) (layer "F.SilkS") (width 0.15) (tstamp c29862b1-7e68-46c7-a76a-6291bf5819a3))
  (fp_line (start -3.35 1) (end -6.8 1) (layer "F.SilkS") (width 0.15) (tstamp dfb589e1-22d0-4571-a34f-a793203213c6))
  (fp_line (start -10.95 1.2) (end 10.95 1.2) (layer "F.CrtYd") (width 0.05) (tstamp 141d2976-140e-4b4e-bd7d-26d539a0620d))
  (fp_line (start -10.95 -2.55) (end 10.95 -2.55) (layer "F.CrtYd") (width 0.05) (tstamp 575ddbd8-89ce-4c17-becf-dd7fca77bdfe))
  (fp_line (start 10.95 1.2) (end 10.95 -2.55) (layer "F.CrtYd") (width 0.05) (tstamp 7f25faa6-e743-4f01-852a-854c80775d75))
  (fp_line (start -10.95 -2.55) (end -10.95 1.2) (layer "F.CrtYd") (width 0.05) (tstamp a6dc6600-9c35-4a1e-b947-1c6e02e0d083))
  (pad "1" thru_hole circle (at -7.62 0) (size 2.2 2.2) (drill 1.3) (layers *.Cu *.Mask) (tstamp cf347d0c-318b-4bd8-812b-93007a18a6d9))
  (pad "2" thru_hole circle (at -2.54 0) (size 2.2 2.2) (drill 1.3) (layers *.Cu *.Mask) (tstamp c6ca8843-e375-4043-85d5-2c70f9b380df))
  (pad "3" thru_hole circle (at 2.54 0) (size 2.2 2.2) (drill 1.3) (layers *.Cu *.Mask) (tstamp 3b0d150a-505a-49a1-ae5f-9332d54c870a))
  (pad "4" thru_hole circle (at 7.62 0) (size 2.2 2.2) (drill 1.3) (layers *.Cu *.Mask) (tstamp 77e46db5-6a61-4a4a-bc91-01823cff71d1))
)
