(module L-0603 (layer F.Cu) (tedit 5B702B95)
  (solder_mask_margin 0.05)
  (clearance 0.1)
  (attr smd)
  (fp_text reference REF** (at 0 -1) (layer F.SilkS)
    (effects (font (size 0.6 0.6) (thickness 0.15)))
  )
  (fp_text value L-0603 (at 0 1.1) (layer F.Fab)
    (effects (font (size 0.6 0.6) (thickness 0.15)))
  )
  (fp_line (start -0.45 0.4) (end -0.45 -0.4) (layer F.Fab) (width 0.1))
  (fp_line (start 0.45 0.4) (end 0.45 -0.4) (layer F.Fab) (width 0.1))
  (fp_line (start -0.8 -0.4) (end 0.8 -0.4) (layer F.Fab) (width 0.1))
  (fp_line (start 0.8 -0.4) (end 0.8 0.4) (layer F.Fab) (width 0.1))
  (fp_line (start 0.8 0.4) (end -0.8 0.4) (layer F.Fab) (width 0.1))
  (fp_line (start -0.8 0.4) (end -0.8 -0.4) (layer F.Fab) (width 0.1))
  (fp_line (start -0.225 -0.45) (end 0.225 -0.45) (layer F.SilkS) (width 0.15))
  (fp_line (start -0.225 0.45) (end 0.225 0.45) (layer F.SilkS) (width 0.15))
  (fp_line (start -1.1 -0.55) (end 1.1 -0.55) (layer F.CrtYd) (width 0.05))
  (fp_line (start -1.1 0.55) (end -1.1 -0.55) (layer F.CrtYd) (width 0.05))
  (fp_line (start 1.1 0.55) (end -1.1 0.55) (layer F.CrtYd) (width 0.05))
  (fp_line (start 1.1 -0.55) (end 1.1 0.55) (layer F.CrtYd) (width 0.05))
  (pad 1 smd rect (at -0.7 0) (size 0.6 0.9) (layers F.Cu F.Paste F.Mask))
  (pad 2 smd rect (at 0.7 0) (size 0.6 0.9) (layers F.Cu F.Paste F.Mask))
  (model ${PARTS}/models/generic/L-0603.wrl
    (at (xyz 0 0 0))
    (scale (xyz 1 1 1))
    (rotate (xyz 0 0 0))
  )
)
