(module SO-16 (layer F.Cu) (tedit 5C27F460)
  (solder_mask_margin 0.05)
  (solder_paste_margin -0.05)
  (clearance 0.1)
  (attr smd)
  (fp_text reference REF** (at 0 -4.1) (layer F.SilkS)
    (effects (font (size 0.6 0.6) (thickness 0.15)))
  )
  (fp_text value SO-16 (at 0 4.2) (layer F.Fab)
    (effects (font (size 0.6 0.6) (thickness 0.15)))
  )
  (fp_line (start 4.95 -1.95) (end 4.95 1.95) (layer F.Fab) (width 0.1))
  (fp_line (start -4.95 -1.95) (end -4.95 1.95) (layer F.Fab) (width 0.1))
  (fp_line (start -4.95 -1.95) (end 4.95 -1.95) (layer F.Fab) (width 0.1))
  (fp_line (start -4.95 1.95) (end 4.95 1.95) (layer F.Fab) (width 0.1))
  (fp_poly (pts (xy 0.4445 -1.9685) (xy 0.4445 -2.9845) (xy 0.8255 -2.9845) (xy 0.8255 -1.9685)) (layer F.Fab) (width 0))
  (fp_poly (pts (xy 1.7145 -1.9685) (xy 1.7145 -2.9845) (xy 2.0955 -2.9845) (xy 2.0955 -1.9685)) (layer F.Fab) (width 0))
  (fp_poly (pts (xy 2.9845 -1.9685) (xy 2.9845 -2.9845) (xy 3.3655 -2.9845) (xy 3.3655 -1.9685)) (layer F.Fab) (width 0))
  (fp_poly (pts (xy 4.2545 -1.9685) (xy 4.2545 -2.9845) (xy 4.6355 -2.9845) (xy 4.6355 -1.9685)) (layer F.Fab) (width 0))
  (fp_poly (pts (xy -0.8255 -1.9685) (xy -0.8255 -2.9845) (xy -0.4445 -2.9845) (xy -0.4445 -1.9685)) (layer F.Fab) (width 0))
  (fp_poly (pts (xy -2.0955 -1.9685) (xy -2.0955 -2.9845) (xy -1.7145 -2.9845) (xy -1.7145 -1.9685)) (layer F.Fab) (width 0))
  (fp_poly (pts (xy -3.3655 -1.9685) (xy -3.3655 -2.9845) (xy -2.9845 -2.9845) (xy -2.9845 -1.9685)) (layer F.Fab) (width 0))
  (fp_poly (pts (xy -4.6355 -1.9685) (xy -4.6355 -2.9845) (xy -4.2545 -2.9845) (xy -4.2545 -1.9685)) (layer F.Fab) (width 0))
  (fp_poly (pts (xy 0.4445 2.9845) (xy 0.4445 1.9685) (xy 0.8255 1.9685) (xy 0.8255 2.9845)) (layer F.Fab) (width 0))
  (fp_poly (pts (xy 2.9845 2.9845) (xy 2.9845 1.9685) (xy 3.3655 1.9685) (xy 3.3655 2.9845)) (layer F.Fab) (width 0))
  (fp_poly (pts (xy -2.0955 2.9845) (xy -2.0955 1.9685) (xy -1.7145 1.9685) (xy -1.7145 2.9845)) (layer F.Fab) (width 0))
  (fp_poly (pts (xy -4.6355 2.9845) (xy -4.6355 1.9685) (xy -4.2545 1.9685) (xy -4.2545 2.9845)) (layer F.Fab) (width 0))
  (fp_poly (pts (xy -3.3655 2.9845) (xy -3.3655 1.9685) (xy -2.9845 1.9685) (xy -2.9845 2.9845)) (layer F.Fab) (width 0))
  (fp_poly (pts (xy 4.2545 2.9845) (xy 4.2545 1.9685) (xy 4.6355 1.9685) (xy 4.6355 2.9845)) (layer F.Fab) (width 0))
  (fp_poly (pts (xy -0.8255 2.9845) (xy -0.8255 1.9685) (xy -0.4445 1.9685) (xy -0.4445 2.9845)) (layer F.Fab) (width 0))
  (fp_poly (pts (xy 1.7145 2.9845) (xy 1.7145 1.9685) (xy 2.0955 1.9685) (xy 2.0955 2.9845)) (layer F.Fab) (width 0))
  (fp_line (start -4.87 -2) (end -5 -2) (layer F.SilkS) (width 0.15))
  (fp_line (start -5 -2) (end -5 2) (layer F.SilkS) (width 0.15))
  (fp_line (start -5 2) (end -4.87 2) (layer F.SilkS) (width 0.15))
  (fp_line (start 5 -2) (end 5 2) (layer F.SilkS) (width 0.15))
  (fp_line (start 5 -2) (end 4.87 -2) (layer F.SilkS) (width 0.15))
  (fp_line (start 5 2) (end 4.87 2) (layer F.SilkS) (width 0.15))
  (fp_circle (center -5.15 2.45) (end -5.05 2.45) (layer F.SilkS) (width 0.2))
  (fp_circle (center -4.25 1.25) (end -4.05 1.25) (layer F.Fab) (width 0.1))
  (fp_line (start -5.35 3.65) (end -5.35 -3.65) (layer F.CrtYd) (width 0.05))
  (fp_line (start 5.35 3.65) (end 5.35 -3.65) (layer F.CrtYd) (width 0.05))
  (fp_line (start -5.35 3.65) (end 5.35 3.65) (layer F.CrtYd) (width 0.05))
  (fp_line (start 5.35 -3.65) (end -5.35 -3.65) (layer F.CrtYd) (width 0.05))
  (fp_line (start -4.02 -2) (end -3.6 -2) (layer F.SilkS) (width 0.15))
  (fp_line (start -2.75 -2) (end -2.33 -2) (layer F.SilkS) (width 0.15))
  (fp_line (start -1.48 -2) (end -1.06 -2) (layer F.SilkS) (width 0.15))
  (fp_line (start -0.21 -2) (end 0.21 -2) (layer F.SilkS) (width 0.15))
  (fp_line (start 1.06 -2) (end 1.48 -2) (layer F.SilkS) (width 0.15))
  (fp_line (start 2.33 -2) (end 2.75 -2) (layer F.SilkS) (width 0.15))
  (fp_line (start 3.6 -2) (end 4.02 -2) (layer F.SilkS) (width 0.15))
  (fp_line (start 3.6 2) (end 4.02 2) (layer F.SilkS) (width 0.15))
  (fp_line (start 2.33 2) (end 2.75 2) (layer F.SilkS) (width 0.15))
  (fp_line (start 1.06 2) (end 1.48 2) (layer F.SilkS) (width 0.15))
  (fp_line (start -0.21 2) (end 0.21 2) (layer F.SilkS) (width 0.15))
  (fp_line (start -1.48 2) (end -1.06 2) (layer F.SilkS) (width 0.15))
  (fp_line (start -2.75 2) (end -2.33 2) (layer F.SilkS) (width 0.15))
  (fp_line (start -4.02 2) (end -3.6 2) (layer F.SilkS) (width 0.15))
  (pad 1 smd rect (at -4.445 2.75) (size 0.5 1.6) (layers F.Cu F.Paste F.Mask))
  (pad 2 smd rect (at -3.175 2.75) (size 0.5 1.6) (layers F.Cu F.Paste F.Mask))
  (pad 3 smd rect (at -1.905 2.75) (size 0.5 1.6) (layers F.Cu F.Paste F.Mask))
  (pad 4 smd rect (at -0.635 2.75) (size 0.5 1.6) (layers F.Cu F.Paste F.Mask))
  (pad 5 smd rect (at 0.635 2.75) (size 0.5 1.6) (layers F.Cu F.Paste F.Mask))
  (pad 6 smd rect (at 1.905 2.75) (size 0.5 1.6) (layers F.Cu F.Paste F.Mask))
  (pad 7 smd rect (at 3.175 2.75) (size 0.5 1.6) (layers F.Cu F.Paste F.Mask))
  (pad 8 smd rect (at 4.445 2.75) (size 0.5 1.6) (layers F.Cu F.Paste F.Mask))
  (pad 9 smd rect (at 4.445 -2.75) (size 0.5 1.6) (layers F.Cu F.Paste F.Mask))
  (pad 10 smd rect (at 3.175 -2.75) (size 0.5 1.6) (layers F.Cu F.Paste F.Mask))
  (pad 11 smd rect (at 1.905 -2.75) (size 0.5 1.6) (layers F.Cu F.Paste F.Mask))
  (pad 12 smd rect (at 0.635 -2.75) (size 0.5 1.6) (layers F.Cu F.Paste F.Mask))
  (pad 13 smd rect (at -0.635 -2.75) (size 0.5 1.6) (layers F.Cu F.Paste F.Mask))
  (pad 14 smd rect (at -1.905 -2.75) (size 0.5 1.6) (layers F.Cu F.Paste F.Mask))
  (pad 15 smd rect (at -3.175 -2.75) (size 0.5 1.6) (layers F.Cu F.Paste F.Mask))
  (pad 16 smd rect (at -4.445 -2.75) (size 0.5 1.6) (layers F.Cu F.Paste F.Mask))
  (model ${PARTS}/models/generic/SO-16.wrl
    (at (xyz 0 0 0))
    (scale (xyz 1 1 1))
    (rotate (xyz 0 0 0))
  )
)
