(module SOD-123 (layer F.Cu) (tedit 5EE5F89A)
  (solder_mask_margin 0.05)
  (solder_paste_margin -0.05)
  (clearance 0.1)
  (attr smd)
  (fp_text reference REF** (at 0 -1.5) (layer F.SilkS)
    (effects (font (size 0.6 0.6) (thickness 0.15)))
  )
  (fp_text value SOD-123 (at 0 1.5) (layer F.Fab)
    (effects (font (size 0.6 0.6) (thickness 0.15)))
  )
  (fp_line (start 2.15 -1) (end 2.15 1) (layer F.CrtYd) (width 0.05))
  (fp_line (start -2.15 -1) (end 2.15 -1) (layer F.CrtYd) (width 0.05))
  (fp_line (start -2.15 1) (end -2.15 -1) (layer F.CrtYd) (width 0.05))
  (fp_line (start 2.15 1) (end -2.15 1) (layer F.CrtYd) (width 0.05))
  (fp_circle (center -1.8 0.8) (end -1.7 0.8) (layer F.SilkS) (width 0.2))
  (fp_line (start -1.4 0.85) (end -1.4 0.625) (layer F.SilkS) (width 0.15))
  (fp_line (start 1.4 0.85) (end -1.4 0.85) (layer F.SilkS) (width 0.15))
  (fp_line (start 1.4 0.65) (end 1.4 0.85) (layer F.SilkS) (width 0.15))
  (fp_line (start 1.4 -0.85) (end 1.4 -0.6) (layer F.SilkS) (width 0.15))
  (fp_line (start -1.4 -0.85) (end 1.4 -0.85) (layer F.SilkS) (width 0.15))
  (fp_line (start -1.4 -0.625) (end -1.4 -0.85) (layer F.SilkS) (width 0.15))
  (fp_line (start 1.85 -0.275) (end 1.85 0.275) (layer F.Fab) (width 0.1))
  (fp_line (start 1.85 -0.275) (end 1.35 -0.275) (layer F.Fab) (width 0.1))
  (fp_line (start 1.85 0.275) (end 1.35 0.275) (layer F.Fab) (width 0.1))
  (fp_line (start -1.85 0.275) (end -1.35 0.275) (layer F.Fab) (width 0.1))
  (fp_line (start -1.85 -0.275) (end -1.35 -0.275) (layer F.Fab) (width 0.1))
  (fp_line (start -1.85 0.275) (end -1.85 -0.275) (layer F.Fab) (width 0.1))
  (fp_line (start -0.9 -0.8) (end -0.9 0.8) (layer F.Fab) (width 0.1))
  (fp_line (start -1.35 0.8) (end -1.35 -0.8) (layer F.Fab) (width 0.1))
  (fp_line (start 1.35 0.8) (end -1.35 0.8) (layer F.Fab) (width 0.1))
  (fp_line (start 1.35 -0.8) (end 1.35 0.8) (layer F.Fab) (width 0.1))
  (fp_line (start -1.35 -0.8) (end 1.35 -0.8) (layer F.Fab) (width 0.1))
  (pad 1 smd rect (at -1.575 0) (size 0.9 0.9) (layers F.Cu F.Paste F.Mask))
  (pad 2 smd rect (at 1.575 0.025) (size 0.9 0.9) (layers F.Cu F.Paste F.Mask))
)
