(footprint "SOD-80" (version 20211014) (generator pcbnew)
  (layer "F.Cu")
  (tedit 0)
  (solder_mask_margin 0.05)
  (solder_paste_margin -0.05)
  (clearance 0.1)
  (attr smd)
  (fp_text reference "REF**" (at 0 -1.7 unlocked) (layer "F.SilkS")
    (effects (font (size 0.6 0.6) (thickness 0.15)))
    (tstamp 56f922ba-5e6c-4b39-98b8-ceef758779a3)
  )
  (fp_text value "SOD-80" (at 0 1.8 unlocked) (layer "F.Fab")
    (effects (font (size 0.6 0.6) (thickness 0.15)))
    (tstamp 908ce94b-b837-4c84-b759-ec4fbb006eea)
  )
  (fp_line (start -0.7 -0.8) (end -0.7 0.8) (layer "F.SilkS") (width 0.15) (tstamp 6670d711-c478-43d4-b4b2-8f3dddaec49f))
  (fp_line (start -1.05 0.8) (end 1.05 0.8) (layer "F.SilkS") (width 0.15) (tstamp adaae62b-6265-4960-b84c-bdca2d3ea0d1))
  (fp_line (start -1.05 -0.8) (end 1.05 -0.8) (layer "F.SilkS") (width 0.15) (tstamp cad50bd6-6adf-487f-8379-b93249b9a01b))
  (fp_circle (center -3 0) (end -2.9 0) (layer "F.SilkS") (width 0.2) (fill none) (tstamp 8c044747-6f51-4298-b058-074814831f90))
  (fp_rect (start -2.8 -1.3) (end 2.8 1.3) (layer "F.CrtYd") (width 0.05) (fill none) (tstamp 7fed9ee8-035d-44c3-a220-a2db37b1c99c))
  (fp_line (start -0.7 -0.75) (end -0.7 0.75) (layer "F.Fab") (width 0.1) (tstamp 9a8828a5-2e2e-4063-b51c-f89d08e28152))
  (fp_line (start -1.1 -0.75) (end -1.1 0.75) (layer "F.Fab") (width 0.1) (tstamp ae93933d-bd7e-4401-b9d9-e5d7ebc1523c))
  (fp_rect (start -1.75 -0.75) (end 1.75 0.75) (layer "F.Fab") (width 0.1) (fill none) (tstamp a383ae1e-3ba1-4761-8163-d95206e1b33b))
  (pad "1" smd rect (at -1.875 0) (size 1.25 2) (layers "F.Cu" "F.Paste" "F.Mask") (tstamp 4cfa277c-b6f4-4575-8b74-ea83242e8813))
  (pad "2" smd rect (at 1.875 0) (size 1.25 2) (layers "F.Cu" "F.Paste" "F.Mask") (tstamp 62faf466-a5e1-4997-954a-e3f3f47e0a99))
)
