(module SOT-23-6 (layer F.Cu) (tedit 5C28AE6F)
  (solder_mask_margin 0.05)
  (solder_paste_margin -0.05)
  (clearance 0.1)
  (attr smd)
  (fp_text reference REF** (at 0 -2.4) (layer F.SilkS)
    (effects (font (size 0.6 0.6) (thickness 0.15)))
  )
  (fp_text value SOT-23-6 (at 0 2.5) (layer F.Fab)
    (effects (font (size 0.6 0.6) (thickness 0.15)))
  )
  (fp_line (start -1.45 0.8) (end 1.45 0.8) (layer F.Fab) (width 0.1))
  (fp_line (start -1.45 -0.8) (end 1.45 -0.8) (layer F.Fab) (width 0.1))
  (fp_line (start -1.45 -0.8) (end -1.45 0.8) (layer F.Fab) (width 0.1))
  (fp_line (start 1.45 -0.8) (end 1.45 0.8) (layer F.Fab) (width 0.1))
  (fp_line (start 0.75 -0.8) (end 0.75 -1.4) (layer F.Fab) (width 0.1))
  (fp_line (start 0.75 -1.4) (end 1.15 -1.4) (layer F.Fab) (width 0.1))
  (fp_line (start 1.15 -1.4) (end 1.15 -0.8) (layer F.Fab) (width 0.1))
  (fp_line (start -1.15 -1.4) (end -0.75 -1.4) (layer F.Fab) (width 0.1))
  (fp_line (start -1.15 -0.8) (end -1.15 -1.4) (layer F.Fab) (width 0.1))
  (fp_line (start -0.75 -1.4) (end -0.75 -0.8) (layer F.Fab) (width 0.1))
  (fp_line (start 0.75 1.4) (end 0.75 0.8) (layer F.Fab) (width 0.1))
  (fp_line (start 1.15 0.8) (end 1.15 1.4) (layer F.Fab) (width 0.1))
  (fp_line (start 1.15 1.4) (end 0.75 1.4) (layer F.Fab) (width 0.1))
  (fp_line (start -0.75 1.4) (end -1.15 1.4) (layer F.Fab) (width 0.1))
  (fp_line (start -0.75 0.8) (end -0.75 1.4) (layer F.Fab) (width 0.1))
  (fp_line (start -1.15 1.4) (end -1.15 0.8) (layer F.Fab) (width 0.1))
  (fp_line (start 0.2 1.4) (end -0.2 1.4) (layer F.Fab) (width 0.1))
  (fp_line (start 0.2 0.8) (end 0.2 1.4) (layer F.Fab) (width 0.1))
  (fp_line (start -0.2 1.4) (end -0.2 0.8) (layer F.Fab) (width 0.1))
  (fp_line (start -0.2 1.15) (end 0.2 1.15) (layer F.Fab) (width 0.1))
  (fp_line (start -1.15 1.15) (end -0.75 1.15) (layer F.Fab) (width 0.1))
  (fp_line (start 0.75 1.15) (end 1.15 1.15) (layer F.Fab) (width 0.1))
  (fp_line (start 0.75 -1.15) (end 1.15 -1.15) (layer F.Fab) (width 0.1))
  (fp_line (start -1.15 -1.15) (end -0.75 -1.15) (layer F.Fab) (width 0.1))
  (fp_line (start -1.425 -0.85) (end -1.5 -0.85) (layer F.SilkS) (width 0.15))
  (fp_line (start -1.5 -0.85) (end -1.5 0.85) (layer F.SilkS) (width 0.15))
  (fp_line (start -1.5 0.85) (end -1.425 0.85) (layer F.SilkS) (width 0.15))
  (fp_line (start 1.425 0.85) (end 1.5 0.85) (layer F.SilkS) (width 0.15))
  (fp_line (start 1.5 0.85) (end 1.5 -0.85) (layer F.SilkS) (width 0.15))
  (fp_line (start 1.5 -0.85) (end 1.425 -0.85) (layer F.SilkS) (width 0.15))
  (fp_line (start -1.575 -1.9) (end 1.575 -1.9) (layer F.CrtYd) (width 0.05))
  (fp_line (start 1.575 -1.9) (end 1.575 1.9) (layer F.CrtYd) (width 0.05))
  (fp_line (start -1.575 -1.9) (end -1.575 1.9) (layer F.CrtYd) (width 0.05))
  (fp_line (start -1.575 1.9) (end 1.575 1.9) (layer F.CrtYd) (width 0.05))
  (fp_line (start -0.2 -1.4) (end 0.2 -1.4) (layer F.Fab) (width 0.1))
  (fp_line (start 0.2 -1.4) (end 0.2 -0.8) (layer F.Fab) (width 0.1))
  (fp_line (start -0.2 -0.8) (end -0.2 -1.4) (layer F.Fab) (width 0.1))
  (fp_line (start -0.2 -1.15) (end 0.2 -1.15) (layer F.Fab) (width 0.1))
  (fp_circle (center -1.7 1.3) (end -1.6 1.3) (layer F.SilkS) (width 0.2))
  (pad 1 smd rect (at -0.95 1.3) (size 0.6 1) (layers F.Cu F.Paste F.Mask))
  (pad 2 smd rect (at 0 1.3) (size 0.6 1) (layers F.Cu F.Paste F.Mask))
  (pad 3 smd rect (at 0.95 1.3) (size 0.6 1) (layers F.Cu F.Paste F.Mask))
  (pad 4 smd rect (at 0.95 -1.3) (size 0.6 1) (layers F.Cu F.Paste F.Mask))
  (pad 5 smd rect (at 0 -1.3) (size 0.6 1) (layers F.Cu F.Paste F.Mask))
  (pad 6 smd rect (at -0.95 -1.3) (size 0.6 1) (layers F.Cu F.Paste F.Mask))
  (model ${PARTS}/models/generic/SOT-23-6.wrl
    (at (xyz 0 0 0))
    (scale (xyz 1 1 1))
    (rotate (xyz 0 0 0))
  )
)
