(footprint "TO-126" (version 20211014) (generator pcbnew)
  (layer "F.Cu")
  (tedit 61EF1698)
  (attr through_hole)
  (fp_text reference "REF**" (at 0 -2.1) (layer "F.SilkS")
    (effects (font (size 0.6 0.6) (thickness 0.15)))
    (tstamp 9639ec12-000d-47e9-b395-45bc30b8fa4b)
  )
  (fp_text value "TO-126" (at 0 1.9) (layer "F.Fab")
    (effects (font (size 0.6 0.6) (thickness 0.15)))
    (tstamp 66c1e686-50d1-4b5d-80b0-06d90a43a98e)
  )
  (fp_line (start 3.8 -1.5) (end 3.8 1.15) (layer "F.SilkS") (width 0.15) (tstamp 0743b145-85c2-4ba5-a4e8-a7f60b88ec00))
  (fp_line (start -3.8 -1.5) (end 3.8 -1.5) (layer "F.SilkS") (width 0.15) (tstamp 16eb4403-3d89-45fe-a3c1-b97149481fb9))
  (fp_line (start -3.8 1.15) (end -3.8 -1.5) (layer "F.SilkS") (width 0.15) (tstamp 7fd536c8-19dc-4e20-a0f6-d531d3795b80))
  (fp_line (start 3.8 1.15) (end -3.8 1.15) (layer "F.SilkS") (width 0.15) (tstamp d31d5e22-280a-47f2-ad13-5d1bee2db885))
  (fp_line (start -4 -1.6) (end -4 1.4) (layer "F.CrtYd") (width 0.05) (tstamp 279517ed-35bf-4ae9-ad5e-97af0435a15a))
  (fp_line (start -4 1.4) (end 4 1.4) (layer "F.CrtYd") (width 0.05) (tstamp 7f17ebd0-9287-4022-a470-6eb079101fed))
  (fp_line (start 4 -1.6) (end 4 1.4) (layer "F.CrtYd") (width 0.05) (tstamp 8d0c4415-79ba-4072-aed3-c6d79ec42f8b))
  (fp_line (start -4 -1.6) (end 4 -1.6) (layer "F.CrtYd") (width 0.05) (tstamp a8dae0d4-5b0f-4fce-a292-a30d1f1c17f7))
  (pad "1" thru_hole circle (at -2.286 0) (size 1.7 1.7) (drill 1) (layers *.Cu *.Mask) (tstamp db85a420-6344-4b15-af11-d15f29c0638d))
  (pad "2" thru_hole circle (at 0 0) (size 1.7 1.7) (drill 1) (layers *.Cu *.Mask) (tstamp 4168f017-be4a-4927-886d-e1a601af3c65))
  (pad "3" thru_hole circle (at 2.286 0) (size 1.7 1.7) (drill 1) (layers *.Cu *.Mask) (tstamp 1e37bc91-1a0d-45ef-9203-dcdfdf67e29d))
  (model "${PARTS}/models/generic/TO-126.wrl"
    (offset (xyz 0 0 0))
    (scale (xyz 1 1 1))
    (rotate (xyz 0 0 0))
  )
)
