(module TO-277A (layer F.Cu) (tedit 5C5F0259)
  (solder_mask_margin 0.05)
  (solder_paste_margin -0.05)
  (clearance 0.1)
  (attr smd)
  (fp_text reference REF** (at 0 -4) (layer F.SilkS)
    (effects (font (size 0.6 0.6) (thickness 0.15)))
  )
  (fp_text value TO-277A (at 0 4) (layer F.Fab)
    (effects (font (size 0.6 0.6) (thickness 0.15)))
  )
  (fp_line (start -2.15 -3.05) (end 2.15 -3.05) (layer F.Fab) (width 0.1))
  (fp_line (start -2.15 3.05) (end 2.15 3.05) (layer F.Fab) (width 0.1))
  (fp_line (start -2.15 -3.05) (end -2.15 3.05) (layer F.Fab) (width 0.1))
  (fp_line (start 2.15 -3.05) (end 2.15 3.05) (layer F.Fab) (width 0.1))
  (fp_line (start -1.65 3.25) (end -1.65 2.15) (layer F.Fab) (width 0.1))
  (fp_line (start -0.45 3.25) (end -0.45 2.15) (layer F.Fab) (width 0.1))
  (fp_line (start -0.45 3.25) (end -1.65 3.25) (layer F.Fab) (width 0.1))
  (fp_line (start -0.45 2.15) (end -1.65 2.15) (layer F.Fab) (width 0.1))
  (fp_line (start 1.65 3.25) (end 0.45 3.25) (layer F.Fab) (width 0.1))
  (fp_line (start 0.45 3.25) (end 0.45 2.15) (layer F.Fab) (width 0.1))
  (fp_line (start 1.65 3.25) (end 1.65 2.15) (layer F.Fab) (width 0.1))
  (fp_line (start 1.65 2.15) (end 0.45 2.15) (layer F.Fab) (width 0.1))
  (fp_line (start -1.05 -3.25) (end 1.05 -3.25) (layer F.Fab) (width 0.1))
  (fp_line (start 2.3 1.35) (end 2.3 0.6) (layer F.Fab) (width 0.1))
  (fp_line (start 1.05 -3.25) (end 1.05 -2.6) (layer F.Fab) (width 0.1))
  (fp_line (start 1.8 0.6) (end 2.3 0.6) (layer F.Fab) (width 0.1))
  (fp_line (start 2.3 1.35) (end -2.3 1.35) (layer F.Fab) (width 0.1))
  (fp_line (start -1.05 -3.25) (end -1.05 -2.6) (layer F.Fab) (width 0.1))
  (fp_line (start -2.3 0.6) (end -1.8 0.6) (layer F.Fab) (width 0.1))
  (fp_line (start -2.3 1.35) (end -2.3 0.6) (layer F.Fab) (width 0.1))
  (fp_line (start 1.05 -2.6) (end 1.8 -2.6) (layer F.Fab) (width 0.1))
  (fp_line (start 1.8 -2.6) (end 1.8 0.6) (layer F.Fab) (width 0.1))
  (fp_line (start -1.8 -2.6) (end -1.05 -2.6) (layer F.Fab) (width 0.1))
  (fp_line (start -1.8 -2.6) (end -1.8 0.6) (layer F.Fab) (width 0.1))
  (fp_line (start -2.2 1.575) (end -2.2 3.1) (layer F.SilkS) (width 0.15))
  (fp_line (start -2.2 3.1) (end -1.925 3.1) (layer F.SilkS) (width 0.15))
  (fp_line (start -0.175 3.1) (end 0.175 3.1) (layer F.SilkS) (width 0.15))
  (fp_line (start 1.925 3.1) (end 2.2 3.1) (layer F.SilkS) (width 0.15))
  (fp_line (start 2.2 3.1) (end 2.2 1.575) (layer F.SilkS) (width 0.15))
  (fp_line (start -2.6 -3.5) (end -2.6 3.5) (layer F.CrtYd) (width 0.05))
  (fp_line (start -2.6 3.5) (end 2.6 3.5) (layer F.CrtYd) (width 0.05))
  (fp_line (start 2.6 3.5) (end 2.6 -3.5) (layer F.CrtYd) (width 0.05))
  (fp_line (start 2.6 -3.5) (end -2.6 -3.5) (layer F.CrtYd) (width 0.05))
  (pad 2 smd rect (at -1.05 2.75) (size 1.4 1.3) (layers F.Cu F.Paste F.Mask))
  (pad 2 smd rect (at 1.05 2.75) (size 1.4 1.3) (layers F.Cu F.Paste F.Mask))
  (pad 1 smd rect (at 0 -1) (size 4.8 4.8) (layers F.Cu F.Paste F.Mask))
  (model ${PARTS}/models/generic/TO-277A.wrl
    (at (xyz 0 0 0))
    (scale (xyz 1 1 1))
    (rotate (xyz 0 0 0))
  )
)
