(footprint "TO-264" (version 20211014) (generator pcbnew)
  (layer "F.Cu")
  (tedit 61EF168A)
  (attr through_hole)
  (fp_text reference "REF**" (at 0 -3.7) (layer "F.SilkS")
    (effects (font (size 0.6 0.6) (thickness 0.15)))
    (tstamp 031975e1-ed81-48fa-91b9-c34d2fb233f1)
  )
  (fp_text value "TO-264" (at 0 2.7) (layer "F.Fab")
    (effects (font (size 0.6 0.6) (thickness 0.15)))
    (tstamp 5f248420-74de-4f4a-8bb3-70ea45077cb3)
  )
  (fp_line (start 9.9 -3.1) (end 9.9 1.9) (layer "F.SilkS") (width 0.15) (tstamp 7a4bd091-29f9-48e1-8dde-c900c04169d4))
  (fp_line (start -9.9 1.9) (end -9.9 -3.1) (layer "F.SilkS") (width 0.15) (tstamp b4eea085-8c4d-4de8-a793-91552771e36d))
  (fp_line (start -9.9 -3.1) (end 9.9 -3.1) (layer "F.SilkS") (width 0.15) (tstamp c2e60475-fa34-43cc-8a68-4687f60f3bb7))
  (fp_line (start 9.9 1.9) (end -9.9 1.9) (layer "F.SilkS") (width 0.15) (tstamp d9f40996-8fb5-43f1-a821-19e8d7bf637a))
  (fp_line (start -10.1 2.15) (end 10.1 2.15) (layer "F.CrtYd") (width 0.05) (tstamp 0bdc6c40-892f-4fc8-9048-35996dcafc82))
  (fp_line (start 10.1 2.15) (end 10.1 -3.2) (layer "F.CrtYd") (width 0.05) (tstamp 5e1d1993-f66f-4a6c-9f20-6d78f1f87416))
  (fp_line (start -10.1 -3.2) (end -10.1 2.15) (layer "F.CrtYd") (width 0.05) (tstamp 6d29c1d4-d4b1-48ca-b395-bb477558a32a))
  (fp_line (start 10.1 -3.2) (end -10.1 -3.2) (layer "F.CrtYd") (width 0.05) (tstamp a50baf81-4238-4884-88e4-d9252a8135c9))
  (pad "1" thru_hole circle (at -5.45 0) (size 2.4 2.4) (drill 1.4) (layers *.Cu *.Mask) (tstamp 0b9b9c74-4de1-4693-bd1b-6e8e4a18e251))
  (pad "2" thru_hole circle (at 0 0) (size 2.4 2.4) (drill 1.4) (layers *.Cu *.Mask) (tstamp 7a1a045b-95db-42a3-8ddf-1c6be0134710))
  (pad "3" thru_hole circle (at 5.45 0) (size 2.4 2.4) (drill 1.4) (layers *.Cu *.Mask) (tstamp d06bca2a-003b-4445-9e23-6fe379a60e33))
)
