(module TP-0.8 (layer F.Cu) (tedit 5FEC6072)
  (descr "Test Point 0.8 mm")
  (solder_mask_margin 0.05)
  (clearance 0.1)
  (attr virtual)
  (fp_text reference REF** (at 0 -0.9) (layer F.SilkS)
    (effects (font (size 0.6 0.6) (thickness 0.15)))
  )
  (fp_text value TP-0.8 (at 0 1) (layer F.Fab)
    (effects (font (size 0.6 0.6) (thickness 0.15)))
  )
  (pad 1 smd circle (at 0 0) (size 0.8 0.8) (layers F.Cu F.Mask))
)
