(module TP-1.4 (layer F.Cu) (tedit 5FEC608E)
  (descr "Test Point 1.4 mm")
  (solder_mask_margin 0.05)
  (clearance 0.1)
  (attr virtual)
  (fp_text reference REF** (at 0 -1.2) (layer F.SilkS)
    (effects (font (size 0.6 0.6) (thickness 0.15)))
  )
  (fp_text value TP-1.4 (at 0 1.3) (layer F.Fab)
    (effects (font (size 0.6 0.6) (thickness 0.15)))
  )
  (pad 1 smd circle (at 0 0) (size 1.4 1.4) (layers F.Cu F.Mask))
)
