(footprint "1C" (version 20211014) (generator pcbnew)
  (layer "F.Cu")
  (tedit 6206D137)
  (attr through_hole)
  (fp_text reference "REF**" (at 0 -2.5) (layer "F.SilkS")
    (effects (font (size 0.6 0.6) (thickness 0.15)))
    (tstamp 3dc9d7a4-0001-4958-a467-4a40bbf22c9c)
  )
  (fp_text value "1C" (at 0 2.6) (layer "F.Fab")
    (effects (font (size 0.6 0.6) (thickness 0.15)))
    (tstamp 53ac6219-1fc6-431e-8052-441e4fb33528)
  )
  (fp_line (start 3.6 -1.75) (end 3.6 1.75) (layer "F.SilkS") (width 0.15) (tstamp 7e0cedf2-26d3-4155-8525-d820d72686bc))
  (fp_line (start -3.6 -1.75) (end 3.6 -1.75) (layer "F.SilkS") (width 0.15) (tstamp 87bb88b4-aaf1-4c97-9c4a-ed6b8017a027))
  (fp_line (start -3.6 -1.75) (end -3.6 1.75) (layer "F.SilkS") (width 0.15) (tstamp 9288cad9-8b43-4492-96ef-4d60949f8b48))
  (fp_line (start -3.6 1.75) (end 3.6 1.75) (layer "F.SilkS") (width 0.15) (tstamp 941b5aa6-ab66-49b8-8162-9d23f8cc4dcb))
  (fp_line (start -3.8 -1.95) (end 3.8 -1.95) (layer "F.CrtYd") (width 0.05) (tstamp 00dcf642-2107-4639-8754-6e915c1b9aa8))
  (fp_line (start 3.8 -1.95) (end 3.8 1.95) (layer "F.CrtYd") (width 0.05) (tstamp 33f5878c-5246-435a-be5b-77cb5fb58e5e))
  (fp_line (start 3.8 1.95) (end -3.8 1.95) (layer "F.CrtYd") (width 0.05) (tstamp 76a22395-5d2d-4f66-8191-432f65fdc4ac))
  (fp_line (start -3.8 1.95) (end -3.8 -1.95) (layer "F.CrtYd") (width 0.05) (tstamp d7080aea-a985-4cd4-90b1-cd18e1724df4))
  (pad "1" thru_hole circle (at -2.5 0) (size 1.2 1.2) (drill 0.7) (layers *.Cu *.Mask) (tstamp e4eaee0b-7e68-4ea3-a9db-718d7252258e))
  (pad "2" thru_hole circle (at 2.5 0) (size 1.2 1.2) (drill 0.7) (layers *.Cu *.Mask) (tstamp 374c9ec6-093c-433c-8385-9d7db9e10fa3))
  (model "${PARTS}/models/wima/1C.wrl"
    (offset (xyz 0 0 0))
    (scale (xyz 1 1 1))
    (rotate (xyz 0 0 0))
  )
)
