(footprint "TBA-2-DUAL" (version 20211014) (generator pcbnew)
  (layer "F.Cu")
  (tedit 0)
  (attr through_hole)
  (fp_text reference "REF**" (at 0 -2 unlocked) (layer "F.SilkS")
    (effects (font (size 0.6 0.6) (thickness 0.15)))
    (tstamp 3de80349-c16a-4fa9-bfd0-de0847188e0d)
  )
  (fp_text value "TBA-2-DUAL" (at 0 7.1 unlocked) (layer "F.Fab")
    (effects (font (size 0.6 0.6) (thickness 0.15)))
    (tstamp 14b594d9-ee96-4c15-84f6-ef57a069d830)
  )
  (fp_rect (start -9.8 -1.4) (end 9.8 6.3) (layer "F.SilkS") (width 0.15) (fill none) (tstamp 602dcc78-c0cb-4d29-86a5-5697291bcc82))
  (fp_circle (center -9.4 6.8) (end -9.3 6.8) (layer "F.SilkS") (width 0.2) (fill none) (tstamp d951cc78-2ca1-4f05-952d-139ff2ece896))
  (fp_rect (start -10.3 -1.9) (end 10.3 6.8) (layer "F.CrtYd") (width 0.05) (fill none) (tstamp fa2d94c8-3fe9-49f6-876b-3de71a177044))
  (fp_rect (start -9.775 -1.35) (end 9.775 6.25) (layer "F.Fab") (width 0.1) (fill none) (tstamp 5542762c-e339-45ed-8b4c-b4274924c8df))
  (pad "1" thru_hole circle (at -7.375 0) (size 1.2 1.2) (drill 0.7) (layers *.Cu *.Mask) (tstamp a7c6d6ec-a740-4338-a927-6d8c530e0319))
  (pad "2" thru_hole circle (at -4.835 0) (size 1.2 1.2) (drill 0.7) (layers *.Cu *.Mask) (tstamp afa09098-ade4-4f72-9925-c84849bab69e))
  (pad "4" thru_hole circle (at 0.245 0) (size 1.2 1.2) (drill 0.7) (layers *.Cu *.Mask) (tstamp df297ce5-6a46-4b10-93ee-80802a2a8a9d))
  (pad "5" thru_hole circle (at 2.785 0) (size 1.2 1.2) (drill 0.7) (layers *.Cu *.Mask) (tstamp 7d68ab24-11f0-439d-bf88-6d253c564d8c))
  (pad "6" thru_hole circle (at 5.325 0) (size 1.2 1.2) (drill 0.7) (layers *.Cu *.Mask) (tstamp 9ff331b5-7bff-489c-8157-04f0aeddeb5b))
)
