(footprint "G2R-1A" (version 20211014) (generator pcbnew)
  (layer "F.Cu")
  (tedit 0)
  (attr through_hole)
  (fp_text reference "REF**" (at 0 -7.1 unlocked) (layer "F.SilkS")
    (effects (font (size 0.6 0.6) (thickness 0.15)))
    (tstamp d1c4a501-d3f7-4c4c-b068-fb60b7d2b94f)
  )
  (fp_text value "G2R-1A" (at 0 7.2 unlocked) (layer "F.Fab")
    (effects (font (size 0.6 0.6) (thickness 0.15)))
    (tstamp 27b44a7a-114d-46a6-8899-2dd92bb62bc4)
  )
  (fp_rect (start -2.1 -6.4) (end 27.1 6.4) (layer "F.SilkS") (width 0.15) (fill none) (tstamp 6e81342e-d4fb-4bd0-8ed8-7471f2454761))
  (fp_rect (start -2.4 -6.7) (end 27.4 6.7) (layer "F.CrtYd") (width 0.05) (fill none) (tstamp 6e274ffe-5cf9-4aa5-b9ae-2ed5bb1c275a))
  (pad "1" thru_hole circle (at 0 3.75) (size 2.3 2.3) (drill 1.3) (layers *.Mask "F.Cu" "In1.Cu" "B.Cu") (tstamp fa8f4b5d-4c90-4a0a-b137-c015f73993bd))
  (pad "3" thru_hole circle (at 23.5 3.75) (size 2.3 2.3) (drill 1.3) (layers *.Mask "F.Cu" "In1.Cu" "B.Cu") (tstamp 785a3746-476e-401d-968c-281b64c2cddf))
  (pad "4" thru_hole circle (at 20 -3.75) (size 2.3 2.3) (drill 1.3) (layers *.Mask "F.Cu" "In1.Cu" "B.Cu") (tstamp d87bbd29-c850-49b3-9336-55bb377f6c8a))
  (pad "5" thru_hole circle (at 0 -3.75) (size 2.3 2.3) (drill 1.3) (layers *.Mask "F.Cu" "In1.Cu" "B.Cu") (tstamp b3133d4f-ea3c-4b83-99b7-c065640435a1))
)
