(module SOD323F (layer F.Cu) (tedit 5C1A306A)
  (solder_mask_margin 0.05)
  (solder_paste_margin -0.05)
  (clearance 0.1)
  (fp_text reference REF** (at 0 -1.3) (layer F.SilkS)
    (effects (font (size 0.6 0.6) (thickness 0.15)))
  )
  (fp_text value SOD323F (at 0 1.3) (layer F.Fab)
    (effects (font (size 0.6 0.6) (thickness 0.15)))
  )
  (fp_line (start -0.85 -0.65) (end 0.85 -0.65) (layer F.Fab) (width 0.1))
  (fp_line (start -0.85 0.65) (end 0.85 0.65) (layer F.Fab) (width 0.1))
  (fp_line (start 0.85 -0.65) (end 0.85 0.65) (layer F.Fab) (width 0.1))
  (fp_line (start -0.85 -0.65) (end -0.85 0.65) (layer F.Fab) (width 0.1))
  (fp_line (start -0.35 -0.65) (end -0.35 0.65) (layer F.Fab) (width 0.1))
  (fp_line (start 0.85 -0.15) (end 1.25 -0.15) (layer F.Fab) (width 0.1))
  (fp_line (start 1.25 -0.15) (end 1.25 0.15) (layer F.Fab) (width 0.1))
  (fp_line (start 0.85 0.15) (end 1.25 0.15) (layer F.Fab) (width 0.1))
  (fp_line (start -1.25 -0.15) (end -0.85 -0.15) (layer F.Fab) (width 0.1))
  (fp_line (start -1.25 0.15) (end -0.85 0.15) (layer F.Fab) (width 0.1))
  (fp_line (start -1.25 -0.15) (end -1.25 0.15) (layer F.Fab) (width 0.1))
  (fp_line (start -0.9 -0.475) (end -0.9 -0.7) (layer F.SilkS) (width 0.15))
  (fp_line (start -0.9 -0.7) (end 0.9 -0.7) (layer F.SilkS) (width 0.15))
  (fp_line (start 0.9 -0.7) (end 0.9 -0.475) (layer F.SilkS) (width 0.15))
  (fp_line (start 0.9 0.475) (end 0.9 0.7) (layer F.SilkS) (width 0.15))
  (fp_line (start -0.9 0.7) (end -0.9 0.475) (layer F.SilkS) (width 0.15))
  (fp_line (start -0.9 0.7) (end 0.9 0.7) (layer F.SilkS) (width 0.15))
  (fp_circle (center -1.25 0.6) (end -1.15 0.6) (layer F.SilkS) (width 0.2))
  (fp_line (start -1.5 0.8) (end 1.5 0.8) (layer F.CrtYd) (width 0.05))
  (fp_line (start -1.5 -0.8) (end 1.5 -0.8) (layer F.CrtYd) (width 0.05))
  (fp_line (start 1.5 0.8) (end 1.5 -0.8) (layer F.CrtYd) (width 0.05))
  (fp_line (start -1.5 0.8) (end -1.5 -0.8) (layer F.CrtYd) (width 0.05))
  (pad 1 smd rect (at -1.1 0) (size 0.6 0.6) (layers F.Cu F.Paste F.Mask))
  (pad 2 smd rect (at 1.1 0) (size 0.6 0.6) (layers F.Cu F.Paste F.Mask))
  (model ${PARTS}/models/nxp/SOD323F.wrl
    (at (xyz 0 0 0))
    (scale (xyz 1 1 1))
    (rotate (xyz 0 0 0))
  )
)
