(module DF40C-20DS-0.4V (layer F.Cu) (tedit 5BB9DEBF)
  (solder_mask_margin 0.05)
  (solder_paste_margin -0.02)
  (clearance 0.1)
  (attr smd)
  (fp_text reference REF** (at 0 -2.5) (layer F.SilkS)
    (effects (font (size 0.6 0.6) (thickness 0.15)))
  )
  (fp_text value DF40C-20DS-0.4V (at 0 2.7) (layer F.Fab)
    (effects (font (size 0.6 0.6) (thickness 0.15)))
  )
  (fp_line (start -3.3 -1.44) (end 3.3 -1.44) (layer F.Fab) (width 0.1))
  (fp_line (start -3.3 1.44) (end 3.3 1.44) (layer F.Fab) (width 0.1))
  (fp_line (start -3.3 -1.44) (end -3.3 1.44) (layer F.Fab) (width 0.1))
  (fp_line (start 3.3 -1.44) (end 3.3 1.44) (layer F.Fab) (width 0.1))
  (fp_line (start 2.075 -1.49) (end 3.35 -1.49) (layer F.SilkS) (width 0.15))
  (fp_line (start 3.35 -1.49) (end 3.35 1.49) (layer F.SilkS) (width 0.15))
  (fp_line (start 2.075 1.49) (end 3.35 1.49) (layer F.SilkS) (width 0.15))
  (fp_line (start -3.35 1.49) (end -2.075 1.49) (layer F.SilkS) (width 0.15))
  (fp_line (start -3.35 -1.49) (end -2.075 -1.49) (layer F.SilkS) (width 0.15))
  (fp_line (start -3.35 -1.49) (end -3.35 1.49) (layer F.SilkS) (width 0.15))
  (fp_circle (center -2.35 1.95) (end -2.25 1.95) (layer F.SilkS) (width 0.2))
  (fp_line (start -3.45 -2) (end -3.45 2) (layer F.CrtYd) (width 0.05))
  (fp_line (start 3.45 -2) (end 3.45 2) (layer F.CrtYd) (width 0.05))
  (fp_line (start 3.45 -2) (end -3.45 -2) (layer F.CrtYd) (width 0.05))
  (fp_line (start 3.45 2) (end -3.45 2) (layer F.CrtYd) (width 0.05))
  (fp_poly (pts (xy -1.86 -1.44) (xy -1.74 -1.44) (xy -1.74 -1.69) (xy -1.86 -1.69)) (layer F.Fab) (width 0))
  (fp_poly (pts (xy -1.46 -1.44) (xy -1.34 -1.44) (xy -1.34 -1.69) (xy -1.46 -1.69)) (layer F.Fab) (width 0))
  (fp_poly (pts (xy -1.06 -1.44) (xy -0.94 -1.44) (xy -0.94 -1.69) (xy -1.06 -1.69)) (layer F.Fab) (width 0))
  (fp_poly (pts (xy -0.66 -1.44) (xy -0.54 -1.44) (xy -0.54 -1.69) (xy -0.66 -1.69)) (layer F.Fab) (width 0))
  (fp_poly (pts (xy -0.26 -1.44) (xy -0.14 -1.44) (xy -0.14 -1.69) (xy -0.26 -1.69)) (layer F.Fab) (width 0))
  (fp_poly (pts (xy 0.14 -1.44) (xy 0.26 -1.44) (xy 0.26 -1.69) (xy 0.14 -1.69)) (layer F.Fab) (width 0))
  (fp_poly (pts (xy 0.54 -1.44) (xy 0.66 -1.44) (xy 0.66 -1.69) (xy 0.54 -1.69)) (layer F.Fab) (width 0))
  (fp_poly (pts (xy 0.94 -1.44) (xy 1.06 -1.44) (xy 1.06 -1.69) (xy 0.94 -1.69)) (layer F.Fab) (width 0))
  (fp_poly (pts (xy 1.34 -1.44) (xy 1.46 -1.44) (xy 1.46 -1.69) (xy 1.34 -1.69)) (layer F.Fab) (width 0))
  (fp_poly (pts (xy 1.74 -1.44) (xy 1.86 -1.44) (xy 1.86 -1.69) (xy 1.74 -1.69)) (layer F.Fab) (width 0))
  (fp_poly (pts (xy -1.86 1.69) (xy -1.74 1.69) (xy -1.74 1.44) (xy -1.86 1.44)) (layer F.Fab) (width 0))
  (fp_poly (pts (xy -1.46 1.69) (xy -1.34 1.69) (xy -1.34 1.44) (xy -1.46 1.44)) (layer F.Fab) (width 0))
  (fp_poly (pts (xy -1.06 1.69) (xy -0.94 1.69) (xy -0.94 1.44) (xy -1.06 1.44)) (layer F.Fab) (width 0))
  (fp_poly (pts (xy -0.66 1.69) (xy -0.54 1.69) (xy -0.54 1.44) (xy -0.66 1.44)) (layer F.Fab) (width 0))
  (fp_poly (pts (xy -0.26 1.69) (xy -0.14 1.69) (xy -0.14 1.44) (xy -0.26 1.44)) (layer F.Fab) (width 0))
  (fp_poly (pts (xy 0.14 1.69) (xy 0.26 1.69) (xy 0.26 1.44) (xy 0.14 1.44)) (layer F.Fab) (width 0))
  (fp_poly (pts (xy 0.54 1.69) (xy 0.66 1.69) (xy 0.66 1.44) (xy 0.54 1.44)) (layer F.Fab) (width 0))
  (fp_poly (pts (xy 0.94 1.69) (xy 1.06 1.69) (xy 1.06 1.44) (xy 0.94 1.44)) (layer F.Fab) (width 0))
  (fp_poly (pts (xy 1.34 1.69) (xy 1.46 1.69) (xy 1.46 1.44) (xy 1.34 1.44)) (layer F.Fab) (width 0))
  (fp_poly (pts (xy 1.74 1.69) (xy 1.86 1.69) (xy 1.86 1.44) (xy 1.74 1.44)) (layer F.Fab) (width 0))
  (pad 1 smd rect (at -1.8 1.54) (size 0.2 0.7) (layers F.Cu F.Paste F.Mask))
  (pad 2 smd rect (at -1.4 1.54) (size 0.2 0.7) (layers F.Cu F.Paste F.Mask))
  (pad 3 smd rect (at -1 1.54) (size 0.2 0.7) (layers F.Cu F.Paste F.Mask))
  (pad 4 smd rect (at -0.6 1.54) (size 0.2 0.7) (layers F.Cu F.Paste F.Mask))
  (pad 5 smd rect (at -0.2 1.54) (size 0.2 0.7) (layers F.Cu F.Paste F.Mask))
  (pad 6 smd rect (at 0.2 1.54) (size 0.2 0.7) (layers F.Cu F.Paste F.Mask))
  (pad 7 smd rect (at 0.6 1.54) (size 0.2 0.7) (layers F.Cu F.Paste F.Mask))
  (pad 8 smd rect (at 1 1.54) (size 0.2 0.7) (layers F.Cu F.Paste F.Mask))
  (pad 9 smd rect (at 1.4 1.54) (size 0.2 0.7) (layers F.Cu F.Paste F.Mask))
  (pad 10 smd rect (at 1.8 1.54) (size 0.2 0.7) (layers F.Cu F.Paste F.Mask))
  (pad 18 smd rect (at -1 -1.54) (size 0.2 0.7) (layers F.Cu F.Paste F.Mask))
  (pad 12 smd rect (at 1.4 -1.54) (size 0.2 0.7) (layers F.Cu F.Paste F.Mask))
  (pad 14 smd rect (at 0.6 -1.54) (size 0.2 0.7) (layers F.Cu F.Paste F.Mask))
  (pad 11 smd rect (at 1.8 -1.54) (size 0.2 0.7) (layers F.Cu F.Paste F.Mask))
  (pad 13 smd rect (at 1 -1.54) (size 0.2 0.7) (layers F.Cu F.Paste F.Mask))
  (pad 15 smd rect (at 0.2 -1.54) (size 0.2 0.7) (layers F.Cu F.Paste F.Mask))
  (pad 16 smd rect (at -0.2 -1.54) (size 0.2 0.7) (layers F.Cu F.Paste F.Mask))
  (pad 20 smd rect (at -1.8 -1.54) (size 0.2 0.7) (layers F.Cu F.Paste F.Mask))
  (pad 19 smd rect (at -1.4 -1.54) (size 0.2 0.7) (layers F.Cu F.Paste F.Mask))
  (pad 17 smd rect (at -0.6 -1.54) (size 0.2 0.7) (layers F.Cu F.Paste F.Mask))
)
