(footprint "150-1-002" (version 20211014) (generator pcbnew)
  (layer "F.Cu")
  (tedit 5FF07B19)
  (attr through_hole)
  (fp_text reference "REF**" (at 0 -1.6) (layer "F.SilkS")
    (effects (font (size 0.6 0.6) (thickness 0.15)))
    (tstamp cd3cd7e3-b70b-446c-856f-959c14ac4712)
  )
  (fp_text value "150-1-002" (at 0 2.2) (layer "F.Fab")
    (effects (font (size 0.6 0.6) (thickness 0.15)))
    (tstamp 40340376-9ec4-4c97-a292-cc3b083ad150)
  )
  (fp_line (start 2.05 -1.05) (end 2.05 1.05) (layer "F.SilkS") (width 0.15) (tstamp 0bf07e5e-63be-4a8e-8104-1fc9993bc608))
  (fp_line (start -2.05 1.05) (end -2.05 -1.05) (layer "F.SilkS") (width 0.15) (tstamp 7d58675d-f122-4962-9977-bba4171384aa))
  (fp_line (start 2.05 1.05) (end -2.05 1.05) (layer "F.SilkS") (width 0.15) (tstamp 811151ed-550a-439e-94ae-503dd7c3373a))
  (fp_line (start -2.05 -1.05) (end 2.05 -1.05) (layer "F.SilkS") (width 0.15) (tstamp ff690da8-bf38-487d-ac42-df93fc27e106))
  (fp_circle (center -1.9 1.5) (end -1.8 1.5) (layer "F.SilkS") (width 0.2) (fill none) (tstamp b781ab83-5881-4374-a6a8-87c074837ca0))
  (fp_line (start 2.125 1.125) (end -2.125 1.125) (layer "F.CrtYd") (width 0.05) (tstamp 5f31b231-ec9b-406a-92af-a75d069a68f5))
  (fp_line (start -2.125 -1.125) (end 2.125 -1.125) (layer "F.CrtYd") (width 0.05) (tstamp aa75f806-1e95-4c7e-ac61-34a19b66ad5a))
  (fp_line (start -2.125 1.125) (end -2.125 -1.125) (layer "F.CrtYd") (width 0.05) (tstamp af03bc12-8bef-434b-905c-293f9cb30a6f))
  (fp_line (start 2.125 -1.125) (end 2.125 1.125) (layer "F.CrtYd") (width 0.05) (tstamp cce78fbd-43b3-4cd6-903c-468774c7c2df))
  (fp_line (start -2 -1) (end 2 -1) (layer "F.Fab") (width 0.1) (tstamp 1cbf17f4-f76e-4086-9852-ae598ba7d047))
  (fp_line (start -2 1) (end -2 -1) (layer "F.Fab") (width 0.1) (tstamp 4d715df5-a70d-44c1-a013-3b9588252bb7))
  (fp_line (start 2 1) (end -2 1) (layer "F.Fab") (width 0.1) (tstamp df38757e-5474-46eb-9d6d-d9d4a2d45f0b))
  (fp_line (start 2 -1) (end 2 1) (layer "F.Fab") (width 0.1) (tstamp f822305f-1edd-4b62-8567-37cf12427d81))
  (pad "1" thru_hole circle (at -1 0) (size 1.5 1.5) (drill 0.85) (layers *.Cu *.Mask) (tstamp 252659dc-b62e-4768-9356-995b93e3d242))
  (pad "2" thru_hole circle (at 1 0) (size 1.5 1.5) (drill 0.85) (layers *.Cu *.Mask) (tstamp 0711c650-139f-4562-8504-b8746c168d4d))
  (model "${PARTS}/models/mpe-garry/150-1-002.wrl"
    (offset (xyz 0 0 0))
    (scale (xyz 1 1 1))
    (rotate (xyz 0 0 0))
  )
)
