(footprint "150-1-004" (version 20211014) (generator pcbnew)
  (layer "F.Cu")
  (tedit 5B79522F)
  (attr through_hole)
  (fp_text reference "REF**" (at 0 -1.6) (layer "F.SilkS")
    (effects (font (size 0.6 0.6) (thickness 0.15)))
    (tstamp a608ce1f-c8e7-40c7-86c4-b215af902e37)
  )
  (fp_text value "150-1-004" (at 0 1.7) (layer "F.Fab")
    (effects (font (size 0.6 0.6) (thickness 0.15)))
    (tstamp 9a977b17-c734-409b-90e3-db8671809016)
  )
  (fp_line (start -4.05 -1.05) (end 4.05 -1.05) (layer "F.SilkS") (width 0.15) (tstamp 06cb3a24-5d64-4848-9d55-89cfba19810f))
  (fp_line (start 4.05 1.05) (end -4.05 1.05) (layer "F.SilkS") (width 0.15) (tstamp 13ea0ad3-294f-4f01-a527-752d4974a9cf))
  (fp_line (start -4.05 1.05) (end -4.05 -1.05) (layer "F.SilkS") (width 0.15) (tstamp 3368fb15-602f-41bb-b745-85e475f51d74))
  (fp_line (start 4.05 -1.05) (end 4.05 1.05) (layer "F.SilkS") (width 0.15) (tstamp da0e97d6-7d4c-42ba-a42c-5aa68e59ff2b))
  (fp_circle (center -3.9 1.5) (end -3.8 1.5) (layer "F.SilkS") (width 0.2) (fill none) (tstamp 7d2af8f1-9c13-4f25-8563-36154f0fb50d))
  (fp_line (start 4.125 1.125) (end -4.125 1.125) (layer "F.CrtYd") (width 0.05) (tstamp 20baa9f4-fa15-4d54-991e-baa63fa0d913))
  (fp_line (start -4.125 -1.125) (end 4.125 -1.125) (layer "F.CrtYd") (width 0.05) (tstamp 71c2bf9c-2dd3-44f5-9f12-099c0cb914ff))
  (fp_line (start 4.125 -1.125) (end 4.125 1.125) (layer "F.CrtYd") (width 0.05) (tstamp 721a89eb-af28-4650-bd3f-c45fa307f4d0))
  (fp_line (start -4.125 1.125) (end -4.125 -1.125) (layer "F.CrtYd") (width 0.05) (tstamp bc5de9b9-d7dd-43bf-9490-ff5b8d0a3c89))
  (fp_line (start -4 1) (end -4 -1) (layer "F.Fab") (width 0.1) (tstamp 2198dd96-cd18-41da-ab71-9d72e51bd397))
  (fp_line (start 4 1) (end -4 1) (layer "F.Fab") (width 0.1) (tstamp a38e699c-0a63-4e9c-91da-ca28eacb548c))
  (fp_line (start 4 -1) (end 4 1) (layer "F.Fab") (width 0.1) (tstamp b25a904b-f9b0-4cbd-932d-8a55cd634ad0))
  (fp_line (start -4 -1) (end 4 -1) (layer "F.Fab") (width 0.1) (tstamp b3fde80b-57b9-4592-8231-74beb6a5e2b3))
  (pad "1" thru_hole circle (at -3 0) (size 1.5 1.5) (drill 0.85) (layers *.Cu *.Mask) (tstamp e86736da-88ca-41d3-b613-b718acb7af92))
  (pad "2" thru_hole circle (at -1 0) (size 1.5 1.5) (drill 0.85) (layers *.Cu *.Mask) (tstamp 7b8f6bcf-0d13-430d-bce9-5a04a039658a))
  (pad "3" thru_hole circle (at 1 0) (size 1.5 1.5) (drill 0.85) (layers *.Cu *.Mask) (tstamp b04dd4d1-8772-4ce9-914c-f89cbf5aab36))
  (pad "4" thru_hole circle (at 3 0) (size 1.5 1.5) (drill 0.85) (layers *.Cu *.Mask) (tstamp 8a2ed459-b477-4a91-ad90-f457f4d66cac))
  (model "${PARTS}/models/mpe-garry/150-1-004.wrl"
    (offset (xyz 0 0 0))
    (scale (xyz 1 1 1))
    (rotate (xyz 0 0 0))
  )
)
