<?xml version="1.0" encoding="UTF-8" standalone="no"?>

<svg
    xmlns="http://www.w3.org/2000/svg" version="1.1"
    xmlns:freecad="http://www.freecadweb.org/wiki/index.php?title=Svg_Namespace"
    width="297mm"
    height="210mm"
    viewBox="0 0 297 210">
    <g>
        <rect
            id="drawing-border"
            style="fill:none;stroke:#000000;stroke-width:0.254;stroke-linecap:round;stroke-linejoin:round"
            width="277"
            height="190"
            x="-77"
            y="97" />
        <g
            transform="translate(100,100)">
            <g
                id="titleblock-structure"
                style="fill:none;stroke:#000000;stroke-width:0.254;stroke-miterlimit:4;stroke-linejoin:round">
                <path d="m 20,287 0,-60 h 180" />
                <path d="m 20,239 h 200" />
                <path d="m 80,227 v 12" />
                <path d="m 140,239 v 48" />
                <path d="m 160,239 v 12" />
                <path d="m 180,239 v 12" />
                <path d="m 140,251 h 60" />
                <path d="m 140,275 h 60" />
                <path d="m 180,275 v 12" />
            </g>
            <g
                id="titleblock-text-non-editable"
                style="font-size:3px;font-family:osifont;text-anchor:start;fill:#000000"
                xml:space="preserve">
                <text x="21" y="230">Created by:</text>
                <text x="81" y="230">Title:</text>
                <text x="21" y="242">Supplementary information:</text>
                <text x="141" y="242">Size:</text>
                <text x="161" y="242">Sheet:</text>
                <text x="181" y="242">Scale:</text>
                <text x="141" y="254">Internal identification number:</text>
                <text x="141" y="266">Original manufacturer:</text>
                <text x="141" y="278">Date:</text>
                <text x="181" y="278">Revision:</text>
            </g>
            <g
                id="titleblock-text-editable"
                style="font-size:5px;text-anchor:middle;fill:#000000;font-family:osifont"
                xml:space="preserve">
                <text freecad:editable="AUTHOR NAME" x="50" y="236"><tspan>AUTHOR NAME</tspan></text>
                <text freecad:editable="DRAWING TITLE" x="140" y="236"><tspan>DRAWING TITLE</tspan></text>
                <text freecad:editable="SI-1" x="76" y="248"><tspan></tspan></text>
                <text freecad:editable="SI-2" x="76" y="255"><tspan>This content is licensed under:</tspan></text>
                <text freecad:editable="SI-3" x="76" y="262"><tspan>Creative Commons</tspan></text>
                <text freecad:editable="SI-4" x="76" y="269"><tspan>Attribution-NonCommercial-ShareAlike</tspan></text>
                <text freecad:editable="SI-5" x="76" y="276"><tspan>4.0 International License</tspan></text>
                <text freecad:editable="SI-6" x="76" y="283"><tspan></tspan></text>
                <text freecad:editable="FC-SI" x="150" y="248"><tspan>A4</tspan></text>
                <text freecad:editable="FC-SH" x="170" y="248"><tspan>X / Y</tspan></text>
                <text freecad:editable="FC-SC" x="190" y="248"><tspan>SCALE</tspan></text>
                <text freecad:editable="PN" x="170" y="260"><tspan>PN</tspan></text>
                <text freecad:editable="DN" x="170" y="272"><tspan>MFG</tspan></text>
                <text freecad:editable="FC-DATE" x="160" y="284"><tspan>YYYY-MM-DD</tspan></text>
                <text freecad:editable="FC-REV" x="190" y="284"><tspan>REV 0</tspan></text>
            </g>
            <g
                style="display:inline"
                id="freecad-logo"
                transform="translate(122.2,270.3)"
                fill-rule="evenodd"
                stroke="#000000"
                stroke-width="0.254"
                stroke-linejoin="round"
                stroke-linecap="round"
                fill="none">
                    <path d="M 4.3134677,6.4941749 C 4.1762678,5.7480789 5.1477478,4.5408209 6.3631468,4.951079 7.3074774,5.2698336 8.2231367,6.4766225 6.996266,8.1995709 6.3876322,9.0543037 5.2608621,9.2413043 4.9226287,11.036192 7.3412102,7.9159581 11.726162,7.4509536 14.886658,11.627968 c -1.530037,-1.240221 -3.096571,-0.811372 -3.096571,-0.811372 0,0 3.091646,0.666456 3.926923,3.199511 -4.236694,-1.11471 -5.232293,0.648968 -8.5491085,0.68113 C 3.8116977,14.729798 1.8020047,10.901756 5.3589687,8.209048 7.1818315,6.8290991 6.2263123,6.0295437 5.5215764,6.7325167 5.1298773,7.1232399 4.7683384,7.5424018 4.0025072,7.8445926 3.8024007,7.9235541 3.7681566,7.7003921 3.8856578,7.5299763 4.447722,6.7147754 4.3704561,6.8040788 4.3134677,6.4941749 Z" />
            </g>
        </g>
    </g>
    <!-- DrawingContent -->
</svg>
