(module CR254 (layer F.Cu) (tedit 5FF4C2EB)
  (fp_text reference REF** (at 0 -3.7) (layer F.SilkS)
    (effects (font (size 0.6 0.6) (thickness 0.15)))
  )
  (fp_text value CR254 (at 0 3.7) (layer F.Fab)
    (effects (font (size 0.6 0.6) (thickness 0.15)))
  )
  (fp_line (start -6.3 -2.75) (end 6.3 -2.75) (layer F.SilkS) (width 0.15))
  (fp_line (start -6.3 2.75) (end 6.3 2.75) (layer F.SilkS) (width 0.15))
  (fp_line (start 6.3 -2.75) (end 6.3 2.75) (layer F.SilkS) (width 0.15))
  (fp_line (start -6.3 -2.75) (end -6.3 2.75) (layer F.SilkS) (width 0.15))
  (fp_line (start -11.4 -3.2) (end 11.4 -3.2) (layer F.CrtYd) (width 0.05))
  (fp_line (start 11.4 -3.2) (end 11.4 3.2) (layer F.CrtYd) (width 0.05))
  (fp_line (start 11.4 3.2) (end -11.4 3.2) (layer F.CrtYd) (width 0.05))
  (fp_line (start -11.4 3.2) (end -11.4 -3.2) (layer F.CrtYd) (width 0.05))
  (pad 1 thru_hole circle (at -10 0) (size 2 2) (drill 1) (layers *.Cu *.Mask))
  (pad 2 thru_hole circle (at 10 0) (size 2 2) (drill 1) (layers *.Cu *.Mask))
  (model ${PARTS}/models/vitrohm/CR254.wrl
    (at (xyz 0 0 0))
    (scale (xyz 1 1 1))
    (rotate (xyz 0 0 0))
  )
)
