(module 64Y (layer F.Cu) (tedit 601D3C98)
  (solder_mask_margin 0.05)
  (solder_paste_margin -0.05)
  (clearance 0.1)
  (fp_text reference REF** (at 0 -5.5) (layer F.SilkS)
    (effects (font (size 0.6 0.6) (thickness 0.15)))
  )
  (fp_text value 64Y (at 0 5.6) (layer F.Fab)
    (effects (font (size 0.6 0.6) (thickness 0.15)))
  )
  (fp_line (start -3.4 -5.1) (end -3.4 5.1) (layer F.CrtYd) (width 0.05))
  (fp_line (start 2.1 -5.1) (end -3.4 -5.1) (layer F.CrtYd) (width 0.05))
  (fp_line (start 2.1 5.1) (end 2.1 -5.1) (layer F.CrtYd) (width 0.05))
  (fp_line (start -3.4 5.1) (end 2.1 5.1) (layer F.CrtYd) (width 0.05))
  (fp_line (start -3.2 2.125) (end -3.2 -2.125) (layer F.SilkS) (width 0.15))
  (fp_line (start -3.2 4.9) (end -3.2 2.95) (layer F.SilkS) (width 0.15))
  (fp_line (start 1.925 4.9) (end -3.2 4.9) (layer F.SilkS) (width 0.15))
  (fp_line (start 1.925 -4.9) (end 1.925 4.85) (layer F.SilkS) (width 0.15))
  (fp_line (start -3.2 -4.9) (end 1.925 -4.9) (layer F.SilkS) (width 0.15))
  (fp_line (start -3.2 -2.95) (end -3.2 -4.9) (layer F.SilkS) (width 0.15))
  (fp_line (start -3.14 -4.85) (end 1.86 -4.85) (layer F.Fab) (width 0.1))
  (fp_line (start -3.14 4.85) (end 1.86 4.85) (layer F.Fab) (width 0.1))
  (fp_line (start -3.14 -4.85) (end -3.14 4.85) (layer F.Fab) (width 0.1))
  (fp_line (start 1.86 -4.85) (end 1.86 4.85) (layer F.Fab) (width 0.1))
  (pad 1 thru_hole circle (at -2.54 -2.54) (size 1.2 1.2) (drill 0.7) (layers *.Cu *.Mask))
  (pad 2 thru_hole circle (at 0 0) (size 1.2 1.2) (drill 0.7) (layers *.Cu *.Mask))
  (pad 3 thru_hole circle (at -2.54 2.54) (size 1.2 1.2) (drill 0.7) (layers *.Cu *.Mask))
  (model ${PARTS}/models/vishay/64Y.wrl
    (at (xyz 0 0 0))
    (scale (xyz 1 1 1))
    (rotate (xyz 0 0 0))
  )
)
