(module IHLP-2525 (layer F.Cu) (tedit 5C603067)
  (solder_mask_margin 0.05)
  (clearance 0.1)
  (attr smd)
  (fp_text reference REF** (at 0 -3.9) (layer F.SilkS)
    (effects (font (size 0.6 0.6) (thickness 0.15)))
  )
  (fp_text value IHLP-2525 (at 0 3.9) (layer F.Fab)
    (effects (font (size 0.6 0.6) (thickness 0.15)))
  )
  (fp_line (start -3.25 -3.25) (end 3.25 -3.25) (layer F.Fab) (width 0.1))
  (fp_line (start -3.25 3.25) (end 3.25 3.25) (layer F.Fab) (width 0.1))
  (fp_line (start -3.25 3.25) (end -3.25 -3.25) (layer F.Fab) (width 0.1))
  (fp_line (start 3.25 3.25) (end 3.25 -3.25) (layer F.Fab) (width 0.1))
  (fp_line (start 3.45 1.6) (end 3.45 -1.6) (layer F.Fab) (width 0.1))
  (fp_line (start 3.45 -1.6) (end 2.15 -1.6) (layer F.Fab) (width 0.1))
  (fp_line (start 2.15 1.6) (end 3.45 1.6) (layer F.Fab) (width 0.1))
  (fp_line (start 2.15 -1.6) (end 2.15 1.6) (layer F.Fab) (width 0.1))
  (fp_line (start -3.45 1.6) (end -2.15 1.6) (layer F.Fab) (width 0.1))
  (fp_line (start -3.45 -1.6) (end -3.45 1.6) (layer F.Fab) (width 0.1))
  (fp_line (start -2.15 -1.6) (end -3.45 -1.6) (layer F.Fab) (width 0.1))
  (fp_line (start -2.15 1.6) (end -2.15 -1.6) (layer F.Fab) (width 0.1))
  (fp_line (start -3.3 -1.875) (end -3.3 -3.3) (layer F.SilkS) (width 0.15))
  (fp_line (start -3.3 -3.3) (end 3.3 -3.3) (layer F.SilkS) (width 0.15))
  (fp_line (start 3.3 -3.3) (end 3.3 -1.875) (layer F.SilkS) (width 0.15))
  (fp_line (start -3.3 3.3) (end -3.3 1.875) (layer F.SilkS) (width 0.15))
  (fp_line (start 3.3 1.875) (end 3.3 3.3) (layer F.SilkS) (width 0.15))
  (fp_line (start 3.3 3.3) (end -3.3 3.3) (layer F.SilkS) (width 0.15))
  (fp_line (start -4.2 -3.4) (end 4.2 -3.4) (layer F.CrtYd) (width 0.05))
  (fp_line (start 4.2 -3.4) (end 4.2 3.4) (layer F.CrtYd) (width 0.05))
  (fp_line (start 4.2 3.4) (end -4.2 3.4) (layer F.CrtYd) (width 0.05))
  (fp_line (start -4.2 3.4) (end -4.2 -3.4) (layer F.CrtYd) (width 0.05))
  (pad 1 smd rect (at -2.9 0) (size 2.4 3.4) (layers F.Cu F.Paste F.Mask))
  (pad 2 smd rect (at 2.9 0) (size 2.4 3.4) (layers F.Cu F.Paste F.Mask))
  (model ${PARTS}/models/vishay/IHLP-2525.wrl
    (at (xyz 0 0 0))
    (scale (xyz 1 1 1))
    (rotate (xyz 0 0 0))
  )
)
